abundance	species	genus	family	order	class	phylum	clade	superkingdom	subspecies	species subgroup	species group	tax_id
0.00021281402498852492	Bacillus altitudinis	Bacillus	Bacillaceae	Bacillales	Bacilli	Firmicutes	Terrabacteria group	Bacteria			Bacillus altitudinis complex	293387
0.0024693823652491872	Bacillus amyloliquefaciens	Bacillus	Bacillaceae	Bacillales	Bacilli	Firmicutes	Terrabacteria group	Bacteria		Bacillus amyloliquefaciens group	Bacillus subtilis group	1390
0.0011406791642122258	Bacillus atrophaeus	Bacillus	Bacillaceae	Bacillales	Bacilli	Firmicutes	Terrabacteria group	Bacteria			Bacillus subtilis group	1452
0.045174872517231617	Bacillus halotolerans	Bacillus	Bacillaceae	Bacillales	Bacilli	Firmicutes	Terrabacteria group	Bacteria		Bacillus mojavensis subgroup	Bacillus subtilis group	260554
0.0004453022032032166	Bacillus licheniformis	Bacillus	Bacillaceae	Bacillales	Bacilli	Firmicutes	Terrabacteria group	Bacteria			Bacillus subtilis group	1402
0.029358293932663353	Bacillus mojavensis	Bacillus	Bacillaceae	Bacillales	Bacilli	Firmicutes	Terrabacteria group	Bacteria		Bacillus mojavensis subgroup	Bacillus subtilis group	72360
0.00017247263843756845	Bacillus pumilus	Bacillus	Bacillaceae	Bacillales	Bacilli	Firmicutes	Terrabacteria group	Bacteria				1408
0.0019568486408675697	Bacillus safensis	Bacillus	Bacillaceae	Bacillales	Bacilli	Firmicutes	Terrabacteria group	Bacteria				561879
0.0001140039308628691	Bacillus siamensis	Bacillus	Bacillaceae	Bacillales	Bacilli	Firmicutes	Terrabacteria group	Bacteria		Bacillus amyloliquefaciens group	Bacillus subtilis group	659243
0.0002604603697958415	Bacillus sp. BS34A	Bacillus	Bacillaceae	Bacillales	Bacilli	Firmicutes	Terrabacteria group	Bacteria				1806506
0.00010764328269288081	Bacillus sp. SDLI1	Bacillus	Bacillaceae	Bacillales	Bacilli	Firmicutes	Terrabacteria group	Bacteria				1774743
0.00023197293184982457	Bacillus sp. ZY-1-1	Bacillus	Bacillaceae	Bacillales	Bacilli	Firmicutes	Terrabacteria group	Bacteria				2093834
0.10465673851193052	Bacillus subtilis	Bacillus	Bacillaceae	Bacillales	Bacilli	Firmicutes	Terrabacteria group	Bacteria			Bacillus subtilis group	1423
0.00048613805037592777	Bacillus vallismortis	Bacillus	Bacillaceae	Bacillales	Bacilli	Firmicutes	Terrabacteria group	Bacteria			Bacillus subtilis group	72361
0.0033643579579388243	Bacillus velezensis	Bacillus	Bacillaceae	Bacillales	Bacilli	Firmicutes	Terrabacteria group	Bacteria		Bacillus amyloliquefaciens group	Bacillus subtilis group	492670
0.00019505346321275986	Listeria grayi	Listeria	Listeriaceae	Bacillales	Bacilli	Firmicutes	Terrabacteria group	Bacteria				1641
0.004845880067468915	Listeria innocua	Listeria	Listeriaceae	Bacillales	Bacilli	Firmicutes	Terrabacteria group	Bacteria				1642
0.0092620443624512	Listeria ivanovii	Listeria	Listeriaceae	Bacillales	Bacilli	Firmicutes	Terrabacteria group	Bacteria				1638
0.0011688052209069193	Listeria marthii	Listeria	Listeriaceae	Bacillales	Bacilli	Firmicutes	Terrabacteria group	Bacteria				529731
0.09534387623809557	Listeria monocytogenes	Listeria	Listeriaceae	Bacillales	Bacilli	Firmicutes	Terrabacteria group	Bacteria				1639
0.007254669069561182	Listeria seeligeri	Listeria	Listeriaceae	Bacillales	Bacilli	Firmicutes	Terrabacteria group	Bacteria				1640
0.004602989701792073	Listeria welshimeri	Listeria	Listeriaceae	Bacillales	Bacilli	Firmicutes	Terrabacteria group	Bacteria				1643
0.00020935514938454593	Staphylococcus agnetis	Staphylococcus	Staphylococcaceae	Bacillales	Bacilli	Firmicutes	Terrabacteria group	Bacteria				985762
0.002296003930926408	Staphylococcus argenteus	Staphylococcus	Staphylococcaceae	Bacillales	Bacilli	Firmicutes	Terrabacteria group	Bacteria				985002
0.00018897263925210495	Staphylococcus arlettae	Staphylococcus	Staphylococcaceae	Bacillales	Bacilli	Firmicutes	Terrabacteria group	Bacteria				29378
0.15736571555947887	Staphylococcus aureus	Staphylococcus	Staphylococcaceae	Bacillales	Bacilli	Firmicutes	Terrabacteria group	Bacteria				1280
0.00044285682209623705	Staphylococcus capitis	Staphylococcus	Staphylococcaceae	Bacillales	Bacilli	Firmicutes	Terrabacteria group	Bacteria				29388
0.00019176540361503933	Staphylococcus caprae	Staphylococcus	Staphylococcaceae	Bacillales	Bacilli	Firmicutes	Terrabacteria group	Bacteria				29380
0.0003512046724254157	Staphylococcus chromogenes	Staphylococcus	Staphylococcaceae	Bacillales	Bacilli	Firmicutes	Terrabacteria group	Bacteria				46126
0.0017069392448438793	Staphylococcus cohnii	Staphylococcus	Staphylococcaceae	Bacillales	Bacilli	Firmicutes	Terrabacteria group	Bacteria				29382
0.0005509819096045035	Staphylococcus condimenti	Staphylococcus	Staphylococcaceae	Bacillales	Bacilli	Firmicutes	Terrabacteria group	Bacteria				70255
0.00023282771720484853	Staphylococcus devriesei	Staphylococcus	Staphylococcaceae	Bacillales	Bacilli	Firmicutes	Terrabacteria group	Bacteria				586733
0.001503004486783203	Staphylococcus epidermidis	Staphylococcus	Staphylococcaceae	Bacillales	Bacilli	Firmicutes	Terrabacteria group	Bacteria				1282
0.004591427213378503	Staphylococcus haemolyticus	Staphylococcus	Staphylococcaceae	Bacillales	Bacilli	Firmicutes	Terrabacteria group	Bacteria				1283
0.00030258515618471546	Staphylococcus hominis	Staphylococcus	Staphylococcaceae	Bacillales	Bacilli	Firmicutes	Terrabacteria group	Bacteria				1290
0.00022510080638514052	Staphylococcus hyicus	Staphylococcus	Staphylococcaceae	Bacillales	Bacilli	Firmicutes	Terrabacteria group	Bacteria				1284
0.00015281486717671423	Staphylococcus kloosii	Staphylococcus	Staphylococcaceae	Bacillales	Bacilli	Firmicutes	Terrabacteria group	Bacteria				29384
0.0012613480429610484	Staphylococcus lugdunensis	Staphylococcus	Staphylococcaceae	Bacillales	Bacilli	Firmicutes	Terrabacteria group	Bacteria				28035
0.00040385009226087876	Staphylococcus pasteuri	Staphylococcus	Staphylococcaceae	Bacillales	Bacilli	Firmicutes	Terrabacteria group	Bacteria				45972
0.0008036727174677334	Staphylococcus petrasii	Staphylococcus	Staphylococcaceae	Bacillales	Bacilli	Firmicutes	Terrabacteria group	Bacteria				1276936
0.00010615697731831209	Staphylococcus saccharolyticus	Staphylococcus	Staphylococcaceae	Bacillales	Bacilli	Firmicutes	Terrabacteria group	Bacteria				33028
0.001376355457224087	Staphylococcus schweitzeri	Staphylococcus	Staphylococcaceae	Bacillales	Bacilli	Firmicutes	Terrabacteria group	Bacteria				1654388
0.00016400653281874555	Staphylococcus sciuri	Staphylococcus	Staphylococcaceae	Bacillales	Bacilli	Firmicutes	Terrabacteria group	Bacteria				1296
0.0021245331092991965	Staphylococcus simiae	Staphylococcus	Staphylococcaceae	Bacillales	Bacilli	Firmicutes	Terrabacteria group	Bacteria				308354
0.00030486598204547253	Staphylococcus warneri	Staphylococcus	Staphylococcaceae	Bacillales	Bacilli	Firmicutes	Terrabacteria group	Bacteria				1292
0.000998801634526416	Carnobacterium inhibens	Carnobacterium	Carnobacteriaceae	Lactobacillales	Bacilli	Firmicutes	Terrabacteria group	Bacteria				147709
0.00015139923084276505	Enterococcus avium	Enterococcus	Enterococcaceae	Lactobacillales	Bacilli	Firmicutes	Terrabacteria group	Bacteria				33945
0.000753283586266914	Enterococcus canintestini	Enterococcus	Enterococcaceae	Lactobacillales	Bacilli	Firmicutes	Terrabacteria group	Bacteria				317010
0.0007546006615074487	Enterococcus canis	Enterococcus	Enterococcaceae	Lactobacillales	Bacilli	Firmicutes	Terrabacteria group	Bacteria				214095
0.0023474484450055977	Enterococcus dispar	Enterococcus	Enterococcaceae	Lactobacillales	Bacilli	Firmicutes	Terrabacteria group	Bacteria				44009
0.0006480541836778455	Enterococcus durans	Enterococcus	Enterococcaceae	Lactobacillales	Bacilli	Firmicutes	Terrabacteria group	Bacteria				53345
0.07064966712297258	Enterococcus faecalis	Enterococcus	Enterococcaceae	Lactobacillales	Bacilli	Firmicutes	Terrabacteria group	Bacteria				1351
0.0036261046094984675	Enterococcus faecium	Enterococcus	Enterococcaceae	Lactobacillales	Bacilli	Firmicutes	Terrabacteria group	Bacteria				1352
0.0005942311727691867	Enterococcus hirae	Enterococcus	Enterococcaceae	Lactobacillales	Bacilli	Firmicutes	Terrabacteria group	Bacteria				1354
0.00012694819944158176	Enterococcus massiliensis	Enterococcus	Enterococcaceae	Lactobacillales	Bacilli	Firmicutes	Terrabacteria group	Bacteria				1640685
0.0005462068143915843	Enterococcus mundtii	Enterococcus	Enterococcaceae	Lactobacillales	Bacilli	Firmicutes	Terrabacteria group	Bacteria				53346
0.001965042956788484	Enterococcus olivae	Enterococcus	Enterococcaceae	Lactobacillales	Bacilli	Firmicutes	Terrabacteria group	Bacteria				1242999
0.0018553597935855642	Enterococcus rivorum	Enterococcus	Enterococcaceae	Lactobacillales	Bacilli	Firmicutes	Terrabacteria group	Bacteria				762845
0.00030088781864138006	Enterococcus saccharolyticus	Enterococcus	Enterococcaceae	Lactobacillales	Bacilli	Firmicutes	Terrabacteria group	Bacteria				41997
0.00019086863647234089	Enterococcus saigonensis	Enterococcus	Enterococcaceae	Lactobacillales	Bacilli	Firmicutes	Terrabacteria group	Bacteria				1805431
0.00012421260146975392	Enterococcus sp. DA9	Enterococcus	Enterococcaceae	Lactobacillales	Bacilli	Firmicutes	Terrabacteria group	Bacteria				2603296
0.0001885606914604691	Enterococcus villorum	Enterococcus	Enterococcaceae	Lactobacillales	Bacilli	Firmicutes	Terrabacteria group	Bacteria				112904
0.0005831303048759991	Enterococcus wangshanyuanii	Enterococcus	Enterococcaceae	Lactobacillales	Bacilli	Firmicutes	Terrabacteria group	Bacteria				2005703
0.1469270827462015	Limosilactobacillus fermentum	Limosilactobacillus	Lactobacillaceae	Lactobacillales	Bacilli	Firmicutes	Terrabacteria group	Bacteria				1613
0.0001715559400131936	Neisseria gonorrhoeae	Neisseria	Neisseriaceae	Neisseriales	Betaproteobacteria	Proteobacteria		Bacteria				485
0.0011014877450903858	Neisseria meningitidis	Neisseria	Neisseriaceae	Neisseriales	Betaproteobacteria	Proteobacteria		Bacteria				487
0.00011044797309251985	Neisseria polysaccharea	Neisseria	Neisseriaceae	Neisseriales	Betaproteobacteria	Proteobacteria		Bacteria				489
0.0013464110636483128	Atlantibacter hermannii	Atlantibacter	Enterobacteriaceae	Enterobacterales	Gammaproteobacteria	Proteobacteria		Bacteria				565
0.00013078784925144387	Citrobacter amalonaticus	Citrobacter	Enterobacteriaceae	Enterobacterales	Gammaproteobacteria	Proteobacteria		Bacteria				35703
0.00019064723767643252	Enterobacter oligotrophica	Enterobacter	Enterobacteriaceae	Enterobacterales	Gammaproteobacteria	Proteobacteria		Bacteria				2478464
0.00021066583162546873	Escherichia albertii	Escherichia	Enterobacteriaceae	Enterobacterales	Gammaproteobacteria	Proteobacteria		Bacteria				208962
0.08309966901238207	Escherichia coli	Escherichia	Enterobacteriaceae	Enterobacterales	Gammaproteobacteria	Proteobacteria		Bacteria				562
0.0009457587806606078	Escherichia fergusonii	Escherichia	Enterobacteriaceae	Enterobacterales	Gammaproteobacteria	Proteobacteria		Bacteria				564
0.00037653654390028957	Escherichia marmotae	Escherichia	Enterobacteriaceae	Enterobacterales	Gammaproteobacteria	Proteobacteria		Bacteria				1499973
0.0010309125347846085	Escherichia sp. E4742	Escherichia	Enterobacteriaceae	Enterobacterales	Gammaproteobacteria	Proteobacteria		Bacteria				2044467
0.00036914047871006427	Klebsiella pneumoniae	Klebsiella	Enterobacteriaceae	Enterobacterales	Gammaproteobacteria	Proteobacteria		Bacteria				573
0.0002185844846155061	Kosakonia cowanii	Kosakonia	Enterobacteriaceae	Enterobacterales	Gammaproteobacteria	Proteobacteria		Bacteria				208223
0.0003772701361278169	Kosakonia sp. CCTCC M2018092	Kosakonia	Enterobacteriaceae	Enterobacterales	Gammaproteobacteria	Proteobacteria		Bacteria				2492396
0.13181382926844643	Salmonella enterica	Salmonella	Enterobacteriaceae	Enterobacterales	Gammaproteobacteria	Proteobacteria		Bacteria				28901
0.00010878029045576721	Salmonella sp. SSDFZ69	Salmonella	Enterobacteriaceae	Enterobacterales	Gammaproteobacteria	Proteobacteria		Bacteria				2500543
0.0008303320497440116	Shigella boydii	Shigella	Enterobacteriaceae	Enterobacterales	Gammaproteobacteria	Proteobacteria		Bacteria				621
0.0013899754174813838	Shigella dysenteriae	Shigella	Enterobacteriaceae	Enterobacterales	Gammaproteobacteria	Proteobacteria		Bacteria				622
0.001647507871445991	Shigella flexneri	Shigella	Enterobacteriaceae	Enterobacterales	Gammaproteobacteria	Proteobacteria		Bacteria				623
0.0028361122559348584	Shigella sonnei	Shigella	Enterobacteriaceae	Enterobacterales	Gammaproteobacteria	Proteobacteria		Bacteria				624
0.0005308674654232585	Shigella sp. PAMC 28760	Shigella	Enterobacteriaceae	Enterobacterales	Gammaproteobacteria	Proteobacteria		Bacteria				1813821
0.00011880914554120328	Trabulsiella odontotermitis	Trabulsiella	Enterobacteriaceae	Enterobacterales	Gammaproteobacteria	Proteobacteria		Bacteria				379893
0.046242727966976246	Pseudomonas aeruginosa	Pseudomonas	Pseudomonadaceae	Pseudomonadales	Gammaproteobacteria	Proteobacteria		Bacteria			Pseudomonas aeruginosa group	287
0.000591183706465812	Pseudomonas fluorescens	Pseudomonas	Pseudomonadaceae	Pseudomonadales	Gammaproteobacteria	Proteobacteria		Bacteria			Pseudomonas fluorescens group	294
0.0011964646041870263	Pseudomonas sp. AK6U	Pseudomonas	Pseudomonadaceae	Pseudomonadales	Gammaproteobacteria	Proteobacteria		Bacteria				1978467
