tax_id	abundance	species	genus	family	order	class	phylum	clade	superkingdom	subspecies	species subgroup	species group
1502	0.001356219361178951	Clostridium perfringens	Clostridium	Clostridiaceae	Eubacteriales	Clostridia	Firmicutes	Terrabacteria group	Bacteria			
1515	0.0011475702286898816	Acetivibrio thermocellus	Acetivibrio	Oscillospiraceae	Eubacteriales	Clostridia	Firmicutes	Terrabacteria group	Bacteria			
395922	0.017864538723714123	Coraliomargarita akajimensis	Coraliomargarita	Puniceicoccaceae	Puniceicoccales	Opitutae	Verrucomicrobia	PVC group	Bacteria			
1718	0.001281105673482886	Corynebacterium glutamicum	Corynebacterium	Corynebacteriaceae	Corynebacteriales	Actinomycetia	Actinobacteria	Terrabacteria group	Bacteria			
885581	0.0698894459698041	Desulfosporosinus acidiphilus	Desulfosporosinus	Peptococcaceae	Eubacteriales	Clostridia	Firmicutes	Terrabacteria group	Bacteria			
79209	0.02579495969835822	Desulfosporosinus meridiei	Desulfosporosinus	Peptococcaceae	Eubacteriales	Clostridia	Firmicutes	Terrabacteria group	Bacteria			
41211	0.014493417427927521	Desulfotomaculum sp.	Desulfotomaculum	Peptococcaceae	Eubacteriales	Clostridia	Firmicutes	Terrabacteria group	Bacteria			
102134	0.06192432734619797	Desulfoscipio gibsoniae	Desulfoscipio	Desulfallaceae	Eubacteriales	Clostridia	Firmicutes	Terrabacteria group	Bacteria			
390884	0.003286223836702843	Echinicola vietnamensis	Echinicola	Cyclobacteriaceae	Cytophagales	Cytophagia	Bacteroidetes	FCB group	Bacteria			
562	0.00102105661080021	Escherichia coli	Escherichia	Enterobacteriaceae	Enterobacterales	Gammaproteobacteria	Proteobacteria		Bacteria			
28901	0.0017432933501520466	Salmonella enterica	Salmonella	Enterobacteriaceae	Enterobacterales	Gammaproteobacteria	Proteobacteria		Bacteria			
93466	0.12147135195248641	Fervidobacterium pennivorans	Fervidobacterium	Fervidobacteriaceae	Thermotogales	Thermotogae	Thermotogae		Bacteria			
81475	0.07406626905096986	Frateuria aurantia	Frateuria	Rhodanobacteraceae	Xanthomonadales	Gammaproteobacteria	Proteobacteria		Bacteria			
387341	0.061029865469169164	Halovivax ruber	Halovivax	Natrialbaceae	Natrialbales	Halobacteria	Euryarchaeota	Stenosarchaea group	Archaea			
29288	0.05607654570125971	Natronococcus occultus	Natronococcus	Natrialbaceae	Natrialbales	Halobacteria	Euryarchaeota	Stenosarchaea group	Archaea			
44930	0.07850319378373614	Natronobacterium gregoryi	Natronobacterium	Natrialbaceae	Natrialbales	Halobacteria	Euryarchaeota	Stenosarchaea group	Archaea			
2724	0.04641921575050571	Hirschia baltica	Hirschia	Hyphomonadaceae	Hyphomonadales	Alphaproteobacteria	Proteobacteria		Bacteria			
52022	0.1142354000377655	Meiothermus silvanus	Meiothermus	Thermaceae	Thermales	Deinococci	Deinococcus-Thermus	Terrabacteria group	Bacteria			
133926	0.08867588130785449	Olsenella uli	Olsenella	Atopobiaceae	Coriobacteriales	Coriobacteriia	Actinobacteria	Terrabacteria group	Bacteria			
316	0.03784895263351719	Pseudomonas stutzeri	Pseudomonas	Pseudomonadaceae	Pseudomonadales	Gammaproteobacteria	Proteobacteria		Bacteria		Pseudomonas stutzeri subgroup	Pseudomonas stutzeri group
54736	0.0004446736967296306	Salmonella bongori	Salmonella	Enterobacteriaceae	Enterobacterales	Gammaproteobacteria	Proteobacteria		Bacteria			
286802	0.031820035950245525	Segniliparus rotundus	Segniliparus	Segniliparaceae	Corynebacteriales	Actinomycetia	Actinobacteria	Terrabacteria group	Bacteria			
55206	0.07250453029428917	Sediminispirochaeta smaragdinae	Sediminispirochaeta	Spirochaetaceae	Spirochaetales	Spirochaetia	Spirochaetes		Bacteria			
1314	0.003989371413191007	Streptococcus pyogenes	Streptococcus	Streptococcaceae	Lactobacillales	Bacilli	Firmicutes	Terrabacteria group	Bacteria			
392734	0.012489737070795695	Terriglobus roseus	Terriglobus	Acidobacteriaceae	Acidobacteriales	Acidobacteriia	Acidobacteria		Bacteria			
377615	0.0006228176604798722	Thermobacillus composti	Thermobacillus	Paenibacillaceae	Bacillales	Bacilli	Firmicutes	Terrabacteria group	Bacteria			
