name	taxonomy_id	taxonomy_lvl	kraken_assigned_reads	added_reads	new_est_reads	fraction_total_reads
Lachnospiraceae	186803	F	823922	-710804	113118	0.07834
Ruminococcaceae	541000	F	161941	-119131	42810	0.02965
Clostridiaceae	31979	F	144930	-132138	12792	0.00886
Hungateiclostridiaceae	2304686	F	29570	-13600	15970	0.01106
Clostridiales Family XIII. Incertae Sedis	543314	F	10627	-10384	243	0.00017
Clostridiales Family XII. Incertae Sedis	543313	F	5094	-5059	35	0.00002
Clostridiales Family XVII. Incertae Sedis	539000	F	466	-140	326	0.00023
Clostridiales Family XVI. Incertae Sedis	543347	F	317	-10	307	0.00021
Peptostreptococcaceae	186804	F	17270	-4812	12458	0.00863
Oscillospiraceae	216572	F	11904	-4919	6985	0.00484
Peptococcaceae	186807	F	3392	1767	5159	0.00357
Eubacteriaceae	186806	F	3107	-2534	573	0.00040
Proteinivoraceae	1491775	F	2445	-2424	21	0.00001
Syntrophomonadaceae	68298	F	777	1395	2172	0.00150
Heliobacteriaceae	31984	F	365	-223	142	0.00010
Vallitaleaceae	2603322	F	285	-11	274	0.00019
Christensenellaceae	990719	F	196	-129	67	0.00005
Symbiobacteriaceae	543349	F	170	-33	137	0.00009
Catabacteriaceae	424536	F	94	-94	0	0.00000
Caldicoprobacteraceae	715221	F	91	-24	67	0.00005
Defluviitaleaceae	1185407	F	70	-70	0	0.00000
Gracilibacteraceae	541019	F	16	6	22	0.00002
Thermoanaerobacteraceae	186814	F	1413	-466	947	0.00066
Thermoanaerobacterales Family III. Incertae Sedis	543371	F	284	-126	158	0.00011
Thermodesulfobiaceae	227387	F	63	-63	0	0.00000
Thermoanaerobacterales Family IV. Incertae Sedis	543372	F	40	3	43	0.00003
Halobacteroidaceae	53434	F	1233	-680	553	0.00038
Halanaerobiaceae	972	F	318	-77	241	0.00017
Thermosediminibacteraceae	2770093	F	22	-8	14	0.00001
Tepidanaerobacteraceae	2770092	F	14	-14	0	0.00000
Natranaerobiaceae	485255	F	30	-15	15	0.00001
Lactobacillaceae	33958	F	869366	-30370	838996	0.58105
Enterococcaceae	81852	F	15741	-2907	12834	0.00889
Streptococcaceae	1300	F	10056	-1797	8259	0.00572
Leuconostocaceae	81850	F	3952	-927	3025	0.00209
Carnobacteriaceae	186828	F	3553	-993	2560	0.00177
Aerococcaceae	186827	F	2322	-1369	953	0.00066
Bacillaceae	186817	F	37354	-5661	31693	0.02195
Staphylococcaceae	90964	F	9273	37801	47074	0.03260
Paenibacillaceae	186822	F	8401	-2164	6237	0.00432
Planococcaceae	186818	F	4088	-1614	2474	0.00171
Thermoactinomycetaceae	186824	F	1341	-245	1096	0.00076
Listeriaceae	186820	F	980	-12	968	0.00067
Alicyclobacillaceae	186823	F	530	-108	422	0.00029
Bacillales Family X. Incertae Sedis	539003	F	41	-31	10	0.00001
Sporolactobacillaceae	186821	F	449	-46	403	0.00028
Erysipelotrichaceae	128827	F	35584	-27177	8407	0.00582
Selenomonadaceae	1843491	F	3532	-499	3033	0.00210
Sporomusaceae	1843490	F	1276	-345	931	0.00064
Veillonellaceae	31977	F	768	-223	545	0.00038
Acidaminococcaceae	909930	F	193	-123	70	0.00005
Tissierellaceae	1737406	F	2570	-2519	51	0.00004
Peptoniphilaceae	1570339	F	1006	-867	139	0.00010
Gottschalkiaceae	2042895	F	97	-12	85	0.00006
Limnochordaceae	1676650	F	47	34	81	0.00006
Thermolithobacteraceae	455493	F	24	-1	23	0.00002
Eggerthellaceae	1643826	F	110879	-109369	1510	0.00105
Coriobacteriaceae	84107	F	46018	-20366	25652	0.01777
Atopobiaceae	1643824	F	6006	-5924	82	0.00006
Microbacteriaceae	85023	F	1172	-913	259	0.00018
Micrococcaceae	1268	F	545	-332	213	0.00015
Intrasporangiaceae	85021	F	361	-313	48	0.00003
Dermacoccaceae	145357	F	268	-26	242	0.00017
Dermabacteraceae	85020	F	243	-148	95	0.00007
Promicromonosporaceae	85017	F	200	-1	199	0.00014
Brevibacteriaceae	85019	F	108	-103	5	0.00000
Cellulomonadaceae	85016	F	102	-64	38	0.00003
Dermatophilaceae	85018	F	82	-46	36	0.00002
Bogoriellaceae	145358	F	48	-48	0	0.00000
Beutenbergiaceae	125316	F	27	0	27	0.00002
Rarobacteraceae	145359	F	17	-3	14	0.00001
Streptomycetaceae	2062	F	3231	-1798	1433	0.00099
Corynebacteriaceae	1653	F	1124	-664	460	0.00032
Mycobacteriaceae	1762	F	326	2493	2819	0.00195
Dietziaceae	85029	F	247	-247	0	0.00000
Nocardiaceae	85025	F	242	-163	79	0.00005
Gordoniaceae	85026	F	135	-56	79	0.00005
Pseudonocardiaceae	2070	F	1737	-926	811	0.00056
Streptosporangiaceae	2004	F	527	-305	222	0.00015
Nocardiopsaceae	83676	F	493	-297	196	0.00014
Thermomonosporaceae	2012	F	254	-188	66	0.00005
Bifidobacteriaceae	31953	F	1251	-168	1083	0.00075
Micromonosporaceae	28056	F	872	-549	323	0.00022
Propionibacteriaceae	31957	F	523	-369	154	0.00011
Nocardioidaceae	85015	F	323	-216	107	0.00007
Actinomycetaceae	2049	F	658	-210	448	0.00031
Glycomycetaceae	85034	F	270	-182	88	0.00006
Kineosporiaceae	83778	F	176	-151	25	0.00002
Catenulisporaceae	414877	F	53	-53	0	0.00000
Actinopolysporaceae	622451	F	51	-10	41	0.00003
Geodermatophilaceae	85030	F	32	-22	10	0.00001
Cryptosporangiaceae	622454	F	23	-23	0	0.00000
Frankiaceae	74712	F	16	-8	8	0.00001
Acidimicrobiaceae	84994	F	148	-82	66	0.00005
Ilumatobacteraceae	2448023	F	49	-49	0	0.00000
Iamiaceae	633392	F	26	-26	0	0.00000
Rubrobacteraceae	84997	F	85	-38	47	0.00003
Gaiellaceae	1154585	F	11	0	11	0.00001
Solirubrobacteraceae	320599	F	17	-17	0	0.00000
Patulibacteraceae	361606	F	14	-13	1	0.00000
Euzebyaceae	908622	F	30	-27	3	0.00000
Egicoccaceae	1755824	F	12	-1	11	0.00001
Mycoplasmataceae	2092	F	28550	-12178	16372	0.01134
Spiroplasmataceae	2131	F	267	-80	187	0.00013
Entomoplasmataceae	33925	F	158	-139	19	0.00001
Acholeplasmataceae	2146	F	208	-92	116	0.00008
Anaeroplasmataceae	186333	F	165	-14	151	0.00010
Aphanothecaceae	1890450	F	59	-59	0	0.00000
Microcystaceae	1890449	F	32	-32	0	0.00000
Chroococcaceae	1890464	F	11	-11	0	0.00000
Oscillatoriaceae	1892254	F	46	-46	0	0.00000
Gomontiellaceae	1892255	F	15	-15	0	0.00000
Microcoleaceae	1892252	F	10	-10	0	0.00000
Pseudanabaenaceae	1890436	F	66	-66	0	0.00000
Synechococcaceae	1890426	F	36	-36	0	0.00000
Leptolyngbyaceae	1890438	F	16	-16	0	0.00000
Prochlorotrichaceae	2303730	F	15	-15	0	0.00000
Acaryochloridaceae	1890429	F	14	0	14	0.00001
Hapalosiphonaceae	1892263	F	78	-78	0	0.00000
Nostocaceae	1162	F	19	-19	0	0.00000
Calotrichaceae	2661849	F	17	-17	0	0.00000
Rivulariaceae	1185	F	15	-15	0	0.00000
Dermocarpellaceae	1890498	F	17	-17	0	0.00000
Chroococcidiopsidaceae	1890528	F	14	-14	0	0.00000
Thermaceae	188786	F	395	-296	99	0.00007
Deinococcaceae	183710	F	256	-233	23	0.00002
Chloroflexaceae	1106	F	51	-51	0	0.00000
Oscillochloridaceae	104174	F	29	-29	0	0.00000
Roseiflexaceae	1508635	F	14	-14	0	0.00000
Herpetosiphonaceae	189773	F	32	-32	0	0.00000
Anaerolineaceae	292628	F	108	-91	17	0.00001
Ardenticatenaceae	1382930	F	103	-28	75	0.00005
Ktedonosporobacteraceae	2692416	F	35	-35	0	0.00000
Dictyobacteraceae	2571193	F	30	-30	0	0.00000
Thermosporotrichaceae	768649	F	14	-14	0	0.00000
Caldilineaceae	475964	F	66	-53	13	0.00001
Dehalococcoidaceae	1202464	F	29	-29	0	0.00000
Tepidiformaceae	2682227	F	36	-36	0	0.00000
Thermoflexaceae	1495648	F	15	-15	0	0.00000
Armatimonadaceae	1042314	F	15	-15	0	0.00000
Prevotellaceae	171552	F	716387	-675997	40390	0.02797
Bacteroidaceae	815	F	91169	-65460	25709	0.01780
Odoribacteraceae	1853231	F	89906	-89752	154	0.00011
Tannerellaceae	2005525	F	54419	-39248	15171	0.01051
Porphyromonadaceae	171551	F	46959	-30277	16682	0.01155
Rikenellaceae	171550	F	45681	-18965	26716	0.01850
Barnesiellaceae	2005519	F	18116	-13689	4427	0.00307
Dysgonomonadaceae	2005520	F	367	-268	99	0.00007
Paludibacteraceae	2005523	F	200	-5	195	0.00014
Balneicellaceae	1903335	F	114	18	132	0.00009
Muribaculaceae	2005473	F	86	-4	82	0.00006
Williamwhitmaniaceae	2038695	F	53	-53	0	0.00000
Lentimicrobiaceae	1840213	F	51	-18	33	0.00002
Prolixibacteraceae	1471398	F	569	-559	10	0.00001
Marinilabiliaceae	558415	F	488	-446	42	0.00003
Marinifilaceae	1573805	F	20	-20	0	0.00000
Salinivirgaceae	1970190	F	17	0	17	0.00001
Flavobacteriaceae	49546	F	3463	-2593	870	0.00060
Weeksellaceae	2762318	F	934	-36	898	0.00062
Blattabacteriaceae	39782	F	54	-45	9	0.00001
Crocinitomicaceae	1853230	F	52	-51	1	0.00000
Cryomorphaceae	246874	F	38	-38	0	0.00000
Schleiferiaceae	1333713	F	33	-20	13	0.00001
Salibacteraceae	2772535	F	13	-13	0	0.00000
Cyclobacteriaceae	563798	F	674	-595	79	0.00005
Cytophagaceae	89373	F	441	-413	28	0.00002
Hymenobacteraceae	1853232	F	281	-256	25	0.00002
Flammeovirgaceae	200667	F	248	-140	108	0.00007
Fulvivirgaceae	2762286	F	64	-64	0	0.00000
Amoebophilaceae	1501348	F	54	-14	40	0.00003
Catalimonadaceae	1522127	F	36	-36	0	0.00000
Bernardetiaceae	1937968	F	35	-27	8	0.00001
Roseivirgaceae	2762306	F	22	-22	0	0.00000
Persicobacteraceae	1853234	F	16	-16	0	0.00000
Reichenbachiellaceae	2762302	F	15	-15	0	0.00000
Thermonemataceae	1853233	F	14	-14	0	0.00000
Sphingobacteriaceae	84566	F	893	-745	148	0.00010
Chitinophagaceae	563835	F	497	-454	43	0.00003
Lewinellaceae	1937960	F	166	-166	0	0.00000
Saprospiraceae	89374	F	101	-99	2	0.00000
Haliscomenobacteraceae	1937961	F	16	-14	2	0.00000
Rhodothermaceae	563843	F	71	-67	4	0.00000
Chlorobiaceae	191412	F	97	-55	42	0.00003
Salinibacteraceae	1853225	F	83	-77	6	0.00000
Balneolaceae	1813606	F	55	-55	0	0.00000
Chitinivibrionaceae	1505234	F	61	0	61	0.00004
Fibrobacteraceae	204431	F	35	-22	13	0.00001
Chitinispirillaceae	1860138	F	24	68	92	0.00006
Gemmatimonadaceae	219687	F	32	-15	17	0.00001
Alteromonadaceae	72275	F	30945	-30299	646	0.00045
Shewanellaceae	267890	F	215	-111	104	0.00007
Pseudoalteromonadaceae	267888	F	182	-44	138	0.00010
Idiomarinaceae	267893	F	174	-119	55	0.00004
Colwelliaceae	267889	F	104	-35	69	0.00005
Moritellaceae	267891	F	74	0	74	0.00005
Ferrimonadaceae	267892	F	16	-16	0	0.00000
Psychromonadaceae	267894	F	12	-12	0	0.00000
Enterobacteriaceae	543	F	4359	296	4655	0.00322
Erwiniaceae	1903409	F	1272	-36	1236	0.00086
Yersiniaceae	1903411	F	481	-20	461	0.00032
Morganellaceae	1903414	F	445	-132	313	0.00022
Pectobacteriaceae	1903410	F	386	-12	374	0.00026
Hafniaceae	1903412	F	134	0	134	0.00009
Thorselliaceae	1771359	F	62	-59	3	0.00000
Pseudomonadaceae	135621	F	1160	-66	1094	0.00076
Moraxellaceae	468	F	726	-306	420	0.00029
Vibrionaceae	641	F	1549	-263	1286	0.00089
Chromatiaceae	1046	F	638	-468	170	0.00012
Ectothiorhodospiraceae	72276	F	638	-421	217	0.00015
Thioalkalibacteraceae	2035710	F	59	-27	32	0.00002
Thioalkalispiraceae	1096778	F	34	-34	0	0.00000
Halothiobacillaceae	255526	F	13	-9	4	0.00000
Halomonadaceae	28256	F	531	-238	293	0.00020
Oceanospirillaceae	135620	F	194	-176	18	0.00001
Saccharospirillaceae	255527	F	59	-6	53	0.00004
Alcanivoracaceae	224372	F	34	-2	32	0.00002
Hahellaceae	224379	F	26	-7	19	0.00001
Kangiellaceae	1920240	F	16	-11	5	0.00000
Endozoicomonadaceae	2066474	F	12	-5	7	0.00000
Xanthomonadaceae	32033	F	577	-155	422	0.00029
Rhodanobacteraceae	1775411	F	215	-57	158	0.00011
Francisellaceae	34064	F	354	-5	349	0.00024
Piscirickettsiaceae	135616	F	189	-97	92	0.00006
Fastidiosibacteraceae	2056687	F	109	-5	104	0.00007
Thiotrichaceae	135617	F	35	-12	23	0.00002
Legionellaceae	444	F	436	-166	270	0.00019
Coxiellaceae	118968	F	96	-46	50	0.00003
Pasteurellaceae	712	F	511	-152	359	0.00025
Aeromonadaceae	84642	F	399	-99	300	0.00021
Succinivibrionaceae	83763	F	41	-30	11	0.00001
Cellvibrionaceae	1706371	F	146	-116	30	0.00002
Halieaceae	1706372	F	60	-60	0	0.00000
Spongiibacteraceae	1706375	F	40	-34	6	0.00000
Porticoccaceae	1706374	F	28	0	28	0.00002
Microbulbiferaceae	1706373	F	13	140	153	0.00011
Celerinatantimonadaceae	412032	F	20	7	27	0.00002
Methylococcaceae	403	F	172	-100	72	0.00005
Methylothermaceae	1486721	F	24	-24	0	0.00000
Sinobacteraceae	568386	F	67	-67	0	0.00000
Steroidobacteraceae	2689614	F	18	-14	4	0.00000
Orbaceae	1240483	F	37	-31	6	0.00000
Salinisphaeraceae	742031	F	16	-6	10	0.00001
Desulfovibrionaceae	194924	F	43832	-3952	39880	0.02762
Desulfohalobiaceae	213117	F	192	-56	136	0.00009
Desulfomicrobiaceae	213116	F	148	-127	21	0.00001
Desulfonatronaceae	224380	F	63	-43	20	0.00001
Desulfobacteraceae	213119	F	345	-215	130	0.00009
Desulfobulbaceae	213121	F	60	-30	30	0.00002
Geobacteraceae	213422	F	158	-11	147	0.00010
Desulfuromonadaceae	213421	F	112	-13	99	0.00007
Polyangiaceae	49	F	81	-3	78	0.00005
Labilitrichaceae	1524216	F	10	0	10	0.00001
Archangiaceae	39	F	42	-1	41	0.00003
Anaeromyxobacteraceae	1524215	F	33	-16	17	0.00001
Kofleriaceae	224464	F	18	-10	8	0.00001
Desulfurellaceae	117942	F	212	-5	207	0.00014
Syntrophaceae	213468	F	117	-105	12	0.00001
Syntrophobacteraceae	213465	F	48	-24	24	0.00002
Bradymonadaceae	1779135	F	27	0	27	0.00002
Helicobacteraceae	72293	F	1699	-577	1122	0.00078
Campylobacteraceae	72294	F	192	-93	99	0.00007
Thiovulaceae	2771471	F	19	-1	18	0.00001
Sulfurovaceae	2771472	F	10	-5	5	0.00000
Nautiliaceae	224467	F	42	-39	3	0.00000
Rhodospirillaceae	41295	F	6661	-6503	158	0.00011
Acetobacteraceae	433	F	696	-456	240	0.00017
Hyphomonadaceae	69657	F	4792	-4792	0	0.00000
Rhodobacteraceae	31989	F	1781	-1781	0	0.00000
Acuticoccaceae	2685818	F	28	-28	0	0.00000
Bradyrhizobiaceae	41294	F	2376	-2376	0	0.00000
Rhizobiaceae	82115	F	1003	-794	209	0.00014
Phyllobacteriaceae	69277	F	351	-351	0	0.00000
Methylocystaceae	31993	F	200	-200	0	0.00000
Hyphomicrobiaceae	45401	F	150	-150	0	0.00000
Methylobacteriaceae	119045	F	114	-62	52	0.00004
Rhodobiaceae	119043	F	99	-97	2	0.00000
Beijerinckiaceae	45404	F	52	-52	0	0.00000
Xanthobacteraceae	335928	F	48	-48	0	0.00000
Brucellaceae	118882	F	35	-35	0	0.00000
Aurantimonadaceae	255475	F	15	-15	0	0.00000
Bartonellaceae	772	F	12	-12	0	0.00000
Cohaesibacteraceae	655351	F	11	-11	0	0.00000
Sphingomonadaceae	41297	F	974	-966	8	0.00001
Erythrobacteraceae	335929	F	142	-142	0	0.00000
Caulobacteraceae	76892	F	674	-674	0	0.00000
Anaplasmataceae	942	F	301	-187	114	0.00008
Rickettsiaceae	775	F	72	-50	22	0.00002
Candidatus Midichloriaceae	1328881	F	26	8	34	0.00002
Pelagibacteraceae	1655514	F	51	-37	14	0.00001
Caedimonadaceae	2100208	F	40	0	40	0.00003
Kordiimonadaceae	1331809	F	32	-32	0	0.00000
Parvularculaceae	255474	F	40	-40	0	0.00000
Micropepsaceae	1921568	F	28	-28	0	0.00000
Emcibacteraceae	2066491	F	15	-12	3	0.00000
Sneathiellaceae	510685	F	13	-13	0	0.00000
Comamonadaceae	80864	F	5581	-2689	2892	0.00200
Sutterellaceae	995019	F	3542	-3539	3	0.00000
Burkholderiaceae	119060	F	1489	-391	1098	0.00076
Alcaligenaceae	506	F	579	-351	228	0.00016
Oxalobacteraceae	75682	F	233	-152	81	0.00006
Neisseriaceae	481	F	275	-50	225	0.00016
Chromobacteriaceae	1499392	F	157	-76	81	0.00006
Methylophilaceae	32011	F	128	-122	6	0.00000
Nitrosomonadaceae	206379	F	99	-48	51	0.00004
Sulfuricellaceae	2772226	F	56	-54	2	0.00000
Thiobacillaceae	2008790	F	41	-31	10	0.00001
Spirillaceae	119068	F	22	-22	0	0.00000
Zoogloeaceae	2008794	F	90	-9	81	0.00006
Azonexaceae	2008795	F	21	-18	3	0.00000
Halobacteriovoraceae	1652132	F	42	-4	38	0.00003
Bacteriovoracaceae	263369	F	21	-14	7	0.00000
Bdellovibrionaceae	213483	F	73	-14	59	0.00004
Acidithiobacillaceae	225058	F	39	-16	23	0.00002
Hydrogenophilaceae	206349	F	18	-9	9	0.00001
Deferribacteraceae	191394	F	9898	-9822	76	0.00005
Borreliaceae	1643685	F	1325	-171	1154	0.00080
Spirochaetaceae	137	F	438	-337	101	0.00007
Leptospiraceae	170	F	361	-291	70	0.00005
Brachyspiraceae	143786	F	78	-26	52	0.00004
Brevinemataceae	1100104	F	14	-14	0	0.00000
Mesoaciditogaceae	1769717	F	1642	-1642	0	0.00000
Fervidobacteriaceae	1643950	F	72	-20	52	0.00004
Thermotogaceae	188709	F	65	-16	49	0.00003
Petrotogaceae	1643949	F	46	-22	24	0.00002
Kosmotogaceae	1643948	F	17	-14	3	0.00000
Verrucomicrobiaceae	203557	F	127	-119	8	0.00001
Akkermansiaceae	1647988	F	105	0	105	0.00007
Verrucomicrobia subdivision 3	134621	F	24	-24	0	0.00000
Puniceicoccaceae	415002	F	24	-20	4	0.00000
Opitutaceae	134623	F	21	-16	5	0.00000
Planctomycetaceae	126	F	92	-22	70	0.00005
Pirellulaceae	2691357	F	16	104	120	0.00008
Gemmataceae	1914233	F	12	-6	6	0.00000
Isosphaeraceae	1763524	F	11	-1	10	0.00001
Phycisphaeraceae	666507	F	10	4	14	0.00001
Criblamydiaceae	412447	F	32	-32	0	0.00000
Parachlamydiaceae	92713	F	21	-20	1	0.00000
Simkaniaceae	92712	F	17	0	17	0.00001
Waddliaceae	92714	F	12	0	12	0.00001
Chlamydiaceae	809	F	24	0	24	0.00002
Lentisphaeraceae	566277	F	15	-15	0	0.00000
Oligosphaeraceae	1313209	F	18	-18	0	0.00000
Kiritimatiellaceae	1921783	F	35	0	35	0.00002
Leptotrichiaceae	1129771	F	274	-124	150	0.00010
Fusobacteriaceae	203492	F	208	-85	123	0.00009
Acidobacteriaceae	204434	F	225	-225	0	0.00000
Bryobacteraceae	1962910	F	14	-14	0	0.00000
Acanthopleuribacteraceae	533207	F	13	-13	0	0.00000
Holophagaceae	574976	F	11	-11	0	0.00000
Synergistaceae	649777	F	273	-163	110	0.00008
Hydrogenothermaceae	224027	F	51	-39	12	0.00001
Aquificaceae	64898	F	49	-18	31	0.00002
Desulfurobacteriaceae	558314	F	98	-38	60	0.00004
Candidatus Babeliaceae	2497645	F	13	48	61	0.00004
Haloplasmataceae	471823	F	22	-22	0	0.00000
Nitrospiraceae	189779	F	137	-126	11	0.00001
Thermodesulfobacteriaceae	188711	F	58	-36	22	0.00002
Coprothermobacteraceae	2138247	F	46	-46	0	0.00000
Chrysiogenaceae	189770	F	37	-37	0	0.00000
Nitrospinaceae	407032	F	22	-22	0	0.00000
Caldisericaceae	693073	F	10	0	10	0.00001
Desulfurococcaceae	2272	F	7050	-1914	5136	0.00356
Thermoproteaceae	2267	F	1364	-83	1281	0.00089
Sulfolobaceae	118883	F	67	-23	44	0.00003
Methanobacteriaceae	2159	F	154	-154	0	0.00000
Thermococcaceae	2259	F	77	-72	5	0.00000
