name	taxonomy_id	taxonomy_lvl	kraken_assigned_reads	added_reads	new_est_reads	fraction_total_reads
Lactobacillus	1578	G	510796	58635	569431	0.19859
Lacticaseibacillus	2759736	G	25210	35056	60266	0.02102
Lactiplantibacillus	2767842	G	21334	16244	37578	0.01311
Limosilactobacillus	2742598	G	18943	8507	27450	0.00957
Leuconostoc	1243	G	11696	8245	19941	0.00695
Levilactobacillus	2767886	G	10893	7569	18462	0.00644
Pediococcus	1253	G	10181	3585	13766	0.00480
Weissella	46255	G	5012	5605	10617	0.00370
Ligilactobacillus	2767887	G	3619	1167	4786	0.00167
Lentilactobacillus	2767893	G	2992	3217	6209	0.00217
Latilactobacillus	2767885	G	2672	2863	5535	0.00193
Liquorilactobacillus	2767888	G	1791	-543	1248	0.00044
Apilactobacillus	2767877	G	1521	337	1858	0.00065
Amylolactobacillus	2767876	G	1389	0	1389	0.00048
Companilactobacillus	2767879	G	1136	89	1225	0.00043
Loigolactobacillus	2767889	G	632	1129	1761	0.00061
Oenococcus	46254	G	411	-367	44	0.00002
Furfurilactobacillus	2767882	G	320	91	411	0.00014
Secundilactobacillus	2767892	G	318	821	1139	0.00040
Fructilactobacillus	2767881	G	234	-31	203	0.00007
Fructobacillus	559173	G	172	-74	98	0.00003
Paucilactobacillus	2767890	G	165	222	387	0.00013
Lapidilactobacillus	2767884	G	108	4	112	0.00004
Schleiferilactobacillus	2767891	G	101	2	103	0.00004
Dellaglioa	2767880	G	32	-28	4	0.00000
Streptococcus	1301	G	17198	7681	24879	0.00868
Lactococcus	1357	G	7511	4985	12496	0.00436
Enterococcus	1350	G	20823	45550	66373	0.02315
Vagococcus	2737	G	1556	49	1605	0.00056
Tetragenococcus	51668	G	189	-18	171	0.00006
Pilibacter	337670	G	25	-25	0	0.00000
Catellicoccus	300418	G	21	-21	0	0.00000
Melissococcus	33969	G	18	0	18	0.00001
Trichococcus	82802	G	2518	3718	6236	0.00217
Carnobacterium	2747	G	1854	224	2078	0.00072
Granulicatella	117563	G	584	-227	357	0.00012
Alkalibacterium	99906	G	513	-245	268	0.00009
Alloiococcus	1651	G	379	-378	1	0.00000
Desemzia	82800	G	184	-134	50	0.00002
Pisciglobus	1384499	G	111	-111	0	0.00000
Marinilactibacillus	191769	G	97	32	129	0.00004
Lacticigenium	633405	G	44	-44	0	0.00000
Dolosigranulum	29393	G	35	6	41	0.00001
Isobaculum	142587	G	25	0	25	0.00001
Atopostipes	292480	G	19	-9	10	0.00000
Allofustis	192987	G	10	-7	3	0.00000
Atopococcus	269773	G	10	0	10	0.00000
Aerococcus	1375	G	1597	-59	1538	0.00054
Abiotrophia	46123	G	785	1	786	0.00027
Facklamia	66831	G	190	96	286	0.00010
Globicatella	13075	G	65	8	73	0.00003
Aerosphaera	137460	G	318	-318	0	0.00000
Bacillus	1386	G	119785	69961	189746	0.06618
Lysinibacillus	400634	G	7687	4423	12110	0.00422
Priestia	2800373	G	7170	10975	18145	0.00633
Geobacillus	129337	G	3046	622	3668	0.00128
Cytobacillus	2675230	G	1792	3307	5099	0.00178
Anoxybacillus	150247	G	1156	-374	782	0.00027
Neobacillus	2675232	G	1138	-51	1087	0.00038
Halobacillus	45667	G	1056	-552	504	0.00018
Rossellomorea	2837508	G	921	6013	6934	0.00242
Alkalihalobacillus	2675234	G	869	4008	4877	0.00170
Niallia	2837506	G	757	915	1672	0.00058
Virgibacillus	84406	G	730	-196	534	0.00019
Oceanobacillus	182709	G	640	-222	418	0.00015
Caldibacillus	1276290	G	561	2265	2826	0.00099
Peribacillus	2675229	G	535	541	1076	0.00038
Metabacillus	2675233	G	464	55	519	0.00018
Parageobacillus	1906945	G	391	498	889	0.00031
Natribacillus	1150774	G	368	-1	367	0.00013
Marinococcus	1370	G	361	-301	60	0.00002
Aeribacillus	1055323	G	337	689	1026	0.00036
Paucisalibacillus	351094	G	333	-332	1	0.00000
Weizmannia	2817139	G	327	182	509	0.00018
Sutcliffiella	2837511	G	319	275	594	0.00021
Thalassobacillus	331971	G	272	410	682	0.00024
Fictibacillus	1329200	G	241	166	407	0.00014
Ectobacillus	2837502	G	195	-107	88	0.00003
Alkalibacillus	331654	G	165	-67	98	0.00003
Psychrobacillus	1221880	G	157	388	545	0.00019
Salimicrobium	351195	G	153	-45	108	0.00004
Anaerobacillus	704093	G	128	0	128	0.00004
Lentibacillus	175304	G	114	-73	41	0.00001
Mesobacillus	2675231	G	107	797	904	0.00032
Gottfriedia	2837503	G	107	304	411	0.00014
Pontibacillus	289201	G	96	-87	9	0.00000
Terribacillus	459532	G	89	505	594	0.00021
Robertmurraya	2837507	G	67	-34	33	0.00001
Heyndrickxia	2837504	G	67	125	192	0.00007
Litchfieldia	2813788	G	58	49	107	0.00004
Amphibacillus	29331	G	56	-33	23	0.00001
Gracilibacillus	74385	G	47	-17	30	0.00001
Sinibacillus	1649496	G	38	-38	0	0.00000
Amylobacillus	258785	G	34	-34	0	0.00000
Fredinandcohnia	2837501	G	29	6	35	0.00001
Paraliobacillus	200903	G	29	-24	5	0.00000
Ornithinibacillus	484508	G	26	-17	9	0.00000
Thermolongibacillus	1500514	G	25	-25	0	0.00000
Vulcanibacillus	551771	G	24	4	28	0.00001
Piscibacillus	420644	G	24	-24	0	0.00000
Salirhabdus	394505	G	23	-22	1	0.00000
Evansella	2837485	G	23	-17	6	0.00000
Siminovitchia	2837510	G	20	-5	15	0.00001
Alkalicoccus	2005375	G	17	-17	0	0.00000
Salipaludibacillus	1884449	G	14	38	52	0.00002
Caldalkalibacillus	379065	G	13	-13	0	0.00000
Hydrogenibacillus	1609627	G	11	0	11	0.00000
Allobacillus	1400133	G	11	-11	0	0.00000
Salibacterium	1884429	G	11	0	11	0.00000
Staphylococcus	1279	G	25392	30525	55917	0.01950
Mammaliicoccus	2803850	G	936	4745	5681	0.00198
Salinicoccus	45669	G	723	-477	246	0.00009
Macrococcus	69965	G	189	-11	178	0.00006
Jeotgalicoccus	227979	G	90	-51	39	0.00001
Paenibacillus	44249	G	13413	-4166	9247	0.00322
Brevibacillus	55080	G	4522	951	5473	0.00191
Aneurinibacillus	55079	G	963	-212	751	0.00026
Ammoniphilus	66862	G	25	1	26	0.00001
Oxalophagus	44262	G	17	-4	13	0.00000
Cohnella	329857	G	492	-73	419	0.00015
Saccharibacillus	456492	G	72	76	148	0.00005
Thermobacillus	76632	G	48	-25	23	0.00001
Exiguobacterium	33986	G	3127	886	4013	0.00140
Gemella	1378	G	982	-160	822	0.00029
Trigonala	386607	G	35	-35	0	0.00000
Thermicanus	94008	G	21	-21	0	0.00000
Planococcus	1372	G	1019	-154	865	0.00030
Sporosarcina	1569	G	648	129	777	0.00027
Solibacillus	648800	G	307	292	599	0.00021
Ureibacillus	160795	G	237	149	386	0.00013
Jeotgalibacillus	157226	G	164	-77	87	0.00003
Rummeliibacillus	648802	G	159	169	328	0.00011
Caryophanon	33976	G	125	-18	107	0.00004
Planomicrobium	162291	G	111	-74	37	0.00001
Bhargavaea	941338	G	108	587	695	0.00024
Paenisporosarcina	651660	G	98	-22	76	0.00003
Kurthia	1649	G	80	64	144	0.00005
Viridibacillus	496496	G	56	-37	19	0.00001
Filibacter	34100	G	18	-18	0	0.00000
Listeria	1637	G	1111	-233	878	0.00031
Brochothrix	2755	G	168	-137	31	0.00001
Alicyclobacillus	29330	G	483	93	576	0.00020
Tumebacillus	432330	G	16	-6	10	0.00000
Thermoactinomyces	2023	G	102	-50	52	0.00002
Shimazuella	471798	G	58	-58	0	0.00000
Laceyella	292635	G	45	-3	42	0.00001
Planifilum	332100	G	17	9	26	0.00001
Pasteuria	86004	G	236	909	1145	0.00040
Sporolactobacillus	2077	G	137	41	178	0.00006
Hespellia	241189	G	126455	-26589	99866	0.03483
Blautia	572511	G	25704	-23957	1747	0.00061
Oribacterium	265975	G	22400	-20131	2269	0.00079
Shuttleworthia	177971	G	16853	-16802	51	0.00002
Anaerotignum	2039240	G	10406	-10221	185	0.00006
Acetitomaculum	31980	G	10226	-10226	0	0.00000
Butyrivibrio	830	G	10088	-876	9212	0.00321
Lachnoclostridium	1506553	G	8444	10874	19318	0.00674
Catonella	43996	G	7949	-7332	617	0.00022
Mediterraneibacter	2316020	G	7401	13791	21192	0.00739
Enterocloster	2719313	G	3735	-3735	0	0.00000
Tyzzerella	1506577	G	3604	94	3698	0.00129
Lacrimispora	2719231	G	3084	5355	8439	0.00294
Roseburia	841	G	3072	1687	4759	0.00166
Pseudobutyrivibrio	46205	G	2851	-2537	314	0.00011
Johnsonella	43994	G	2439	-2439	0	0.00000
Dorea	189330	G	2358	-501	1857	0.00065
Coprococcus	33042	G	1777	-1777	0	0.00000
Anaerocolumna	1843210	G	1334	-1234	100	0.00003
Anaerostipes	207244	G	882	-423	459	0.00016
Lachnoanaerobaculum	1164882	G	821	-758	63	0.00002
Syntrophococcus	84036	G	641	-626	15	0.00001
Epulopiscium	2383	G	378	-378	0	0.00000
Robinsoniella	588605	G	253	-3	250	0.00009
Lachnobacterium	140625	G	251	-251	0	0.00000
Lachnospira	28050	G	243	53	296	0.00010
Faecalicatena	2005359	G	126	10	136	0.00005
Moryella	437755	G	83	-83	0	0.00000
Sporobacterium	100132	G	65	-12	53	0.00002
Cellulosilyticum	698776	G	61	-46	15	0.00001
Caecibacterium	2041032	G	54	-54	0	0.00000
Marvinbryantia	248744	G	46	-46	0	0.00000
Parasporobacterium	115543	G	36	-36	0	0.00000
Anaerobutyricum	2569097	G	36	-36	0	0.00000
Niameybacter	1973274	G	29	-29	0	0.00000
Herbinix	1663717	G	21	-7	14	0.00000
Mobilisporobacter	1780122	G	13	0	13	0.00000
Schaedlerella	2676048	G	12	-12	0	0.00000
Clostridium	1485	G	59786	45482	105268	0.03671
Lactonifactor	420345	G	1946	-1946	0	0.00000
Paraclostridium	1849822	G	1236	-58	1178	0.00041
Caminicella	166484	G	894	-894	0	0.00000
Alkaliphilus	114627	G	794	-395	399	0.00014
Butyricicoccus	580596	G	745	-745	0	0.00000
Caloramator	44258	G	524	-169	355	0.00012
Candidatus Arthromitus	49082	G	469	-18	451	0.00016
Lutispora	667112	G	298	-15	283	0.00010
Salimesophilobacter	1434040	G	116	-116	0	0.00000
Caldanaerocella	265002	G	93	-93	0	0.00000
Thermotalea	648799	G	79	0	79	0.00003
Geosporobacter	390805	G	70	-66	4	0.00000
Maledivibacter	1884930	G	66	-66	0	0.00000
Serpentinicella	1890059	G	62	-62	0	0.00000
Sarcina	1266	G	60	-60	0	0.00000
Natronincola	89958	G	46	-31	15	0.00001
Oxobacter	44261	G	20	-16	4	0.00000
Hungatella	1649459	G	18	-18	0	0.00000
Paramaledivibacter	1884934	G	16	0	16	0.00001
Hathewaya	1769729	G	14	-1	13	0.00000
Ruminococcus	1263	G	12161	-150	12011	0.00419
Faecalibacterium	216851	G	11901	-561	11340	0.00395
Acetivibrio	35829	G	5448	16171	21619	0.00754
Papillibacter	100175	G	3792	-3792	0	0.00000
Ruminiclostridium	1508657	G	3643	-9	3634	0.00127
Oscillibacter	459786	G	3131	-31	3100	0.00108
Subdoligranulum	292632	G	2652	-2652	0	0.00000
Anaerotruncus	244127	G	2115	-2115	0	0.00000
Anaerofilum	52784	G	1770	652	2422	0.00084
Pseudobacteroides	1486726	G	1293	-1293	0	0.00000
Anaeromassilibacillus	1924093	G	933	-933	0	0.00000
Ethanoligenens	253238	G	638	-626	12	0.00000
Agathobaculum	2048137	G	216	-216	0	0.00000
Hydrogenoanaerobacterium	596767	G	177	-32	145	0.00005
Thermoclostridium	2304691	G	90	141	231	0.00008
Oscillospira	119852	G	78	-78	0	0.00000
Sporobacter	44748	G	64	-64	0	0.00000
Bittarella	1929297	G	49	-49	0	0.00000
Pseudoflavonifractor	1017280	G	36	-36	0	0.00000
Flavonifractor	946234	G	34	1	35	0.00001
Gorbachella	1935461	G	28	-28	0	0.00000
Cellulosibacter	1246649	G	20	54	74	0.00003
Acetanaerobacterium	258514	G	19	-19	0	0.00000
Saccharofermentans	1200657	G	12	1177	1189	0.00041
Caloranaerobacter	171003	G	40888	-40888	0	0.00000
Clostridiisalibacter	516086	G	1044	-1040	4	0.00000
Thermohalobacter	99593	G	254	0	254	0.00009
Caldisalinibacter	1640153	G	56	-38	18	0.00001
Eubacterium	1730	G	11597	-2713	8884	0.00310
Anaerofustis	264995	G	1074	-1074	0	0.00000
Acetobacterium	33951	G	1041	-151	890	0.00031
Garciella	218204	G	435	-435	0	0.00000
Pseudoramibacter	113286	G	315	-315	0	0.00000
Alkalibacter	274470	G	26	-26	0	0.00000
Anaerovorax	109326	G	7943	-7931	12	0.00000
Mogibacterium	86331	G	530	642	1172	0.00041
Acidaminobacter	65402	G	2473	-2473	0	0.00000
Fusibacter	76008	G	865	-126	739	0.00026
Guggenheimella	228923	G	78	-63	15	0.00001
Sulfobacillus	28033	G	537	-170	367	0.00013
Thermaerobacter	73918	G	95	-9	86	0.00003
Proteiniborus	415014	G	264	-234	30	0.00001
Anaerovirgula	561442	G	181	-181	0	0.00000
Carboxydocella	178898	G	130	-130	0	0.00000
Natranaerovirga	1434023	G	74	-74	0	0.00000
Howardella	404402	G	42	266	308	0.00011
Metabacterium	38777	G	21	-21	0	0.00000
Peptostreptococcus	1257	G	2089	441	2530	0.00088
Clostridioides	1870884	G	1041	1091	2132	0.00074
Filifactor	44259	G	659	-45	614	0.00021
Sporacetigenium	360541	G	480	-480	0	0.00000
Terrisporobacter	1505652	G	387	-387	0	0.00000
Paeniclostridium	1849828	G	343	55	398	0.00014
Tepidibacter	214904	G	341	-341	0	0.00000
Proteocatella	181069	G	106	-60	46	0.00002
Peptoclostridium	1481960	G	54	8	62	0.00002
Acetoanaerobium	186831	G	41	-35	6	0.00000
Peptoanaerobacter	1913599	G	38	-38	0	0.00000
Romboutsia	1501226	G	35	-23	12	0.00000
Asaccharospora	1505660	G	29	-20	9	0.00000
Desulfosporosinus	79206	G	893	-251	642	0.00022
Desulfotomaculum	1562	G	594	-35	559	0.00019
Desulfofundulus	2282741	G	573	208	781	0.00027
Desulfitobacterium	36853	G	353	749	1102	0.00038
Dehalobacter	56112	G	222	-13	209	0.00007
Peptococcus	2740	G	114	-44	70	0.00002
Desulfonispora	83660	G	101	-10	91	0.00003
Pelotomaculum	191373	G	99	-5	94	0.00003
Cryptanaerobacter	290184	G	68	0	68	0.00002
Thermincola	278993	G	50	0	50	0.00002
Desulfitibacter	293136	G	37	1	38	0.00001
Syntrophobotulus	51196	G	27	-27	0	0.00000
Desulfitispora	1006482	G	14	-14	0	0.00000
Desulfofarcimen	2282742	G	11	-10	1	0.00000
Anaerobranca	42447	G	1141	-1139	2	0.00000
Symbiobacterium	2733	G	801	37	838	0.00029
Caldinitratiruptor	1006480	G	13	0	13	0.00000
Syntrophomonas	862	G	265	4691	4956	0.00173
Pelospora	109324	G	98	8	106	0.00004
Dethiobacter	427925	G	38	-38	0	0.00000
Thermosyntropha	54293	G	11	-11	0	0.00000
Heliobacillus	28063	G	90	-90	0	0.00000
Heliomicrobium	2831443	G	52	-9	43	0.00001
Heliorestis	79598	G	35	-33	2	0.00000
Heliophilum	150818	G	35	-27	8	0.00000
Candidatus Heliomonas	1709445	G	15	0	15	0.00001
Heliobacterium	2697	G	12	-12	0	0.00000
Christensenella	990721	G	36	-36	0	0.00000
Gracilibacter	342658	G	73	0	73	0.00003
Vallitalea	1348611	G	38	-3	35	0.00001
Desulfoscipio	2867376	G	19	-5	14	0.00000
Thermoanaerobacter	1754	G	394	9206	9600	0.00335
Caldanaerobacter	249529	G	128	670	798	0.00028
Moorella	44260	G	44	-2	42	0.00001
Caldanaerobius	862261	G	29	-29	0	0.00000
Gelria	189326	G	23	-4	19	0.00001
Carboxydothermus	129957	G	19	-12	7	0.00000
Thermacetogenium	140458	G	15	-1	14	0.00000
Thermanaeromonas	202949	G	14	3	17	0.00001
Thermoanaerobacterium	28895	G	135	1643	1778	0.00062
Caldicellulosiruptor	44000	G	22	4	26	0.00001
Thermodesulfobium	227388	G	44	-38	6	0.00000
Halanaerobacter	42418	G	89	-89	0	0.00000
Halobacteroides	42417	G	58	-39	19	0.00001
Natroniella	52003	G	36	-33	3	0.00000
Orenia	46468	G	28	-22	6	0.00000
Acetohalobium	28186	G	23	0	23	0.00001
Halanaerobium	2330	G	97	-7	90	0.00003
Halocella	46466	G	14	-12	2	0.00000
Halarsenatibacter	630723	G	10	0	10	0.00000
Natronoanaerobium	114261	G	47	-39	8	0.00000
Natranaerobius	375928	G	10	-10	0	0.00000
Tepidanaerobacter	499228	G	20	0	20	0.00001
Thermovenabulum	159730	G	11	-11	0	0.00000
Erysipelothrix	1647	G	2411	-27	2384	0.00083
Allobaculum	174708	G	1545	-1545	0	0.00000
Holdemania	61170	G	1292	-1292	0	0.00000
Holdemanella	1573535	G	1164	-720	444	0.00015
Solobacterium	123375	G	379	-379	0	0.00000
Faecalitalea	1573534	G	188	2321	2509	0.00088
Erysipelatoclostridium	1505663	G	128	-13	115	0.00004
Bulleidia	118747	G	87	-86	1	0.00000
Candidatus Stoquefichus	1470349	G	10	-10	0	0.00000
Turicibacter	191303	G	283	213	496	0.00017
Coprobacillus	100883	G	120	70	190	0.00007
Catenibacterium	135858	G	66	-66	0	0.00000
Eggerthia	1279384	G	52	8	60	0.00002
Kandleria	1279388	G	21	35	56	0.00002
Veillonella	29465	G	1976	869	2845	0.00099
Dialister	39948	G	478	151	629	0.00022
Megasphaera	906	G	402	83	485	0.00017
Anaeroglobus	156454	G	19	-18	1	0.00000
Lucifera	2498454	G	10	-10	0	0.00000
Selenomonas	970	G	1650	-306	1344	0.00047
Anaerovibrio	82373	G	138	-94	44	0.00002
Propionispira	84034	G	78	-72	6	0.00000
Pectinatus	864	G	64	-53	11	0.00000
Mitsuokella	52225	G	34	40	74	0.00003
Schwartzia	55506	G	27	-20	7	0.00000
Megamonas	158846	G	20	-20	0	0.00000
Sporomusa	2375	G	67	-7	60	0.00002
Pelosinus	365348	G	59	1	60	0.00002
Anaeromusa	81463	G	47	-45	2	0.00000
Anaeroarcus	151038	G	29	-28	1	0.00000
Acetonema	2373	G	23	-4	19	0.00001
Desulfosporomusa	292492	G	13	-13	0	0.00000
Anaerosinus	151037	G	10	-10	0	0.00000
Acidaminococcus	904	G	316	-16	300	0.00010
Phascolarctobacterium	33024	G	17	6	23	0.00001
Succinispira	78119	G	16	3	19	0.00001
Parvimonas	543311	G	552	7433	7985	0.00278
Anaerococcus	165779	G	514	-490	24	0.00001
Peptoniphilus	162289	G	305	-303	2	0.00000
Finegoldia	150022	G	238	-218	20	0.00001
Helcococcus	31983	G	102	-102	0	0.00000
Gallicola	162290	G	23	-23	0	0.00000
Tissierella	41273	G	213	11304	11517	0.00402
Sporanaerobacter	165812	G	107	-107	0	0.00000
Soehngenia	253255	G	93	-93	0	0.00000
Gottschalkia	1505664	G	15	-1	14	0.00000
Sedimentibacter	190972	G	479	-182	297	0.00010
Dethiosulfatibacter	448125	G	19	-11	8	0.00000
Coriobacterium	33870	G	24828	-11770	13058	0.00455
Collinsella	102106	G	9258	-9258	0	0.00000
Enorma	1472762	G	1084	-1084	0	0.00000
Parvibacter	1427376	G	817	-817	0	0.00000
Senegalimassilia	1473205	G	725	-725	0	0.00000
Olsenella	133925	G	10813	37187	48000	0.01674
Atopobium	1380	G	765	-617	148	0.00005
Lancefieldella	2767353	G	207	-198	9	0.00000
Eggerthella	84111	G	2339	1985	4324	0.00151
Gordonibacter	644652	G	1730	-1730	0	0.00000
Slackia	84108	G	1295	-1291	4	0.00000
Enterorhabdus	580024	G	1211	-1211	0	0.00000
Denitrobacterium	79603	G	992	-992	0	0.00000
Berryella	2815775	G	817	9	826	0.00029
Adlercreutzia	447020	G	384	-251	133	0.00005
Cryptobacterium	84162	G	265	-139	126	0.00004
Arthrobacter	1663	G	2525	1329	3854	0.00134
Micrococcus	1269	G	1447	133	1580	0.00055
Kocuria	57493	G	625	-171	454	0.00016
Pseudarthrobacter	1742993	G	236	-65	171	0.00006
Citricoccus	169133	G	199	-199	0	0.00000
Nesterenkonia	57494	G	105	-105	0	0.00000
Rothia	32207	G	53	0	53	0.00002
Glutamicibacter	1742989	G	50	12	62	0.00002
Paenarthrobacter	1742992	G	46	208	254	0.00009
Paeniglutamicibacter	1742990	G	43	33	76	0.00003
Renibacterium	1645	G	20	0	20	0.00001
Sinomonas	596707	G	19	-9	10	0.00000
Microbacterium	33882	G	2511	-980	1531	0.00053
Curtobacterium	2034	G	361	-290	71	0.00002
Agromyces	33877	G	185	-148	37	0.00001
Leifsonia	110932	G	148	247	395	0.00014
Cryobacterium	69578	G	115	74	189	0.00007
Leucobacter	55968	G	113	-104	9	0.00000
Agrococcus	46352	G	64	21	85	0.00003
Clavibacter	1573	G	60	-12	48	0.00002
Okibacterium	196084	G	34	1	35	0.00001
Agreia	110934	G	28	-4	24	0.00001
Frigoribacterium	96492	G	25	-25	0	0.00000
Salinibacterium	235888	G	25	-22	3	0.00000
Rathayibacter	33886	G	23	-23	0	0.00000
Mycetocola	76634	G	18	-18	0	0.00000
Subtercola	120212	G	17	-17	0	0.00000
Plantibacter	190323	G	15	-9	6	0.00000
Cellulosimicrobium	157920	G	243	-127	116	0.00004
Promicromonospora	43676	G	150	-150	0	0.00000
Isoptericola	254250	G	26	-10	16	0.00001
Janibacter	53457	G	110	-110	0	0.00000
Tetrasphaera	99479	G	71	-60	11	0.00000
Intrasporangium	53357	G	34	-34	0	0.00000
Terrabacter	53355	G	30	-3	27	0.00001
Ornithinicoccus	82345	G	10	-10	0	0.00000
Brevibacterium	1696	G	313	-238	75	0.00003
Brachybacterium	43668	G	295	-213	82	0.00003
Cellulomonas	1707	G	193	-178	15	0.00001
Oerskovia	162491	G	32	-32	0	0.00000
Ornithinimicrobium	125287	G	39	-39	0	0.00000
Dermacoccus	57495	G	27	-27	0	0.00000
Georgenia	154116	G	20	-20	0	0.00000
Sanguibacter	60919	G	15	-14	1	0.00000
Kytococcus	57499	G	13	-1	12	0.00000
Tropheryma	2038	G	11	-9	2	0.00000
Jonesia	43673	G	10	-7	3	0.00000
Streptomyces	1883	G	11310	2107	13417	0.00468
Kitasatospora	2063	G	320	-201	119	0.00004
Streptacidiphilus	228398	G	65	-65	0	0.00000
Rhodococcus	1827	G	1774	-455	1319	0.00046
Nocardia	1817	G	1050	-775	275	0.00010
Williamsia	85043	G	80	-80	0	0.00000
Mycobacterium	1763	G	911	-728	183	0.00006
Mycolicibacterium	1866885	G	99	-78	21	0.00001
Mycobacteroides	670516	G	27	44	71	0.00002
Mycolicibacter	1073531	G	10	-10	0	0.00000
Corynebacterium	1716	G	939	-118	821	0.00029
Dietzia	37914	G	191	-163	28	0.00001
Gordonia	2053	G	160	233	393	0.00014
Tsukamurella	2060	G	32	5	37	0.00001
Actinomyces	1654	G	528	-16	512	0.00018
Fannyhessea	2767327	G	108	-108	0	0.00000
Trueperella	1069494	G	47	-3	44	0.00002
Arcanobacterium	28263	G	44	-43	1	0.00000
Buchananella	2767323	G	30	0	30	0.00001
Gleimia	2692113	G	22	-2	20	0.00001
Schaalia	2529408	G	17	11	28	0.00001
Actinotignum	1653174	G	11	0	11	0.00000
Nocardiopsis	2013	G	542	-105	437	0.00015
Streptomonospora	104204	G	64	-63	1	0.00000
Thermobifida	83677	G	46	-24	22	0.00001
Actinomadura	1988	G	260	-111	149	0.00005
Actinocorallia	58108	G	19	-19	0	0.00000
Actinoallomurus	667113	G	18	-18	0	0.00000
Nonomuraea	83681	G	101	-99	2	0.00000
Streptosporangium	2000	G	58	-46	12	0.00000
Microbispora	2005	G	55	-49	6	0.00000
Planomonospora	1998	G	16	-16	0	0.00000
Thermopolyspora	359169	G	10	21	31	0.00001
Propionibacterium	1743	G	327	-145	182	0.00006
Cutibacterium	1912216	G	195	185	380	0.00013
Microlunatus	29404	G	36	-27	9	0.00000
Acidipropionibacterium	1912215	G	18	-14	4	0.00000
Luteococcus	33983	G	16	-16	0	0.00000
Tessaracoccus	72763	G	14	-9	5	0.00000
Nocardioides	1839	G	217	-111	106	0.00004
Aeromicrobium	2040	G	62	-62	0	0.00000
Propionicimonas	236052	G	31	-31	0	0.00000
Kribbella	182639	G	99	-85	14	0.00000
Bifidobacterium	1678	G	1039	-559	480	0.00017
Scardovia	196081	G	101	-6	95	0.00003
Alloscardovia	419014	G	11	-11	0	0.00000
Saccharopolyspora	1835	G	238	-227	11	0.00000
Pseudonocardia	1847	G	181	-118	63	0.00002
Saccharomonospora	1851	G	151	-140	11	0.00000
Actinoalloteichus	65496	G	111	-2	109	0.00004
Amycolatopsis	1813	G	89	-80	9	0.00000
Saccharothrix	2071	G	78	-53	25	0.00001
Lentzea	165301	G	63	-62	1	0.00000
Actinokineospora	39845	G	38	-36	2	0.00000
Saccharothrixopsis	104593	G	24	-24	0	0.00000
Streptoalloteichus	2016	G	19	-19	0	0.00000
Micromonospora	1873	G	431	-287	144	0.00005
Salinispora	168694	G	64	506	570	0.00020
Verrucosispora	84593	G	30	-30	0	0.00000
Actinoplanes	1865	G	24	757	781	0.00027
Dactylosporangium	35753	G	16	-16	0	0.00000
Blastococcus	38501	G	54	-53	1	0.00000
Modestobacter	88138	G	54	-54	0	0.00000
Frankia	1854	G	50	-28	22	0.00001
Kineococcus	33981	G	56	-55	1	0.00000
Candidatus Planktophila	622681	G	48	284	332	0.00012
Glycomyces	58113	G	31	-28	3	0.00000
Stackebrandtia	283810	G	11	0	11	0.00000
Actinopolyspora	1849	G	17	-17	0	0.00000
Rubrobacter	42255	G	141	1666	1807	0.00063
Aciditerrimonas	1042325	G	13	-2	11	0.00000
Candidatus Microthrix	41949	G	31	-18	13	0.00000
Conexibacter	191494	G	23	6197	6220	0.00217
Solirubrobacter	207599	G	18	0	18	0.00001
Ureaplasma	2129	G	26181	-6565	19616	0.00684
Mycoplasma	2093	G	772	-206	566	0.00020
Mycoplasmopsis	2767358	G	93	73	166	0.00006
Candidatus Hepatoplasma	295595	G	27	118	145	0.00005
Candidatus Moeniiplasma	1822366	G	27	-27	0	0.00000
Candidatus Marinoplasma	1671257	G	11	-11	0	0.00000
Candidatus Phytoplasma	33926	G	2509	-875	1634	0.00057
Acholeplasma	2147	G	158	-130	28	0.00001
Spiroplasma	2132	G	328	-47	281	0.00010
Entomoplasma	46238	G	19	-19	0	0.00000
Candidatus Lumbricincola	483197	G	103	-103	0	0.00000
Candidatus Bacilloplasma	467747	G	12	-12	0	0.00000
Malacoplasma	2791001	G	12	11768	11780	0.00411
Nostoc	1177	G	454	-392	62	0.00002
Desmonostoc	1340414	G	76	-57	19	0.00001
Anabaena	1163	G	74	-57	17	0.00001
Cylindrospermum	56106	G	48	-48	0	0.00000
Trichormus	264688	G	47	-7	40	0.00001
Wollea	732147	G	38	-38	0	0.00000
Cylindrospermopsis	77021	G	251	-221	30	0.00001
Dolichospermum	748770	G	86	1111	1197	0.00042
Umezakia	198592	G	84	-84	0	0.00000
Nodularia	159191	G	79	-15	64	0.00002
Cuspidothrix	882045	G	30	-30	0	0.00000
Aphanizomenon	1175	G	24	57	81	0.00003
Sphaerospermopsis	752201	G	12	-12	0	0.00000
Westiellopsis	221285	G	103	-103	0	0.00000
Fischerella	1190	G	19	-19	0	0.00000
Hapalosiphon	162985	G	15	-15	0	0.00000
Calothrix	1186	G	109	-108	1	0.00000
Scytonema	1203	G	38	-38	0	0.00000
Brasilonema	383614	G	14	-14	0	0.00000
Rivularia	373984	G	19	-19	0	0.00000
Tolypothrix	111782	G	10	-7	3	0.00000
Synechococcus	1129	G	1184	-1101	83	0.00003
Prochlorococcus	1218	G	218	-30	188	0.00007
Cyanobium	167375	G	19	-19	0	0.00000
Synechocystis	1142	G	61	-61	0	0.00000
Merismopedia	53402	G	18	-18	0	0.00000
Acaryochloris	155977	G	40	-28	12	0.00000
Prochloron	1214	G	12	-12	0	0.00000
Oscillatoria	1158	G	171	-100	71	0.00002
Phormidium	1198	G	140	-85	55	0.00002
Lyngbya	28073	G	31	-31	0	0.00000
Okeania	1458928	G	20	-20	0	0.00000
Microcoleus	44471	G	132	-77	55	0.00002
Symploca	105591	G	51	-51	0	0.00000
Planktothrix	54304	G	16	-8	8	0.00000
Arthrospira	35823	G	11	2	13	0.00000
Tychonema	54312	G	11	-11	0	0.00000
Trichodesmium	1205	G	10	-10	0	0.00000
Cyanothece	43988	G	35	-35	0	0.00000
Geitlerinema	63132	G	18	-18	0	0.00000
Hyalidium	1608830	G	10	-10	0	0.00000
Hormoscilla	881023	G	15	-15	0	0.00000
Microcystis	1125	G	296	-167	129	0.00004
Chroococcus	70190	G	67	-67	0	0.00000
Gloeocapsa	102231	G	19	-19	0	0.00000
Cyanobacterium	102234	G	14	-14	0	0.00000
Leptolyngbya	47251	G	167	-100	67	0.00002
Arthronema	241432	G	40	-40	0	0.00000
Planktolyngbya	471271	G	14	-14	0	0.00000
Pseudanabaena	1152	G	22	-21	1	0.00000
Nodosilinea	1120752	G	18	-18	0	0.00000
Oculatella	1240886	G	10	-10	0	0.00000
Xenococcus	52607	G	13	-13	0	0.00000
Stanieria	102115	G	10	-10	0	0.00000
Gloeobacter	33071	G	14	-14	0	0.00000
Spirulina	1154	G	39	-24	15	0.00001
Chroococcidiopsis	54298	G	30	-30	0	0.00000
Chloroflexus	1107	G	34	-34	0	0.00000
Roseiflexus	120961	G	16	-16	0	0.00000
Kouleothrix	186475	G	12	6	18	0.00001
Anaerolinea	233189	G	86	-41	45	0.00002
Longilinea	475961	G	13	0	13	0.00000
Ktedonobacter	363276	G	32	-32	0	0.00000
Dehalococcoides	61434	G	75	-25	50	0.00002
Caldilinea	233191	G	55	-55	0	0.00000
Thermobaculum	262406	G	11	0	11	0.00000
Deinococcus	1298	G	195	-149	46	0.00002
Thermus	270	G	41	-18	23	0.00001
Meiothermus	65551	G	16	-16	0	0.00000
Prevotella	838	G	386004	-70012	315992	0.11021
Paraprevotella	577309	G	7324	-7324	0	0.00000
Alloprevotella	1283313	G	1788	-1606	182	0.00006
Hallella	52228	G	15	-15	0	0.00000
Bacteroides	816	G	44293	54292	98585	0.03438
Phocaeicola	909656	G	2151	95977	98128	0.03422
Odoribacter	283168	G	55465	-55007	458	0.00016
Butyricimonas	574697	G	14	-14	0	0.00000
Porphyromonas	836	G	45388	-10698	34690	0.01210
Candidatus Vestibaculum	411918	G	26	-26	0	0.00000
Massilibacteroides	2034765	G	25	0	25	0.00001
Gabonibacter	1911312	G	16	-16	0	0.00000
Microbacter	1548510	G	11	-11	0	0.00000
Parabacteroides	375288	G	13893	-8951	4942	0.00172
Tannerella	195950	G	2794	-1096	1698	0.00059
Rikenella	28138	G	7140	-7140	0	0.00000
Alistipes	239759	G	5132	-2912	2220	0.00077
Ruminofilibacter	340117	G	623	-623	0	0.00000
Coprobacter	1348911	G	6881	-6881	0	0.00000
Barnesiella	397864	G	3125	2461	5586	0.00195
Dysgonomonas	156973	G	698	12541	13239	0.00462
Proteiniphilum	294702	G	271	-271	0	0.00000
Petrimonas	307628	G	64	-64	0	0.00000
Paludibacter	346096	G	424	-237	187	0.00007
Balneicella	1903336	G	387	0	387	0.00013
Candidatus Azobacteroides	511434	G	102	-20	82	0.00003
Candidatus Armantifilum	907288	G	24	-24	0	0.00000
Saccharicrinis	1618113	G	188	-188	0	0.00000
Mangroviflexus	1434020	G	114	479	593	0.00021
Anaerophaga	177399	G	84	-47	37	0.00001
Marinilabilia	59738	G	51	-51	0	0.00000
Thermophagus	1434049	G	42	-42	0	0.00000
Carboxylicivirga	1628153	G	17	-17	0	0.00000
Alkaliflexus	286729	G	11	-9	2	0.00000
Prolixibacter	314318	G	397	-1	396	0.00014
Mariniphaga	1573806	G	74	-74	0	0.00000
Meniscus	200677	G	52	-52	0	0.00000
Draconibacterium	1471399	G	27	-27	0	0.00000
Ancylomarina	1970195	G	13	-13	0	0.00000
Flavobacterium	237	G	5262	65802	71064	0.02478
Capnocytophaga	1016	G	1538	-691	847	0.00030
Polaribacter	52959	G	311	5519	5830	0.00203
Maribacter	252356	G	222	-218	4	0.00000
Cellulophaga	104264	G	187	370	557	0.00019
Aquimarina	290174	G	185	-184	1	0.00000
Arenibacter	178469	G	178	-178	0	0.00000
Myroides	76831	G	174	915	1089	0.00038
Tenacibaculum	104267	G	170	-139	31	0.00001
Salegentibacter	143222	G	169	-161	8	0.00000
Psychroserpens	49277	G	165	-165	0	0.00000
Gaetbulibacter	311207	G	164	-163	1	0.00000
Winogradskyella	286104	G	147	-147	0	0.00000
Tamlana	393005	G	142	-142	0	0.00000
Joostella	453850	G	130	-130	0	0.00000
Gramella	292691	G	119	-119	0	0.00000
Muricauda	111500	G	110	-110	0	0.00000
Aequorivita	153265	G	95	-87	8	0.00000
Hyunsoonleella	1080193	G	92	0	92	0.00003
Lutibacter	358023	G	85	-85	0	0.00000
Kordia	221065	G	81	5170	5251	0.00183
Psychroflexus	83612	G	46	536	582	0.00020
Leeuwenhoekiella	283735	G	41	-39	2	0.00000
Mesoflavibacter	444051	G	40	-40	0	0.00000
Ulvibacter	237444	G	32	-32	0	0.00000
Salinimicrobium	561367	G	28	-28	0	0.00000
Zobellia	112040	G	26	-25	1	0.00000
Subsaximicrobium	291178	G	24	-24	0	0.00000
Actibacter	449462	G	23	-23	0	0.00000
Formosa	225842	G	22	61	83	0.00003
Croceibacter	216431	G	21	-21	0	0.00000
Sediminibacter	379072	G	19	-19	0	0.00000
Lacinutrix	291183	G	18	-18	0	0.00000
Dokdonia	326319	G	16	147	163	0.00006
Robiginitalea	252306	G	15	-1	14	0.00000
Mesonia	232115	G	15	-15	0	0.00000
Nonlabens	363408	G	15	-15	0	0.00000
Gelidibacter	49279	G	13	-13	0	0.00000
Algibacter	261827	G	10	-10	0	0.00000
Chryseobacterium	59732	G	1778	-211	1567	0.00055
Soonwooa	944321	G	40	-40	0	0.00000
Elizabethkingia	308865	G	230	30	260	0.00009
Riemerella	34084	G	212	-57	155	0.00005
Bergeyella	59735	G	75	-75	0	0.00000
Ornithobacterium	28250	G	55	196	251	0.00009
Wautersiella	343873	G	47	-47	0	0.00000
Empedobacter	59734	G	30	-7	23	0.00001
Weeksella	1013	G	15	-5	10	0.00000
Cloacibacterium	501783	G	12	0	12	0.00000
Fluviicola	332102	G	346	-340	6	0.00000
Crocinitomix	246873	G	342	-342	0	0.00000
Owenweeksia	267986	G	333	-280	53	0.00002
Candidatus Sulcia	336809	G	225	360	585	0.00020
Candidatus Brownia	1010679	G	157	-157	0	0.00000
Blattabacterium	34098	G	47	-26	21	0.00001
Sphingobacterium	28453	G	2062	3798	5860	0.00204
Pedobacter	84567	G	852	-506	346	0.00012
Mucilaginibacter	423349	G	313	-308	5	0.00000
Solitalea	929509	G	47	-43	4	0.00000
Parapedobacter	416949	G	30	-27	3	0.00000
Olivibacter	376469	G	26	-25	1	0.00000
Pseudopedobacter	1649482	G	15	-8	7	0.00000
Anseongella	1773450	G	13	-13	0	0.00000
Cytophaga	978	G	1389	21458	22847	0.00797
Spirosoma	107	G	53	-51	2	0.00000
Sporocytophaga	1011	G	40	-40	0	0.00000
Candidatus Nephrothrix	1659686	G	13	-13	0	0.00000
Aquiflexum	280472	G	418	-418	0	0.00000
Algoriphagus	246875	G	251	-250	1	0.00000
Echinicola	390846	G	26	-26	0	0.00000
Cyclobacterium	68288	G	21	-21	0	0.00000
Mariniradius	1245590	G	10	-10	0	0.00000
Dyadobacter	120831	G	128	-101	27	0.00001
Flectobacillus	101	G	128	-82	46	0.00002
Arcicella	217140	G	120	-120	0	0.00000
Leadbetterella	319458	G	94	-94	0	0.00000
Telluribacter	1949218	G	13	-13	0	0.00000
Larkinella	332157	G	11	-11	0	0.00000
Emticicia	312278	G	10	-10	0	0.00000
Hymenobacter	89966	G	143	-139	4	0.00000
Pontibacter	323449	G	130	-115	15	0.00001
Adhaeribacter	299566	G	65	-16	49	0.00002
Flexibacter	992	G	298	38	336	0.00012
Flammeovirga	59739	G	53	-53	0	0.00000
Limibacter	518746	G	23	-23	0	0.00000
Candidatus Cardinium	273135	G	157	-157	0	0.00000
Candidatus Amoebophilus	281119	G	24	-5	19	0.00001
Marivirga	869806	G	61	165	226	0.00008
Fulvivirga	396811	G	36	-36	0	0.00000
Microscilla	1023	G	20	-20	0	0.00000
Garritya	1937995	G	13	-13	0	0.00000
Roseivirga	290180	G	11	-11	0	0.00000
Saprospira	1007	G	30	-21	9	0.00000
Lewinella	70994	G	126	-126	0	0.00000
Flavilitoribacter	2762562	G	39	-39	0	0.00000
Haliscomenobacter	2349	G	26	0	26	0.00001
Chitinophaga	79328	G	302	4770	5072	0.00177
Niastella	354354	G	34	-6	28	0.00001
Sediminibacterium	504481	G	32	-32	0	0.00000
Ferruginibacter	1004303	G	29	-29	0	0.00000
Flavisolibacter	398041	G	29	11798	11827	0.00412
Terrimonas	296051	G	26	3996	4022	0.00140
Niabella	379899	G	14	-13	1	0.00000
Salinibacter	146918	G	125	494	619	0.00022
Rhodothermus	29548	G	17	-11	6	0.00000
Prosthecochloris	1101	G	64	-59	5	0.00000
Chlorobium	1091	G	55	-38	17	0.00001
Chlorobaculum	256319	G	29	-29	0	0.00000
Balneola	455358	G	66	-66	0	0.00000
Ignavibacterium	795750	G	31	33	64	0.00002
Fibrobacter	832	G	418	1660	2078	0.00072
Gemmatimonas	173479	G	98	348	446	0.00016
Candidatus Cloacimonas	456826	G	33	0	33	0.00001
Aestuariibacter	249523	G	15408	-15408	0	0.00000
Alteromonas	226	G	5068	2012	7080	0.00247
Salinimonas	288793	G	41	2269	2310	0.00081
Glaciecola	89404	G	369	-267	102	0.00004
Alishewanella	111142	G	58	-18	40	0.00001
Paraglaciecola	1621534	G	38	-9	29	0.00001
Agarivorans	261825	G	30	-30	0	0.00000
Bowmanella	366580	G	26	-26	0	0.00000
Pseudoalteromonas	53246	G	2158	5468	7626	0.00266
Shewanella	22	G	1152	1289	2441	0.00085
Idiomarina	135575	G	312	603	915	0.00032
Colwellia	28228	G	182	28	210	0.00007
Thalassomonas	137583	G	15	-15	0	0.00000
Moritella	58050	G	70	19	89	0.00003
Psychromonas	67572	G	17	-6	11	0.00000
Pseudomonas	286	G	14491	9492	23983	0.00836
Azotobacter	352	G	215	24	239	0.00008
Halopseudomonas	2901189	G	11	-11	0	0.00000
Marinobacter	2742	G	538	-254	284	0.00010
Enterobacter	547	G	1774	606	2380	0.00083
Klebsiella	570	G	1294	685	1979	0.00069
Raoultella	160674	G	92	-40	52	0.00002
Escherichia	561	G	853	1684	2537	0.00088
Salmonella	590	G	540	-537	3	0.00000
Citrobacter	544	G	498	3078	3576	0.00125
Shigella	620	G	174	1335	1509	0.00053
Cronobacter	413496	G	173	129	302	0.00011
Candidatus Blochmannia	203804	G	23	9	32	0.00001
Kosakonia	1330547	G	70	36	106	0.00004
Kluyvera	579	G	41	-27	14	0.00000
Leclercia	83654	G	35	43	78	0.00003
Atlantibacter	1903434	G	29	165	194	0.00007
Plesiomonas	702	G	26	-19	7	0.00000
Candidatus Ishikawaella	409304	G	18	-9	9	0.00000
Candidatus Schneideria	1081630	G	16	-16	0	0.00000
Lelliottia	1330545	G	13	18	31	0.00001
Buttiauxella	82976	G	12	-10	2	0.00000
Trabulsiella	158851	G	12	-12	0	0.00000
Candidatus Riesia	401618	G	11	-5	6	0.00000
Candidatus Curculioniphilus	690591	G	10	-1	9	0.00000
Buchnera	32199	G	985	1	986	0.00034
Pantoea	53335	G	537	386	923	0.00032
Erwinia	551	G	176	-99	77	0.00003
Wigglesworthia	51228	G	11	0	11	0.00000
Serratia	613	G	1143	1460	2603	0.00091
Rahnella	34037	G	157	184	341	0.00012
Yersinia	629	G	90	115	205	0.00007
Providencia	586	G	698	-314	384	0.00013
Proteus	583	G	240	4	244	0.00009
Photorhabdus	29487	G	99	-79	20	0.00001
Xenorhabdus	626	G	91	-26	65	0.00002
Morganella	581	G	79	7	86	0.00003
Arsenophonus	637	G	33	-33	0	0.00000
Pectobacterium	122277	G	115	71	186	0.00006
Brenneria	71655	G	105	-105	0	0.00000
Dickeya	204037	G	89	18	107	0.00004
Edwardsiella	635	G	33	2	35	0.00001
Hafnia	568	G	13	17	30	0.00001
Sodalis	84565	G	38	65	103	0.00004
Thorsellia	336803	G	11	14054	14065	0.00491
Stenotrophomonas	40323	G	2129	-170	1959	0.00068
Xanthomonas	338	G	233	64	297	0.00010
Lysobacter	68	G	194	-58	136	0.00005
Pseudoxanthomonas	83618	G	174	135	309	0.00011
Luteimonas	83614	G	70	15	85	0.00003
Thermomonas	141948	G	17	97	114	0.00004
Dyella	231454	G	190	-4	186	0.00006
Rhodanobacter	75309	G	41	14	55	0.00002
Dokdonella	323413	G	28	5	33	0.00001
Luteibacter	242605	G	13	-9	4	0.00000
Vibrio	662	G	2520	567	3087	0.00108
Photobacterium	657	G	298	-69	229	0.00008
Salinivibrio	51366	G	99	-56	43	0.00001
Aliivibrio	511678	G	63	17	80	0.00003
Halomonas	2745	G	1227	-601	626	0.00022
Candidatus Portiera	235572	G	51	16	67	0.00002
Candidatus Carsonella	114185	G	18	-4	14	0.00000
Salicola	332339	G	48	-48	0	0.00000
Cobetia	204286	G	47	-2	45	0.00002
Halovibrio	576341	G	30	-19	11	0.00000
Chromohalobacter	42054	G	25	-2	23	0.00001
Kushneria	504090	G	12	-12	0	0.00000
Salinicola	404432	G	10	-4	6	0.00000
Alcanivorax	59753	G	738	708	1446	0.00050
Marinobacterium	48075	G	246	-157	89	0.00003
Marinomonas	28253	G	119	-29	90	0.00003
Neptunomonas	75687	G	66	-20	46	0.00002
Oceanobacter	196079	G	63	0	63	0.00002
Marinospirillum	64968	G	31	-31	0	0.00000
Amphritea	515417	G	28	-28	0	0.00000
Nitrincola	267849	G	19	-19	0	0.00000
Neptuniibacter	459520	G	15	4	19	0.00001
Endozoicomonas	305899	G	60	-60	0	0.00000
Hahella	158481	G	10	19	29	0.00001
Acinetobacter	469	G	1953	729	2682	0.00094
Psychrobacter	497	G	762	-140	622	0.00022
Moraxella	475	G	56	-2	54	0.00002
Aeromonas	642	G	1267	1312	2579	0.00090
Zobellella	347533	G	47	-9	38	0.00001
Oceanisphaera	225143	G	42	-37	5	0.00000
Oceanimonas	129577	G	25	-12	13	0.00000
Tolumonas	43947	G	19	-18	1	0.00000
Succinivibrio	83770	G	63	-48	15	0.00001
Rheinheimera	67575	G	121	-32	89	0.00003
Thiocapsa	1056	G	49	-11	38	0.00001
Nitrosococcus	1227	G	48	76	124	0.00004
Marichromatium	85076	G	30	-28	2	0.00000
Thiorhodococcus	57488	G	21	-21	0	0.00000
Thiocystis	13724	G	14	-14	0	0.00000
Thiococcus	85078	G	13	-13	0	0.00000
Halorhodospira	85108	G	46	-46	0	0.00000
Thioalkalivibrio	106633	G	42	-29	13	0.00000
Ectothiorhodospira	1051	G	14	-14	0	0.00000
Halothiobacillus	109262	G	18	-18	0	0.00000
Legionella	445	G	443	24	467	0.00016
Tatlockia	465	G	22	-5	17	0.00001
Aquicella	254245	G	113	468	581	0.00020
Coxiella	776	G	34	-10	24	0.00001
Rickettsiella	59195	G	11	212	223	0.00008
Methylophaga	40222	G	257	-16	241	0.00008
Piscirickettsia	1237	G	26	-2	24	0.00001
Cycloclasticus	34067	G	21	2	23	0.00001
Thiomicrospira	933	G	11	-6	5	0.00000
Thiothrix	1030	G	128	-128	0	0.00000
Beggiatoa	1021	G	44	43	87	0.00003
Candidatus Parabeggiatoa	1034941	G	17	-17	0	0.00000
Francisella	262	G	85	-9	76	0.00003
Fangia	482136	G	13	0	13	0.00000
Candidatus Nardonella	204619	G	334	223	557	0.00019
Candidatus Thioglobus	655184	G	109	79	188	0.00007
Candidatus Competibacter	221279	G	17	-17	0	0.00000
Spongiobacter	314672	G	14	-1	13	0.00000
Haererehalobacter	54758	G	13	-3	10	0.00000
Pasteurella	745	G	81	-5	76	0.00003
Ursidibacter	1855419	G	63	-63	0	0.00000
Haemophilus	724	G	56	0	56	0.00002
Actinobacillus	713	G	55	-38	17	0.00001
Glaesserella	2094023	G	47	-1	46	0.00002
Gallibacterium	155493	G	35	0	35	0.00001
Testudinibacter	1755672	G	29	-29	0	0.00000
Muribacter	1857532	G	24	-2	22	0.00001
Spirabiliibacterium	2820724	G	13	-13	0	0.00000
Aggregatibacter	416916	G	13	-1	12	0.00000
Methylobacter	429	G	151	-26	125	0.00004
Methylococcus	413	G	53	-52	1	0.00000
Methylomonas	416	G	44	147	191	0.00007
Methylocaldum	73778	G	27	-19	8	0.00000
Nevskia	64001	G	110	-110	0	0.00000
Hydrocarboniphaga	243627	G	14	49	63	0.00002
Steroidobacter	469322	G	34	34	68	0.00002
Cellvibrio	10	G	48	-34	14	0.00000
Saccharophagus	316625	G	28	-28	0	0.00000
Candidatus Endobugula	62100	G	12	-6	6	0.00000
Microbulbifer	48073	G	37	-24	13	0.00000
Salinisphaera	180541	G	29	-11	18	0.00001
Kangiella	261963	G	38	-16	22	0.00001
Cardiobacterium	2717	G	19	-17	2	0.00000
Suttonella	13275	G	10	-10	0	0.00000
Gilliamella	1193503	G	25	6	31	0.00001
Desulfovibrio	872	G	27083	-195	26888	0.00938
Lawsonia	41707	G	1636	6833	8469	0.00295
Oleidesulfovibrio	2909705	G	76	330	406	0.00014
Maridesulfovibrio	2794998	G	43	-24	19	0.00001
Halodesulfovibrio	1912771	G	32	9	41	0.00001
Oceanidesulfovibrio	2905722	G	17	-4	13	0.00000
Pseudodesulfovibrio	2035811	G	15	-3	12	0.00000
Desulfomicrobium	898	G	438	-111	327	0.00011
Desulfonauticus	206664	G	37	-1	36	0.00001
Desulfonatronovibrio	53244	G	19	31	50	0.00002
Desulfohalobium	45662	G	13	11	24	0.00001
Desulfonatronum	66848	G	46	13040	13086	0.00456
Cystobacter	42	G	146	20	166	0.00006
Myxococcus	32	G	107	-65	42	0.00001
Corallococcus	83461	G	21	31	52	0.00002
Anaeromyxobacter	161492	G	55	8	63	0.00002
Sorangium	39643	G	84	38	122	0.00004
Byssovorax	224459	G	14	0	14	0.00000
Haliangium	162027	G	24	30	54	0.00002
Kofleria	224465	G	23	-1	22	0.00001
Nannocystis	53	G	30	-20	10	0.00000
Desulfobulbus	893	G	338	109	447	0.00016
Desulfococcus	896	G	50	-49	1	0.00000
Desulfobacterium	2295	G	35	-23	12	0.00000
Desulfonema	45654	G	20	-20	0	0.00000
Desulfobacter	2289	G	19	-3	16	0.00001
Desulfobotulus	48001	G	19	-17	2	0.00000
Desulfobacula	28222	G	16	0	16	0.00001
Desulfoluna	497721	G	14	-14	0	0.00000
Desulfatiferula	396320	G	11	-11	0	0.00000
Desulfatibacillum	218207	G	11	-7	4	0.00000
Desulfocapsa	53318	G	35	461	496	0.00017
Geobacter	28231	G	298	226	524	0.00018
Pelobacter	18	G	64	11	75	0.00003
Desulfuromonas	890	G	30	94	124	0.00004
Syntrophobacter	29526	G	14	10	24	0.00001
Syntrophus	43773	G	49	204	253	0.00009
Desulfomonile	2357	G	24	0	24	0.00001
Smithella	182623	G	13	0	13	0.00000
Desulfurella	33001	G	19	0	19	0.00001
Helicobacter	209	G	1706	-452	1254	0.00044
Wolinella	843	G	31	-22	9	0.00000
Campylobacter	194	G	272	-240	32	0.00001
Sulfurospirillum	57665	G	127	68	195	0.00007
Arcobacter	28196	G	200	43	243	0.00008
Aliarcobacter	2321111	G	30	-29	1	0.00000
Sulfurovum	265570	G	91	186	277	0.00010
Rhizobium	379	G	2398	-1461	937	0.00033
Agrobacterium	357	G	695	913	1608	0.00056
Neorhizobium	1525371	G	41	-34	7	0.00000
Sinorhizobium	28105	G	307	643	950	0.00033
Ensifer	106591	G	61	-61	0	0.00000
Liberibacter	34019	G	178	-147	31	0.00001
Shinella	323620	G	12	-12	0	0.00000
Bradyrhizobium	374	G	2464	-1830	634	0.00022
Rhodopseudomonas	1073	G	718	-718	0	0.00000
Nitrobacter	911	G	152	-152	0	0.00000
Afipia	1033	G	62	-62	0	0.00000
Methylobacterium	407	G	970	-899	71	0.00002
Methylorubrum	2282523	G	211	-36	175	0.00006
Microvirga	186650	G	161	-161	0	0.00000
Mesorhizobium	68287	G	782	3087	3869	0.00135
Phyllobacterium	28100	G	94	-94	0	0.00000
Nitratireductor	245876	G	41	-32	9	0.00000
Aliihoeflea	610116	G	21	-21	0	0.00000
Hoeflea	274591	G	17	-17	0	0.00000
Ochrobactrum	528	G	396	189	585	0.00020
Brucella	234	G	221	-113	108	0.00004
Pseudochrobactrum	354349	G	63	-63	0	0.00000
Mycoplana	13159	G	26	390	416	0.00015
Hyphomicrobium	81	G	139	11	150	0.00005
Rhodoplanes	29407	G	41	-41	0	0.00000
Pedomicrobium	47494	G	21	-21	0	0.00000
Rhodomicrobium	1068	G	14	-14	0	0.00000
Methylocystis	133	G	59	-59	0	0.00000
Methylosinus	425	G	22	-22	0	0.00000
Candidatus Hodgkinia	573657	G	135	0	135	0.00005
Enhydrobacter	212791	G	15	-15	0	0.00000
Xanthobacter	279	G	43	-43	0	0.00000
Starkeya	152053	G	31	-31	0	0.00000
Ancylobacter	99	G	27	-27	0	0.00000
Azorhizobium	6	G	13	-13	0	0.00000
Labrys	204476	G	13	-13	0	0.00000
Rhodovibrio	85274	G	51	-51	0	0.00000
Pelagibius	643951	G	45	-45	0	0.00000
Devosia	46913	G	86	-86	0	0.00000
Pseudovibrio	258255	G	44	-44	0	0.00000
Pannonibacter	227873	G	16	-16	0	0.00000
Aurantimonas	182269	G	41	-41	0	0.00000
Martelella	293088	G	22	-22	0	0.00000
Beijerinckia	532	G	37	-37	0	0.00000
Methylocella	120652	G	15	-15	0	0.00000
Bosea	85413	G	59	-59	0	0.00000
Bartonella	773	G	54	-54	0	0.00000
Parvibaculum	256616	G	47	-47	0	0.00000
Chelatococcus	28209	G	34	-34	0	0.00000
Rhodobium	34016	G	27	-26	1	0.00000
Blastochloris	59282	G	33	-33	0	0.00000
Pleomorphomonas	261933	G	30	-30	0	0.00000
Kaistia	166953	G	17	-17	0	0.00000
Nisaea	390876	G	1866	-1866	0	0.00000
Oceanibaculum	659693	G	34	-34	0	0.00000
Acidiphilium	522	G	615	-615	0	0.00000
Acetobacter	434	G	213	129	342	0.00012
Gluconacetobacter	89583	G	210	-209	1	0.00000
Roseomonas	125216	G	60	-60	0	0.00000
Commensalibacter	1079922	G	57	22	79	0.00003
Komagataeibacter	1434011	G	30	-14	16	0.00001
Gluconobacter	441	G	28	-28	0	0.00000
Rhodopila	1070	G	25	-25	0	0.00000
Asaia	91914	G	14	-14	0	0.00000
Azospirillum	191	G	433	-297	136	0.00005
Niveispirillum	1543704	G	43	-43	0	0.00000
Skermanella	204447	G	38	-11	27	0.00001
Magnetospirillum	13134	G	34	-34	0	0.00000
Inquilinus	171673	G	33	-33	0	0.00000
Tistrella	171436	G	26	-25	1	0.00000
Rhodospirillum	1081	G	23	-23	0	0.00000
Roseospira	86671	G	12	-5	7	0.00000
Phaeospirillum	85265	G	10	-10	0	0.00000
Candidatus Endolissoclinum	1263978	G	10	-10	0	0.00000
Thalassospira	168934	G	66	-66	0	0.00000
Magnetospira	1182780	G	10	-10	0	0.00000
Sphingomonas	13687	G	1288	-477	811	0.00028
Sphingobium	165695	G	222	181	403	0.00014
Novosphingobium	165696	G	112	-50	62	0.00002
Sphingopyxis	165697	G	100	-94	6	0.00000
Blastomonas	150203	G	54	-54	0	0.00000
Erythrobacter	1041	G	178	-178	0	0.00000
Altererythrobacter	361177	G	66	-66	0	0.00000
Qipengyuania	1855416	G	23	-23	0	0.00000
Sandaracinobacter	56358	G	13	-13	0	0.00000
Robiginitomaculum	437506	G	2062	-2062	0	0.00000
Maricaulis	74317	G	63	-63	0	0.00000
Oceanicaulis	153232	G	12	-12	0	0.00000
Brevundimonas	41275	G	1070	-1070	0	0.00000
Caulobacter	75	G	315	-315	0	0.00000
Asticcacaulis	76890	G	234	-234	0	0.00000
Phenylobacterium	20	G	65	-20	45	0.00002
Paracoccus	265	G	281	223	504	0.00018
Rhodobacter	1060	G	123	-123	0	0.00000
Rhodovulum	34008	G	96	-94	2	0.00000
Cereibacter	1653176	G	44	-44	0	0.00000
Rhodobaca	119541	G	31	-31	0	0.00000
Yoonia	2211641	G	30	-30	0	0.00000
Amaricoccus	56999	G	21	-21	0	0.00000
Methylarcula	72021	G	20	-20	0	0.00000
Rubrimonas	89523	G	14	-14	0	0.00000
Roseobacter	2433	G	241	143	384	0.00013
Ruegeria	97050	G	124	-124	0	0.00000
Sulfitobacter	60136	G	100	-100	0	0.00000
Roseibacterium	159345	G	67	-67	0	0.00000
Donghicola	393277	G	28	-28	0	0.00000
Oceanicola	252301	G	26	-26	0	0.00000
Phaeobacter	302485	G	19	-19	0	0.00000
Loktanella	245186	G	19	-19	0	0.00000
Pseudoruegeria	311411	G	18	-18	0	0.00000
Octadecabacter	53945	G	17	-17	0	0.00000
Wolbachia	953	G	606	-426	180	0.00006
Anaplasma	768	G	208	-115	93	0.00003
Ehrlichia	943	G	90	-35	55	0.00002
Candidatus Xenohaliotis	1647409	G	21	0	21	0.00001
Rickettsia	780	G	203	-199	4	0.00000
Orientia	69474	G	37	-7	30	0.00001
Candidatus Midichloria	411566	G	20	-20	0	0.00000
Candidatus Pelagibacter	198251	G	49	-49	0	0.00000
Magnetococcus	162171	G	186	-109	77	0.00003
Micavibrio	213485	G	10	-10	0	0.00000
Hyphomonas	85	G	89	-89	0	0.00000
Holospora	44747	G	11	-11	0	0.00000
Candidatus Odyssella	84646	G	13	-13	0	0.00000
Parvularcula	208215	G	37	-37	0	0.00000
Kordiimonas	288021	G	14	-14	0	0.00000
Sneathiella	510690	G	13	-13	0	0.00000
Acidovorax	12916	G	1172	679	1851	0.00065
Comamonas	283	G	825	-186	639	0.00022
Variovorax	34072	G	593	327	920	0.00032
Rhodoferax	28065	G	538	1575	2113	0.00074
Delftia	80865	G	331	28	359	0.00013
Hydrogenophaga	47420	G	149	-3	146	0.00005
Verminephrobacter	364316	G	128	428	556	0.00019
Limnohabitans	665874	G	126	-101	25	0.00001
Curvibacter	281915	G	118	491	609	0.00021
Brachymonas	28219	G	116	1365	1481	0.00052
Polaromonas	52972	G	80	28	108	0.00004
Diaphorobacter	238749	G	58	-57	1	0.00000
Ramlibacter	174951	G	54	-28	26	0.00001
Pseudorhodoferax	747294	G	48	-48	0	0.00000
Pseudacidovorax	433923	G	41	-41	0	0.00000
Schlegelella	215579	G	32	0	32	0.00001
Xenophilus	151754	G	25	-25	0	0.00000
Alicycliphilus	201096	G	16	-16	0	0.00000
Pelomonas	335058	G	10	-1	9	0.00000
Burkholderia	32008	G	1735	2228	3963	0.00138
Ralstonia	48736	G	877	186	1063	0.00037
Cupriavidus	106589	G	436	-232	204	0.00007
Paraburkholderia	1822464	G	317	106	423	0.00015
Candidatus Glomeribacter	224135	G	55	-55	0	0.00000
Pandoraea	93217	G	46	150	196	0.00007
Caballeronia	1827195	G	40	-33	7	0.00000
Polynucleobacter	44013	G	22	23	45	0.00002
Lautropia	47670	G	17	-16	1	0.00000
Trinickia	2571160	G	16	-16	0	0.00000
Chitinimonas	240411	G	11	-1	10	0.00000
Alcaligenes	507	G	1096	-429	667	0.00023
Achromobacter	222	G	1049	190	1239	0.00043
Bordetella	517	G	151	-88	63	0.00002
Advenella	290425	G	71	-65	6	0.00000
Pusillimonas (ex Stolz et al. 2005)	305976	G	30	-2	28	0.00001
Pigmentiphaga	152267	G	30	10	40	0.00001
Derxia	203697	G	14	-14	0	0.00000
Azohydromonas	312063	G	14	-14	0	0.00000
Herbaspirillum	963	G	456	-1	455	0.00016
Massilia	149698	G	123	25	148	0.00005
Duganella	75654	G	35	-32	3	0.00000
Candidatus Zinderia	884214	G	148	0	148	0.00005
Janthinobacterium	29580	G	90	-45	45	0.00002
Oxalobacter	846	G	57	213	270	0.00009
Undibacterium	401469	G	20	-20	0	0.00000
Collimonas	202907	G	12	-12	0	0.00000
Herminiimonas	303379	G	11	-3	8	0.00000
Ideonella	36862	G	60	-60	0	0.00000
Mitsuaria	65047	G	55	-49	6	0.00000
Leptothrix	88	G	52	18	70	0.00002
Aquabacterium	92793	G	51	-3	48	0.00002
Rubrivivax	28067	G	42	-32	10	0.00000
Methylibium	316612	G	42	102	144	0.00005
Thiomonas	32012	G	37	-2	35	0.00001
Sphaerotilus	34102	G	22	99	121	0.00004
Tepidimonas	114248	G	11	213	224	0.00008
Sutterella	40544	G	82	-82	0	0.00000
Parasutterella	577310	G	35	7243	7278	0.00254
Nitrosomonas	914	G	260	17	277	0.00010
Nitrosospira	35798	G	142	3401	3543	0.00124
Nitrosovibrio	1232	G	44	-29	15	0.00001
Sideroxydans	314343	G	204	-204	0	0.00000
Gallionella	96	G	146	-30	116	0.00004
Candidatus Nitrotoga	453161	G	12	-12	0	0.00000
Thiobacillus	919	G	245	286	531	0.00019
Methylobacillus	404	G	65	-41	24	0.00001
Methylophilus	16	G	55	-2	53	0.00002
Methylotenera	359407	G	12	-10	2	0.00000
Denitratisoma	311181	G	31	2	33	0.00001
Methyloversatilis	378210	G	11	-11	0	0.00000
Spirillum	967	G	13	-13	0	0.00000
Neisseria	482	G	305	130	435	0.00015
Stenoxybacter	422440	G	42	-42	0	0.00000
Alysiella	194195	G	37	6	43	0.00001
Kingella	32257	G	21	-17	4	0.00000
Prolinoborus	206375	G	19	32	51	0.00002
Chromobacterium	535	G	279	-226	53	0.00002
Iodobacter	32014	G	11	-11	0	0.00000
Laribacter	168470	G	82	-82	0	0.00000
Aquaspirillum	187	G	62	-62	0	0.00000
Aquitalea	407217	G	15	-14	1	0.00000
Azospira	146937	G	73	-36	37	0.00001
Denitromonas	139331	G	36	0	36	0.00001
Rhodocyclus	1064	G	19	-6	13	0.00000
Azovibrio	146935	G	15	-2	13	0.00000
Thauera	33057	G	243	57	300	0.00010
Zoogloea	349	G	79	3	82	0.00003
Azoarcus	12960	G	60	12	72	0.00003
Dechloromonas	73029	G	117	-1	116	0.00004
Ferribacterium	88875	G	19	-19	0	0.00000
Azonexus	146936	G	13	31	44	0.00002
Candidatus Tremblaya	189384	G	222	-57	165	0.00006
Candidatus Vidania	1191175	G	128	-128	0	0.00000
Procabacter	167946	G	13	-9	4	0.00000
Acidithiobacillus	119977	G	721	1118	1839	0.00064
Bacteriovorax	146784	G	393	-142	251	0.00009
Peredibacter	263370	G	39	-29	10	0.00000
Bdellovibrio	958	G	121	-103	18	0.00001
Hydrogenophilus	70774	G	31	-21	10	0.00000
Mariprofundus	377315	G	18	134517	134535	0.04692
Mucispirillum	248038	G	396	-306	90	0.00003
Flexistipes	2351	G	129	-129	0	0.00000
Geovibrio	46200	G	45	-45	0	0.00000
Deferribacter	53572	G	30	-10	20	0.00001
Calditerrivibrio	545865	G	22	-22	0	0.00000
Seleniivibrio	1649493	G	22	-3	19	0.00001
Acidobacterium	33973	G	277	261	538	0.00019
Candidatus Koribacter	658061	G	58	66	124	0.00004
Edaphobacter	388463	G	10	-10	0	0.00000
Candidatus Solibacter	332162	G	13	69	82	0.00003
Holophaga	35838	G	43	0	43	0.00001
Geothrix	44675	G	12	42	54	0.00002
Chloracidobacterium	458032	G	12	-12	0	0.00000
Planctomyces	118	G	44	1651	1695	0.00059
Pirellula	123	G	14	74	88	0.00003
Blastopirellula	265487	G	10	-5	5	0.00000
Singulisphaera	466152	G	21	-21	0	0.00000
Gemmata	113	G	11	-5	6	0.00000
Algisphaera	1472699	G	10	-10	0	0.00000
Candidatus Scalindua	236756	G	19	25	44	0.00002
Verrucomicrobium	2735	G	64	-1	63	0.00002
Opitutus	178440	G	16	14	30	0.00001
Cerasicoccus	468938	G	10	80	90	0.00003
Chlamydia	810	G	92	-1	91	0.00003
Nanobacterium	53023	G	16	-16	0	0.00000
Borreliella	64895	G	496	476	972	0.00034
Borrelia	138	G	234	-110	124	0.00004
Treponema	157	G	996	-328	668	0.00023
Spirochaeta	146	G	398	357	755	0.00026
Sediminispirochaeta	1911556	G	11	2	13	0.00000
Sphaerochaeta	399320	G	15	-6	9	0.00000
Leptospira	171	G	421	-84	337	0.00012
Brachyspira	29521	G	43	-34	9	0.00000
Mesoaciditoga	1495038	G	196	-196	0	0.00000
Athalassotoga	1769718	G	11	41	52	0.00002
Thermotoga	2335	G	40	-11	29	0.00001
Fervidobacterium	2422	G	25	-14	11	0.00000
Thermosipho	2420	G	10	1256	1266	0.00044
Petrotoga	28236	G	39	-39	0	0.00000
Marinitoga	160798	G	11	39	50	0.00002
Nitrospira	1234	G	314	89	403	0.00014
Leptospirillum	179	G	130	6	136	0.00005
Thermodesulfovibrio	28261	G	42	-33	9	0.00000
Fusobacterium	848	G	561	-184	377	0.00013
Leptotrichia	32067	G	75	-39	36	0.00001
Streptobacillus	34104	G	33	-33	0	0.00000
Thermovirga	336260	G	50	4	54	0.00002
Pyramidobacter	638847	G	28	-23	5	0.00000
Aminomonas	81411	G	20	-19	1	0.00000
Aminiphilus	290731	G	18	-18	0	0.00000
Aminobacterium	81466	G	14	-4	10	0.00000
Dethiosulfovibrio	47054	G	13	-10	3	0.00000
Hydrogenobaculum	168657	G	97	-3	94	0.00003
Thermocrinis	75905	G	17	0	17	0.00001
Hydrogenobacter	939	G	14	7	21	0.00001
Hydrogenothermus	133269	G	45	-45	0	0.00000
Sulfurihydrogenibium	212790	G	10	0	10	0.00000
Thermovibrio	171868	G	17	-16	1	0.00000
Elusimicrobium	423604	G	20	548	568	0.00020
Thermodesulfobacterium	1740	G	33	4	37	0.00001
Geothermobacterium	169299	G	18	60	78	0.00003
Candidatus Entotheonella	93171	G	62	-62	0	0.00000
Nitrospina	35800	G	20	-6	14	0.00000
Coprothermobacter	68335	G	85	0	85	0.00003
Caldithrix	187144	G	32	-30	2	0.00000
Chrysiogenes	118004	G	12	-12	0	0.00000
Desulfurococcus	2273	G	1749	-1749	0	0.00000
Ignisphaera	334767	G	83	-83	0	0.00000
Aeropyrum	56635	G	72	-23	49	0.00002
Ignicoccus	54258	G	62	-62	0	0.00000
Sulfophobococcus	53425	G	45	-45	0	0.00000
Staphylothermus	2279	G	39	-17	22	0.00001
Pyrodictium	2308	G	10	-10	0	0.00000
Caldococcus	57173	G	15	-15	0	0.00000
Caldivirga	76886	G	1222	0	1222	0.00043
Thermoproteus	2270	G	31	-28	3	0.00000
Sulfolobus	2284	G	45	-45	0	0.00000
Acidianus	12914	G	32	-31	1	0.00000
Stygiolobus	41674	G	11	-11	0	0.00000
Caldisphaera	200414	G	10	-10	0	0.00000
Halorubrum	56688	G	14	-14	0	0.00000
Methanobacterium	2160	G	46	-46	0	0.00000
Methanobrevibacter	2172	G	18	0	18	0.00001
Thermococcus	2263	G	28	-28	0	0.00000
Palaeococcus	83867	G	23	-23	0	0.00000
Glycine	3846	G	14	-14	0	0.00000
