tax_id	abundance	species	genus	family	order	class	phylum	clade	superkingdom	subspecies	species subgroup	species group
1624	6.0439903395327406e-05	Lactobacillus salivarius	Lactobacillus	Lactobacillaceae	Lactobacillales	Bacilli	Firmicutes	Terrabacteria group	Bacteria			
197	3.679735168732326e-06	Campylobacter jejuni	Campylobacter	Campylobacteraceae	Campylobacterales	Epsilonproteobacteria	Proteobacteria		Bacteria			
1601	0.0012172841019965706	Lactobacillus agilis	Lactobacillus	Lactobacillaceae	Lactobacillales	Bacilli	Firmicutes	Terrabacteria group	Bacteria			
2506420	1.9572533044042853e-05	Weissella cryptocerci	Weissella	Leuconostocaceae	Lactobacillales	Bacilli	Firmicutes	Terrabacteria group	Bacteria			
69824	0.0007221203823451299	[Clostridium] cocleatum	Erysipelatoclostridium	Erysipelotrichaceae	Erysipelotrichales	Erysipelotrichia	Firmicutes	Terrabacteria group	Bacteria			
1622	3.159265093525455e-05	Lactobacillus murinus	Lactobacillus	Lactobacillaceae	Lactobacillales	Bacilli	Firmicutes	Terrabacteria group	Bacteria			
307126	3.2508164878455435e-06	Lactobacillus apodemi	Lactobacillus	Lactobacillaceae	Lactobacillales	Bacilli	Firmicutes	Terrabacteria group	Bacteria			
671266	0.02647221360555167	Enterorhabdus caecimuris	Enterorhabdus	Eggerthellaceae	Eggerthellales	Coriobacteriia	Actinobacteria	Terrabacteria group	Bacteria			
1796610	0.0001584643752747864	Adlercreutzia muris	Adlercreutzia	Eggerthellaceae	Eggerthellales	Coriobacteriia	Actinobacteria	Terrabacteria group	Bacteria			
446660	0.008411016200970595	Adlercreutzia equolifaciens	Adlercreutzia	Eggerthellaceae	Eggerthellales	Coriobacteriia	Actinobacteria	Terrabacteria group	Bacteria			
394340	6.227842863016956e-06	Asaccharobacter celatus	Asaccharobacter	Eggerthellaceae	Eggerthellales	Coriobacteriia	Actinobacteria	Terrabacteria group	Bacteria			
747645	0.0003857283360169162	Parvibacter caecicola	Parvibacter	Coriobacteriaceae	Coriobacteriales	Coriobacteriia	Actinobacteria	Terrabacteria group	Bacteria			
1531429	1.0187573495544066e-05	Coriobacteriaceae bacterium 68-1-3		Coriobacteriaceae	Coriobacteriales	Coriobacteriia	Actinobacteria	Terrabacteria group	Bacteria			
626934	4.408449654829e-06	Slackia piriformis	Slackia	Eggerthellaceae	Eggerthellales	Coriobacteriia	Actinobacteria	Terrabacteria group	Bacteria			
626935	0.0030816221095990312	Collinsella tanakaei	Collinsella	Coriobacteriaceae	Coriobacteriales	Coriobacteriia	Actinobacteria	Terrabacteria group	Bacteria			
33871	0.0072316019529730345	Coriobacterium glomerans	Coriobacterium	Coriobacteriaceae	Coriobacteriales	Coriobacteriia	Actinobacteria	Terrabacteria group	Bacteria			
147207	0.000519069265222024	Collinsella intestinalis	Collinsella	Coriobacteriaceae	Coriobacteriales	Coriobacteriia	Actinobacteria	Terrabacteria group	Bacteria			
1871016	7.060064079307199e-06	Collinsella phocaeensis	Collinsella	Coriobacteriaceae	Coriobacteriales	Coriobacteriia	Actinobacteria	Terrabacteria group	Bacteria			
147206	4.202338791738467e-06	Collinsella stercoris	Collinsella	Coriobacteriaceae	Coriobacteriales	Coriobacteriia	Actinobacteria	Terrabacteria group	Bacteria			
1473216	0.0008882460187240439	Senegalimassilia anaerobia	Senegalimassilia	Coriobacteriaceae	Coriobacteriales	Coriobacteriia	Actinobacteria	Terrabacteria group	Bacteria			
2003188	3.4307483139990998e-06	Parolsenella catena	Parolsenella	Atopobiaceae	Coriobacteriales	Coriobacteriia	Actinobacteria	Terrabacteria group	Bacteria			
1907654	6.824622480266807e-06	Collinsella bouchesdurhonensis	Collinsella	Coriobacteriaceae	Coriobacteriales	Coriobacteriia	Actinobacteria	Terrabacteria group	Bacteria			
79604	3.1238648626219705e-05	Denitrobacterium detoxificans	Denitrobacterium	Eggerthellaceae	Eggerthellales	Coriobacteriia	Actinobacteria	Terrabacteria group	Bacteria			
572010	8.014060814051945e-06	Slackia isoflavoniconvertens	Slackia	Eggerthellaceae	Eggerthellales	Coriobacteriia	Actinobacteria	Terrabacteria group	Bacteria			
2093857	4.396376808266864e-05	Dysosmobacter welbionis	Dysosmobacter	Oscillospiraceae	Clostridiales	Clostridia	Firmicutes	Terrabacteria group	Bacteria			
100176	0.014816459228635417	Papillibacter cinnamivorans	Papillibacter	Ruminococcaceae	Clostridiales	Clostridia	Firmicutes	Terrabacteria group	Bacteria			
1535	0.0004962585948005808	[Clostridium] leptum		Ruminococcaceae	Clostridiales	Clostridia	Firmicutes	Terrabacteria group	Bacteria			
1796620	3.3013641214424265e-06	Acutalibacter muris	Acutalibacter	Ruminococcaceae	Clostridiales	Clostridia	Firmicutes	Terrabacteria group	Bacteria			
84112	1.9306723688050595e-05	Eggerthella lenta	Eggerthella	Eggerthellaceae	Eggerthellales	Coriobacteriia	Actinobacteria	Terrabacteria group	Bacteria			
2109685	2.271144610485128e-05	Olsenella sp. GAM18	Olsenella	Atopobiaceae	Coriobacteriales	Coriobacteriia	Actinobacteria	Terrabacteria group	Bacteria			
502558	7.64260824009959e-06	Eggerthella sp. YY7918	Eggerthella	Eggerthellaceae	Eggerthellales	Coriobacteriia	Actinobacteria	Terrabacteria group	Bacteria			
230658	0.000118768879982626	Paraeggerthella hongkongensis	Paraeggerthella	Eggerthellaceae	Eggerthellales	Coriobacteriia	Actinobacteria	Terrabacteria group	Bacteria			
1351	0.0017168635781594811	Enterococcus faecalis	Enterococcus	Enterococcaceae	Lactobacillales	Bacilli	Firmicutes	Terrabacteria group	Bacteria			
53346	1.5426295693334545e-05	Enterococcus mundtii	Enterococcus	Enterococcaceae	Lactobacillales	Bacilli	Firmicutes	Terrabacteria group	Bacteria			
33945	6.42189554648788e-06	Enterococcus avium	Enterococcus	Enterococcaceae	Lactobacillales	Bacilli	Firmicutes	Terrabacteria group	Bacteria			
1354	1.4521287507215572e-05	Enterococcus hirae	Enterococcus	Enterococcaceae	Lactobacillales	Bacilli	Firmicutes	Terrabacteria group	Bacteria			
1352	0.002918440291826104	Enterococcus faecium	Enterococcus	Enterococcaceae	Lactobacillales	Bacilli	Firmicutes	Terrabacteria group	Bacteria			
492670	2.8502410044378154e-05	Bacillus velezensis	Bacillus	Bacillaceae	Bacillales	Bacilli	Firmicutes	Terrabacteria group	Bacteria		Bacillus amyloliquefaciens group	Bacillus subtilis group
1423	2.6548021530588483e-05	Bacillus subtilis	Bacillus	Bacillaceae	Bacillales	Bacilli	Firmicutes	Terrabacteria group	Bacteria			Bacillus subtilis group
53345	6.145947319670722e-06	Enterococcus durans	Enterococcus	Enterococcaceae	Lactobacillales	Bacilli	Firmicutes	Terrabacteria group	Bacteria			
155618	5.225545889938883e-06	Enterococcus haemoperoxidus	Enterococcus	Enterococcaceae	Lactobacillales	Bacilli	Firmicutes	Terrabacteria group	Bacteria			
37734	1.1022163195233859e-05	Enterococcus casseliflavus	Enterococcus	Enterococcaceae	Lactobacillales	Bacilli	Firmicutes	Terrabacteria group	Bacteria			
44009	3.3605498891920023e-06	Enterococcus dispar	Enterococcus	Enterococcaceae	Lactobacillales	Bacilli	Firmicutes	Terrabacteria group	Bacteria			
71451	9.830153611177588e-06	Enterococcus malodoratus	Enterococcus	Enterococcaceae	Lactobacillales	Bacilli	Firmicutes	Terrabacteria group	Bacteria			
214095	4.840636555651905e-06	Enterococcus canis	Enterococcus	Enterococcaceae	Lactobacillales	Bacilli	Firmicutes	Terrabacteria group	Bacteria			
1356	3.6895898194272157e-06	Enterococcus sulfureus	Enterococcus	Enterococcaceae	Lactobacillales	Bacilli	Firmicutes	Terrabacteria group	Bacteria			
28038	2.6730032742861008e-05	Lactobacillus curvatus	Lactobacillus	Lactobacillaceae	Lactobacillales	Bacilli	Firmicutes	Terrabacteria group	Bacteria			
1599	0.00017334365665467327	Lactobacillus sakei	Lactobacillus	Lactobacillaceae	Lactobacillales	Bacilli	Firmicutes	Terrabacteria group	Bacteria			
147709	1.0436172066307296e-05	Carnobacterium inhibens	Carnobacterium	Carnobacteriaceae	Lactobacillales	Bacilli	Firmicutes	Terrabacteria group	Bacteria			
2751	1.0711906479099427e-05	Carnobacterium maltaromaticum	Carnobacterium	Carnobacteriaceae	Lactobacillales	Bacilli	Firmicutes	Terrabacteria group	Bacteria			
137733	0.00011236819880641793	Granulicatella balaenopterae	Granulicatella	Carnobacteriaceae	Lactobacillales	Bacilli	Firmicutes	Terrabacteria group	Bacteria			
2748	0.0005141152216578571	Carnobacterium divergens	Carnobacterium	Carnobacteriaceae	Lactobacillales	Bacilli	Firmicutes	Terrabacteria group	Bacteria			
142588	2.7704644644138798e-05	Isobaculum melis	Isobaculum	Carnobacteriaceae	Lactobacillales	Bacilli	Firmicutes	Terrabacteria group	Bacteria			
1280	5.0483061281273964e-05	Staphylococcus aureus	Staphylococcus	Staphylococcaceae	Bacillales	Bacilli	Firmicutes	Terrabacteria group	Bacteria			
81947	3.941415194503048e-06	Vagococcus lutrae	Vagococcus	Enterococcaceae	Lactobacillales	Bacilli	Firmicutes	Terrabacteria group	Bacteria			
82801	5.928592314420164e-06	Desemzia incerta	Desemzia	Carnobacteriaceae	Lactobacillales	Bacilli	Firmicutes	Terrabacteria group	Bacteria			
140314	8.276353465633593e-06	Trichococcus palustris	Trichococcus	Carnobacteriaceae	Lactobacillales	Bacilli	Firmicutes	Terrabacteria group	Bacteria			
1281486	5.852203291155697e-06	Lactococcus formosensis	Lactococcus	Streptococcaceae	Lactobacillales	Bacilli	Firmicutes	Terrabacteria group	Bacteria			
375175	2.9488297763787005e-05	Lactobacillus backii	Lactobacillus	Lactobacillaceae	Lactobacillales	Bacilli	Firmicutes	Terrabacteria group	Bacteria			
1584	0.0008409962242860938	Lactobacillus delbrueckii	Lactobacillus	Lactobacillaceae	Lactobacillales	Bacilli	Firmicutes	Terrabacteria group	Bacteria			
1358	0.0004496501602681677	Lactococcus lactis	Lactococcus	Streptococcaceae	Lactobacillales	Bacilli	Firmicutes	Terrabacteria group	Bacteria			
1314	2.8176887947070028e-05	Streptococcus pyogenes	Streptococcus	Streptococcaceae	Lactobacillales	Bacilli	Firmicutes	Terrabacteria group	Bacteria			
1311	1.2326560609238704e-05	Streptococcus agalactiae	Streptococcus	Streptococcaceae	Lactobacillales	Bacilli	Firmicutes	Terrabacteria group	Bacteria			
872327	2.060218619937078e-05	Lactobacillus pasteurii	Lactobacillus	Lactobacillaceae	Lactobacillales	Bacilli	Firmicutes	Terrabacteria group	Bacteria			
1334	9.594462605177172e-06	Streptococcus dysgalactiae	Streptococcus	Streptococcaceae	Lactobacillales	Bacilli	Firmicutes	Terrabacteria group	Bacteria			Streptococcus dysgalactiae group
1587	0.13837193707882206	Lactobacillus helveticus	Lactobacillus	Lactobacillaceae	Lactobacillales	Bacilli	Firmicutes	Terrabacteria group	Bacteria			
1308	3.850456515552377e-06	Streptococcus thermophilus	Streptococcus	Streptococcaceae	Lactobacillales	Bacilli	Firmicutes	Terrabacteria group	Bacteria			
1307	9.532174280685223e-06	Streptococcus suis	Streptococcus	Streptococcaceae	Lactobacillales	Bacilli	Firmicutes	Terrabacteria group	Bacteria			
1304	3.926732973507214e-06	Streptococcus salivarius	Streptococcus	Streptococcaceae	Lactobacillales	Bacilli	Firmicutes	Terrabacteria group	Bacteria			
1305	5.406183780214758e-06	Streptococcus sanguinis	Streptococcus	Streptococcaceae	Lactobacillales	Bacilli	Firmicutes	Terrabacteria group	Bacteria			
1604	2.303346361323468e-05	Lactobacillus amylovorus	Lactobacillus	Lactobacillaceae	Lactobacillales	Bacilli	Firmicutes	Terrabacteria group	Bacteria			
1313	7.459534012790914e-05	Streptococcus pneumoniae	Streptococcus	Streptococcaceae	Lactobacillales	Bacilli	Firmicutes	Terrabacteria group	Bacteria			
1218492	1.0067069374087733e-05	Lactobacillus mellifer	Lactobacillus	Lactobacillaceae	Lactobacillales	Bacilli	Firmicutes	Terrabacteria group	Bacteria			
679249	7.200649746066114e-06	Lactobacillus floricola	Lactobacillus	Lactobacillaceae	Lactobacillales	Bacilli	Firmicutes	Terrabacteria group	Bacteria			
51664	6.687856008640258e-06	Lactobacillus dextrinicus	Lactobacillus	Lactobacillaceae	Lactobacillales	Bacilli	Firmicutes	Terrabacteria group	Bacteria			
481723	0.0005297941817144877	Lactobacillus rapi	Lactobacillus	Lactobacillaceae	Lactobacillales	Bacilli	Firmicutes	Terrabacteria group	Bacteria			
1580	2.77481953278287e-05	Lactobacillus brevis	Lactobacillus	Lactobacillaceae	Lactobacillales	Bacilli	Firmicutes	Terrabacteria group	Bacteria			
1138822	2.096057664855421e-05	Lactobacillus curieae	Lactobacillus	Lactobacillaceae	Lactobacillales	Bacilli	Firmicutes	Terrabacteria group	Bacteria			
528209	5.9145180063366754e-06	Lactobacillus kimchicus	Lactobacillus	Lactobacillaceae	Lactobacillales	Bacilli	Firmicutes	Terrabacteria group	Bacteria			
82688	7.025610731726228e-06	Liquorilactobacillus nagelii	Liquorilactobacillus	Lactobacillaceae	Lactobacillales	Bacilli	Firmicutes	Terrabacteria group	Bacteria			
164393	0.0006105302940019787	Lactobacillus fuchuensis	Lactobacillus	Lactobacillaceae	Lactobacillales	Bacilli	Firmicutes	Terrabacteria group	Bacteria			
88233	3.855373118396712e-06	Lactobacillus manihotivorans	Lactobacillus	Lactobacillaceae	Lactobacillales	Bacilli	Firmicutes	Terrabacteria group	Bacteria			
468911	0.0013085122457739773	Lactobacillus hordei	Liquorilactobacillus	Lactobacillaceae	Lactobacillales	Bacilli	Firmicutes	Terrabacteria group	Bacteria			
1618	1.3847601128113437e-05	Lactobacillus mali	Liquorilactobacillus	Lactobacillaceae	Lactobacillales	Bacilli	Firmicutes	Terrabacteria group	Bacteria			
240427	2.008199562264141e-05	Lactobacillus paracollinoides	Lactobacillus	Lactobacillaceae	Lactobacillales	Bacilli	Firmicutes	Terrabacteria group	Bacteria			
165096	7.012628569911941e-06	Weissella koreensis	Weissella	Leuconostocaceae	Lactobacillales	Bacilli	Firmicutes	Terrabacteria group	Bacteria			
759620	5.968694265528765e-06	Weissella ceti	Weissella	Leuconostocaceae	Lactobacillales	Bacilli	Firmicutes	Terrabacteria group	Bacteria			
1590	0.0003604370029518686	Lactiplantibacillus plantarum	Lactiplantibacillus	Lactobacillaceae	Lactobacillales	Bacilli	Firmicutes	Terrabacteria group	Bacteria			
515351	3.545185958811459e-06	Lacticigenium naphtae	Lacticigenium	Carnobacteriaceae	Lactobacillales	Bacilli	Firmicutes	Terrabacteria group	Bacteria			
64642	5.0853614784961045e-06	Tetragenococcus muriaticus	Tetragenococcus	Enterococcaceae	Lactobacillales	Bacilli	Firmicutes	Terrabacteria group	Bacteria			
2058136	4.14372431345339e-06	Planococcus sp. MB-3u-03	Planococcus	Planococcaceae	Bacillales	Bacilli	Firmicutes	Terrabacteria group	Bacteria			
1639	1.745180475666249e-05	Listeria monocytogenes	Listeria	Listeriaceae	Bacillales	Bacilli	Firmicutes	Terrabacteria group	Bacteria			
414682	5.919366187400864e-06	Lactobacillus similis	Lactobacillus	Lactobacillaceae	Lactobacillales	Bacilli	Firmicutes	Terrabacteria group	Bacteria			
152335	5.7583340318085724e-06	Lactobacillus suebicus	Lactobacillus	Lactobacillaceae	Lactobacillales	Bacilli	Firmicutes	Terrabacteria group	Bacteria			
303241	0.001187749047023269	Lactobacillus oeni	Liquorilactobacillus	Lactobacillaceae	Lactobacillales	Bacilli	Firmicutes	Terrabacteria group	Bacteria			
1613	0.0018952983533230576	Limosilactobacillus fermentum	Limosilactobacillus	Lactobacillaceae	Lactobacillales	Bacilli	Firmicutes	Terrabacteria group	Bacteria			
1329	7.346773838631855e-06	Streptococcus canis	Streptococcus	Streptococcaceae	Lactobacillales	Bacilli	Firmicutes	Terrabacteria group	Bacteria			
1428	3.0019984936878345e-05	Bacillus thuringiensis	Bacillus	Bacillaceae	Bacillales	Bacilli	Firmicutes	Terrabacteria group	Bacteria			Bacillus cereus group
1398	6.669559778544105e-06	Bacillus coagulans	Bacillus	Bacillaceae	Bacillales	Bacilli	Firmicutes	Terrabacteria group	Bacteria			
287844	0.00041557956306674006	Lactobacillus concavus	Lactobacillus	Lactobacillaceae	Lactobacillales	Bacilli	Firmicutes	Terrabacteria group	Bacteria			
29394	1.5204980082561165e-05	Dolosigranulum pigrum	Dolosigranulum	Carnobacteriaceae	Lactobacillales	Bacilli	Firmicutes	Terrabacteria group	Bacteria			
33959	0.0018940311703684177	Lactobacillus johnsonii	Lactobacillus	Lactobacillaceae	Lactobacillales	Bacilli	Firmicutes	Terrabacteria group	Bacteria			
1303590	1.821266613763599e-05	Lactobacillus bombi	Lactobacillus	Lactobacillaceae	Lactobacillales	Bacilli	Firmicutes	Terrabacteria group	Bacteria			
171523	2.24561691906204e-05	Lactobacillus pantheris	Lactobacillus	Lactobacillaceae	Lactobacillales	Bacilli	Firmicutes	Terrabacteria group	Bacteria			
1610	0.014039424260337677	Lactobacillus coryniformis	Lactobacillus	Lactobacillaceae	Lactobacillales	Bacilli	Firmicutes	Terrabacteria group	Bacteria			
1606	5.462938360510453e-06	Lactobacillus aviarius	Lactobacillus	Lactobacillaceae	Lactobacillales	Bacilli	Firmicutes	Terrabacteria group	Bacteria			
1246	9.222810110276983e-06	Leuconostoc lactis	Leuconostoc	Leuconostocaceae	Lactobacillales	Bacilli	Firmicutes	Terrabacteria group	Bacteria			
1396	3.2747487416438154e-05	Bacillus cereus	Bacillus	Bacillaceae	Bacillales	Bacilli	Firmicutes	Terrabacteria group	Bacteria			Bacillus cereus group
1392	1.6489397755549042e-05	Bacillus anthracis	Bacillus	Bacillaceae	Bacillales	Bacilli	Firmicutes	Terrabacteria group	Bacteria			Bacillus cereus group
137732	6.59036744350171e-05	Granulicatella elegans	Granulicatella	Carnobacteriaceae	Lactobacillales	Bacilli	Firmicutes	Terrabacteria group	Bacteria			
431273	3.2439067855237767e-06	Lactobacillus senmaizukei	Lactobacillus	Lactobacillaceae	Lactobacillales	Bacilli	Firmicutes	Terrabacteria group	Bacteria			
480930	1.0038914563430617e-05	Lactobacillus odoratitofui	Lactobacillus	Lactobacillaceae	Lactobacillales	Bacilli	Firmicutes	Terrabacteria group	Bacteria			
1714681	1.959351932890536e-05	Lactobacillus silagincola	Lactobacillus	Lactobacillaceae	Lactobacillales	Bacilli	Firmicutes	Terrabacteria group	Bacteria			
1714682	0.006587756886330997	Lactobacillus pentosiphilus	Lactobacillus	Lactobacillaceae	Lactobacillales	Bacilli	Firmicutes	Terrabacteria group	Bacteria			
1588	0.0005899340381348063	Lactobacillus hilgardii	Lactobacillus	Lactobacillaceae	Lactobacillales	Bacilli	Firmicutes	Terrabacteria group	Bacteria			
1581	9.934699264391147e-05	Lactobacillus buchneri	Lactobacillus	Lactobacillaceae	Lactobacillales	Bacilli	Firmicutes	Terrabacteria group	Bacteria			
33962	1.2701688422470974e-05	Lactobacillus kefiri	Lactobacillus	Lactobacillaceae	Lactobacillales	Bacilli	Firmicutes	Terrabacteria group	Bacteria			
481720	6.302955757667963e-06	Lactobacillus otakiensis	Lactobacillus	Lactobacillaceae	Lactobacillales	Bacilli	Firmicutes	Terrabacteria group	Bacteria			
187452	4.598747749420409e-06	Pediococcus claussenii	Pediococcus	Lactobacillaceae	Lactobacillales	Bacilli	Firmicutes	Terrabacteria group	Bacteria			
1255	1.914703679115305e-05	Pediococcus pentosaceus	Pediococcus	Lactobacillaceae	Lactobacillales	Bacilli	Firmicutes	Terrabacteria group	Bacteria			
51663	2.2739832406225946e-05	Pediococcus damnosus	Pediococcus	Lactobacillaceae	Lactobacillales	Bacilli	Firmicutes	Terrabacteria group	Bacteria			
267363	4.265131681659967e-06	Lactobacillus zymae	Lactobacillus	Lactobacillaceae	Lactobacillales	Bacilli	Firmicutes	Terrabacteria group	Bacteria			
1582	0.0009569193169157021	Lactobacillus casei	Lactobacillus	Lactobacillaceae	Lactobacillales	Bacilli	Firmicutes	Terrabacteria group	Bacteria			Lactobacillus casei group
35825	0.0012900677990225424	Pseudobacteroides cellulosolvens	Pseudobacteroides	Hungateiclostridiaceae	Clostridiales	Clostridia	Firmicutes	Terrabacteria group	Bacteria			
35830	0.0019420543186852272	Hungateiclostridium cellulolyticum	Hungateiclostridium	Hungateiclostridiaceae	Clostridiales	Clostridia	Firmicutes	Terrabacteria group	Bacteria			
255247	5.0772565974574805e-06	Fictibacillus arsenicus	Fictibacillus	Bacillaceae	Bacillales	Bacilli	Firmicutes	Terrabacteria group	Bacteria			
46125	0.0004714913590441246	Abiotrophia defectiva	Abiotrophia	Aerococcaceae	Lactobacillales	Bacilli	Firmicutes	Terrabacteria group	Bacteria			
151781	1.0554342364762102e-05	Lactobacillus intestinalis	Lactobacillus	Lactobacillaceae	Lactobacillales	Bacilli	Firmicutes	Terrabacteria group	Bacteria			
83683	1.5024514977309911e-05	Lactobacillus amylolyticus	Lactobacillus	Lactobacillaceae	Lactobacillales	Bacilli	Firmicutes	Terrabacteria group	Bacteria			
1363	7.174693991104661e-06	Lactococcus garvieae	Lactococcus	Streptococcaceae	Lactobacillales	Bacilli	Firmicutes	Terrabacteria group	Bacteria			
47770	0.00010266490378862931	Lactobacillus crispatus	Lactobacillus	Lactobacillaceae	Lactobacillales	Bacilli	Firmicutes	Terrabacteria group	Bacteria			
52242	0.0001605301277888178	Lactobacillus gallinarum	Lactobacillus	Lactobacillaceae	Lactobacillales	Bacilli	Firmicutes	Terrabacteria group	Bacteria			
227945	9.804337691375996e-06	Lactobacillus ultunensis	Lactobacillus	Lactobacillaceae	Lactobacillales	Bacilli	Firmicutes	Terrabacteria group	Bacteria			
1579	0.00010105739055473877	Lactobacillus acidophilus	Lactobacillus	Lactobacillaceae	Lactobacillales	Bacilli	Firmicutes	Terrabacteria group	Bacteria			
237446	7.764555877880808e-06	Lactobacillus kitasatonis	Lactobacillus	Lactobacillaceae	Lactobacillales	Bacilli	Firmicutes	Terrabacteria group	Bacteria			
227944	2.5286904879710236e-05	Lactobacillus kalixensis	Lactobacillus	Lactobacillaceae	Lactobacillales	Bacilli	Firmicutes	Terrabacteria group	Bacteria			
2107999	3.467512778791758e-06	Lactobacillus paragasseri	Lactobacillus	Lactobacillaceae	Lactobacillales	Bacilli	Firmicutes	Terrabacteria group	Bacteria			
96565	2.224157952516157e-05	Lactobacillus hamsteri	Lactobacillus	Lactobacillaceae	Lactobacillales	Bacilli	Firmicutes	Terrabacteria group	Bacteria			
267818	0.0654244642163108	Lactobacillus kefiranofaciens	Lactobacillus	Lactobacillaceae	Lactobacillales	Bacilli	Firmicutes	Terrabacteria group	Bacteria			
46256	8.32299025665352e-06	Weissella hellenica	Weissella	Leuconostocaceae	Lactobacillales	Bacilli	Firmicutes	Terrabacteria group	Bacteria			
76853	6.264333277470087e-06	Solibacillus silvestris	Solibacillus	Planococcaceae	Bacillales	Bacilli	Firmicutes	Terrabacteria group	Bacteria			
179838	3.7907256013312343e-06	Lactobacillus diolivorans	Lactobacillus	Lactobacillaceae	Lactobacillales	Bacilli	Firmicutes	Terrabacteria group	Bacteria			
83526	3.3906701739318367e-06	Lactobacillus paralimentarius	Lactobacillus	Lactobacillaceae	Lactobacillales	Bacilli	Firmicutes	Terrabacteria group	Bacteria			
392416	4.011141806828529e-05	Lactobacillus crustorum	Lactobacillus	Lactobacillaceae	Lactobacillales	Bacilli	Firmicutes	Terrabacteria group	Bacteria			
1598	7.91038007552577e-05	Lactobacillus reuteri	Lactobacillus	Lactobacillaceae	Lactobacillales	Bacilli	Firmicutes	Terrabacteria group	Bacteria			
258723	1.0457598295846974e-05	Marinilactibacillus piezotolerans	Marinilactibacillus	Carnobacteriaceae	Lactobacillales	Bacilli	Firmicutes	Terrabacteria group	Bacteria			
87541	3.888903165492489e-06	Aerococcus christensenii	Aerococcus	Aerococcaceae	Lactobacillales	Bacilli	Firmicutes	Terrabacteria group	Bacteria			
293387	5.137790111203338e-06	Bacillus altitudinis	Bacillus	Bacillaceae	Bacillales	Bacilli	Firmicutes	Terrabacteria group	Bacteria			Bacillus altitudinis complex
116089	9.83940674669049e-05	Lactobacillus psittaci	Lactobacillus	Lactobacillaceae	Lactobacillales	Bacilli	Firmicutes	Terrabacteria group	Bacteria			
1819254	2.481590127855724e-05	Lactobacillus colini	Lactobacillus	Lactobacillaceae	Lactobacillales	Bacilli	Firmicutes	Terrabacteria group	Bacteria			
88164	0.004045762720745868	Lactobacillus fornicalis	Lactobacillus	Lactobacillaceae	Lactobacillales	Bacilli	Firmicutes	Terrabacteria group	Bacteria			
1603	0.0006463892246722911	Lactobacillus amylophilus	Lactobacillus	Lactobacillaceae	Lactobacillales	Bacilli	Firmicutes	Terrabacteria group	Bacteria			
1184688	6.361298895012799e-06	Paenibacillus taohuashanense	Paenibacillus	Paenibacillaceae	Bacillales	Bacilli	Firmicutes	Terrabacteria group	Bacteria			
97478	2.600493075819717e-05	Lactobacillus mucosae	Lactobacillus	Lactobacillaceae	Lactobacillales	Bacilli	Firmicutes	Terrabacteria group	Bacteria			
1597	0.0017359754060197136	Lactobacillus paracasei	Lactobacillus	Lactobacillaceae	Lactobacillales	Bacilli	Firmicutes	Terrabacteria group	Bacteria			Lactobacillus casei group
1296539	2.906782998720882e-06	Lactobacillus songhuajiangensis	Lactobacillus	Lactobacillaceae	Lactobacillales	Bacilli	Firmicutes	Terrabacteria group	Bacteria			
82803	7.159144648538817e-06	Trichococcus flocculiformis	Trichococcus	Carnobacteriaceae	Lactobacillales	Bacilli	Firmicutes	Terrabacteria group	Bacteria			
1406	2.237761327629406e-05	Paenibacillus polymyxa	Paenibacillus	Paenibacillaceae	Bacillales	Bacilli	Firmicutes	Terrabacteria group	Bacteria			
1607	7.438629861353612e-06	Lactobacillus bifermentans	Lactobacillus	Lactobacillaceae	Lactobacillales	Bacilli	Firmicutes	Terrabacteria group	Bacteria			
180311	0.060549147055395026	Hespellia stercorisuis	Hespellia	Lachnospiraceae	Clostridiales	Clostridia	Firmicutes	Terrabacteria group	Bacteria			
180286	0.00011724686526760566	Hespellia porcina	Hespellia	Lachnospiraceae	Clostridiales	Clostridia	Firmicutes	Terrabacteria group	Bacteria			
100133	4.5513269264013365e-06	Sporobacterium olearium	Sporobacterium	Lachnospiraceae	Clostridiales	Clostridia	Firmicutes	Terrabacteria group	Bacteria			
1229621	5.117309156940947e-06	Anaerostipes rhamnosivorans	Anaerostipes	Lachnospiraceae	Clostridiales	Clostridia	Firmicutes	Terrabacteria group	Bacteria			
649756	4.341294455428927e-05	Anaerostipes hadrus	Anaerostipes	Lachnospiraceae	Clostridiales	Clostridia	Firmicutes	Terrabacteria group	Bacteria			
1491	2.7121531496598438e-05	Clostridium botulinum	Clostridium	Clostridiaceae	Clostridiales	Clostridia	Firmicutes	Terrabacteria group	Bacteria			
947835	2.876149765715769e-05	Lactobacillus rodentium	Lactobacillus	Lactobacillaceae	Lactobacillales	Bacilli	Firmicutes	Terrabacteria group	Bacteria			
390841	8.348760163960895e-05	Lactobacillus farraginis	Lactobacillus	Lactobacillaceae	Lactobacillales	Bacilli	Firmicutes	Terrabacteria group	Bacteria			
1392876	1.1083142462457157e-05	Ornithinibacillus heyuanensis	Ornithinibacillus	Bacillaceae	Bacillales	Bacilli	Firmicutes	Terrabacteria group	Bacteria			
9	0.0002664663735511017	Buchnera aphidicola	Buchnera	Erwiniaceae	Enterobacterales	Gammaproteobacteria	Proteobacteria		Bacteria			
1600	2.3004731155404442e-05	Lactobacillus acetotolerans	Lactobacillus	Lactobacillaceae	Lactobacillales	Bacilli	Firmicutes	Terrabacteria group	Bacteria			
2507935	1.1997465947540068e-05	Cohnella abietis	Cohnella	Paenibacillaceae	Bacillales	Bacilli	Firmicutes	Terrabacteria group	Bacteria			
47715	0.0027359740180010667	Lactobacillus rhamnosus	Lactobacillus	Lactobacillaceae	Lactobacillales	Bacilli	Firmicutes	Terrabacteria group	Bacteria			
1736	1.8866413773108874e-05	Eubacterium limosum	Eubacterium	Eubacteriaceae	Clostridiales	Clostridia	Firmicutes	Terrabacteria group	Bacteria			
2320868	1.0337920994946012e-05	Clostridium sp. CT4	Clostridium	Clostridiaceae	Clostridiales	Clostridia	Firmicutes	Terrabacteria group	Bacteria			
288966	0.0007786139677311518	Lutispora thermophila	Lutispora	Clostridiaceae	Clostridiales	Clostridia	Firmicutes	Terrabacteria group	Bacteria			
489973	6.934624410746221e-06	Anoxynatronum buryatiense	Anoxynatronum	Clostridiaceae	Clostridiales	Clostridia	Firmicutes	Terrabacteria group	Bacteria			
1720083	4.669895405992794e-06	Acetilactobacillus jinshanensis	Acetilactobacillus	Lactobacillaceae	Lactobacillales	Bacilli	Firmicutes	Terrabacteria group	Bacteria			
1796619	5.605189845784877e-06	Irregularibacter muris	Irregularibacter	Eubacteriaceae	Clostridiales	Clostridia	Firmicutes	Terrabacteria group	Bacteria			
2599308	1.9129331635081358e-05	Crassaminicella sp. SY095	Crassaminicella	Clostridiaceae	Clostridiales	Clostridia	Firmicutes	Terrabacteria group	Bacteria			
1424294	1.0646104032976655e-05	Geosporobacter ferrireducens	Geosporobacter	Clostridiaceae	Clostridiales	Clostridia	Firmicutes	Terrabacteria group	Bacteria			
29346	1.6316818519562907e-05	[Clostridium] paradoxum		Peptostreptococcaceae	Clostridiales	Clostridia	Firmicutes	Terrabacteria group	Bacteria			
931533	3.4345986595301435e-06	Lactobacillus saniviri	Lactobacillus	Lactobacillaceae	Lactobacillales	Bacilli	Firmicutes	Terrabacteria group	Bacteria			
624147	6.710660714567903e-06	Paenibacillus tianmuensis	Paenibacillus	Paenibacillaceae	Bacillales	Bacilli	Firmicutes	Terrabacteria group	Bacteria			
197614	2.4852025359634005e-05	Streptococcus pasteurianus	Streptococcus	Streptococcaceae	Lactobacillales	Bacilli	Firmicutes	Terrabacteria group	Bacteria			
319644	9.265369706959959e-06	Saccharofermentans acetigenes	Saccharofermentans	Hungateiclostridiaceae	Clostridiales	Clostridia	Firmicutes	Terrabacteria group	Bacteria			
1218493	1.3329575238322542e-05	Lactobacillus kullabergensis	Lactobacillus	Lactobacillaceae	Lactobacillales	Bacilli	Firmicutes	Terrabacteria group	Bacteria			
1218494	3.459457079260094e-06	Lactobacillus helsingborgensis	Lactobacillus	Lactobacillaceae	Lactobacillales	Bacilli	Firmicutes	Terrabacteria group	Bacteria			
216816	5.998980726330868e-06	Bifidobacterium longum	Bifidobacterium	Bifidobacteriaceae	Bifidobacteriales	Actinobacteria	Actinobacteria	Terrabacteria group	Bacteria			
1293415	1.6795445375787703e-05	Lactobacillus silagei	Lactobacillus	Lactobacillaceae	Lactobacillales	Bacilli	Firmicutes	Terrabacteria group	Bacteria			
1435342	2.3412825290670647e-05	Lactobacillus mixtipabuli	Lactobacillus	Lactobacillaceae	Lactobacillales	Bacilli	Firmicutes	Terrabacteria group	Bacteria			
626937	8.899253905747719e-06	Christensenella minuta	Christensenella	Christensenellaceae	Clostridiales	Clostridia	Firmicutes	Terrabacteria group	Bacteria			
53442	1.499010195628696e-05	Eubacterium callanderi	Eubacterium	Eubacteriaceae	Clostridiales	Clostridia	Firmicutes	Terrabacteria group	Bacteria			
2320858	4.782076894547552e-06	Paenisporosarcina sp. K2R23-3	Paenisporosarcina	Planococcaceae	Bacillales	Bacilli	Firmicutes	Terrabacteria group	Bacteria			
29348	0.00019790787472980778	[Clostridium] spiroforme	Erysipelatoclostridium	Erysipelotrichaceae	Erysipelotrichales	Erysipelotrichia	Firmicutes	Terrabacteria group	Bacteria			
1130080	8.857153027974297e-06	Alkalibacterium gilvum	Alkalibacterium	Carnobacteriaceae	Lactobacillales	Bacilli	Firmicutes	Terrabacteria group	Bacteria			
1704076	6.2154840574001995e-06	Lactobacillus cerevisiae	Lactobacillus	Lactobacillaceae	Lactobacillales	Bacilli	Firmicutes	Terrabacteria group	Bacteria			
53444	6.1443525663751256e-06	Lactobacillus lindneri	Lactobacillus	Lactobacillaceae	Lactobacillales	Bacilli	Firmicutes	Terrabacteria group	Bacteria			
1520	8.16982977493839e-06	Clostridium beijerinckii	Clostridium	Clostridiaceae	Clostridiales	Clostridia	Firmicutes	Terrabacteria group	Bacteria			
89059	0.00032249980511940584	Lactobacillus acidipiscis	Lactobacillus	Lactobacillaceae	Lactobacillales	Bacilli	Firmicutes	Terrabacteria group	Bacteria			
1633	4.831814628416298e-06	Lactobacillus vaginalis	Lactobacillus	Lactobacillaceae	Lactobacillales	Bacilli	Firmicutes	Terrabacteria group	Bacteria			
176292	8.078490755587313e-06	Lactobacillus malefermentans	Lactobacillus	Lactobacillaceae	Lactobacillales	Bacilli	Firmicutes	Terrabacteria group	Bacteria			
288965	0.0026517410988985287	Hungateiclostridium clariflavum	Hungateiclostridium	Hungateiclostridiaceae	Clostridiales	Clostridia	Firmicutes	Terrabacteria group	Bacteria			
2358141	1.1312640635535297e-05	Anaerotignum faecicola	Anaerotignum	Lachnospiraceae	Clostridiales	Clostridia	Firmicutes	Terrabacteria group	Bacteria			
160404	0.03256964251643939	Anaerotignum lactatifermentans	Anaerotignum	Lachnospiraceae	Clostridiales	Clostridia	Firmicutes	Terrabacteria group	Bacteria			
351091	0.0026386074927571383	Oscillibacter valericigenes	Oscillibacter	Oscillospiraceae	Clostridiales	Clostridia	Firmicutes	Terrabacteria group	Bacteria			
1263547	0.0007497934931795846	Oscillibacter ruminantium	Oscillibacter	Oscillospiraceae	Clostridiales	Clostridia	Firmicutes	Terrabacteria group	Bacteria			
1203033	4.593489737302638e-06	Lactobacillus hominis	Lactobacillus	Lactobacillaceae	Lactobacillales	Bacilli	Firmicutes	Terrabacteria group	Bacteria			
36835	8.882238664031693e-06	[Clostridium] colinum	Tyzzerella	Lachnospiraceae	Clostridiales	Clostridia	Firmicutes	Terrabacteria group	Bacteria			
303541	1.1033727344486082e-05	Lactobacillus apis	Lactobacillus	Lactobacillaceae	Lactobacillales	Bacilli	Firmicutes	Terrabacteria group	Bacteria			
1515	5.212240664074872e-05	Hungateiclostridium thermocellum	Hungateiclostridium	Hungateiclostridiaceae	Clostridiales	Clostridia	Firmicutes	Terrabacteria group	Bacteria			
293371	5.198144435486204e-06	Lactobacillus oligofermentans	Lactobacillus	Lactobacillaceae	Lactobacillales	Bacilli	Firmicutes	Terrabacteria group	Bacteria			
1296540	4.356740530308094e-06	Lactobacillus nenjiangensis	Lactobacillus	Lactobacillaceae	Lactobacillales	Bacilli	Firmicutes	Terrabacteria group	Bacteria			
33960	2.6027437710572376e-06	Lactobacillus collinoides	Lactobacillus	Lactobacillaceae	Lactobacillales	Bacilli	Firmicutes	Terrabacteria group	Bacteria			
148604	0.00015794015684779386	Lactobacillus ingluviei	Lactobacillus	Lactobacillaceae	Lactobacillales	Bacilli	Firmicutes	Terrabacteria group	Bacteria			
82374	0.0009304971025261583	Anaerovibrio lipolyticus	Anaerovibrio	Selenomonadaceae	Selenomonadales	Negativicutes	Firmicutes	Terrabacteria group	Bacteria			
1502	8.201454682566893e-06	Clostridium perfringens	Clostridium	Clostridiaceae	Clostridiales	Clostridia	Firmicutes	Terrabacteria group	Bacteria			
1561	0.0008839591586555221	Clostridium baratii	Clostridium	Clostridiaceae	Clostridiales	Clostridia	Firmicutes	Terrabacteria group	Bacteria			
1796636	5.235043042639775e-06	Frisingicoccus caecimuris	Frisingicoccus	Lachnospiraceae	Clostridiales	Clostridia	Firmicutes	Terrabacteria group	Bacteria			
562	0.00011139445997953182	Escherichia coli	Escherichia	Enterobacteriaceae	Enterobacterales	Gammaproteobacteria	Proteobacteria		Bacteria			
461876	1.0504879485501248e-05	Alkaliphilus oremlandii	Alkaliphilus	Clostridiaceae	Clostridiales	Clostridia	Firmicutes	Terrabacteria group	Bacteria			
1495039	0.00043772215693440046	Mesoaciditoga lauensis	Mesoaciditoga	Mesoaciditogaceae	Mesoaciditogales	Thermotogae	Thermotogae		Bacteria			
214853	0.00036039388904345255	Anaerofustis stercorihominis	Anaerofustis	Eubacteriaceae	Clostridiales	Clostridia	Firmicutes	Terrabacteria group	Bacteria			
65403	0.0014647314225715395	Acidaminobacter hydrogenoformans	Acidaminobacter	Clostridiales Family XII. Incertae Sedis	Clostridiales	Clostridia	Firmicutes	Terrabacteria group	Bacteria			
990412	3.1640077370163974e-06	Lactobacillus alvi	Lactobacillus	Lactobacillaceae	Lactobacillales	Bacilli	Firmicutes	Terrabacteria group	Bacteria			
866801	7.030124652308727e-06	Lactobacillus ozensis	Lactobacillus	Lactobacillaceae	Lactobacillales	Bacilli	Firmicutes	Terrabacteria group	Bacteria			
381742	4.803606669205813e-06	Lactobacillus camelliae	Lactobacillus	Lactobacillaceae	Lactobacillales	Bacilli	Firmicutes	Terrabacteria group	Bacteria			
36847	8.02638838163547e-05	Anaerotignum neopropionicum	Anaerotignum	Lachnospiraceae	Clostridiales	Clostridia	Firmicutes	Terrabacteria group	Bacteria			
181675	4.077138707745347e-06	Lactobacillus coleohominis	Lactobacillus	Lactobacillaceae	Lactobacillales	Bacilli	Firmicutes	Terrabacteria group	Bacteria			
33038	0.002591709775071189	[Ruminococcus] gnavus	Mediterraneibacter	Lachnospiraceae	Clostridiales	Clostridia	Firmicutes	Terrabacteria group	Bacteria			
712991	3.450949138857261e-06	Lachnospiraceae bacterium oral taxon 500		Lachnospiraceae	Clostridiales	Clostridia	Firmicutes	Terrabacteria group	Bacteria			
1496	0.003309689593293538	Clostridioides difficile	Clostridioides	Peptostreptococcaceae	Clostridiales	Clostridia	Firmicutes	Terrabacteria group	Bacteria			
1871023	7.799842780784508e-06	Millionella massiliensis	Millionella	Rikenellaceae	Bacteroidales	Bacteroidia	Bacteroidetes	FCB group	Bacteria			
28139	0.0021775072799859255	Rikenella microfusus	Rikenella	Rikenellaceae	Bacteroidales	Bacteroidia	Bacteroidetes	FCB group	Bacteria			
1264	9.153387676918664e-06	Ruminococcus albus	Ruminococcus	Ruminococcaceae	Clostridiales	Clostridia	Firmicutes	Terrabacteria group	Bacteria			
147802	3.440689833653652e-06	Lactobacillus iners	Lactobacillus	Lactobacillaceae	Lactobacillales	Bacilli	Firmicutes	Terrabacteria group	Bacteria			
1871029	4.71036875546799e-06	Intestinibacillus massiliensis	Intestinibacillus	Eubacteriaceae	Clostridiales	Clostridia	Firmicutes	Terrabacteria group	Bacteria			
33043	3.6717794674992776e-05	Coprococcus eutactus	Coprococcus	Lachnospiraceae	Clostridiales	Clostridia	Firmicutes	Terrabacteria group	Bacteria			
1745713	0.00011328686214067638	Bariatricus massiliensis	Bariatricus	Lachnospiraceae	Clostridiales	Clostridia	Firmicutes	Terrabacteria group	Bacteria			
89153	0.003037851547633184	[Clostridium] hylemonae	Lachnoclostridium	Lachnospiraceae	Clostridiales	Clostridia	Firmicutes	Terrabacteria group	Bacteria			
410072	0.0006838337099323608	Coprococcus comes	Coprococcus	Lachnospiraceae	Clostridiales	Clostridia	Firmicutes	Terrabacteria group	Bacteria			
28051	0.001962780455745092	Lachnospira multipara	Lachnospira	Lachnospiraceae	Clostridiales	Clostridia	Firmicutes	Terrabacteria group	Bacteria			
154046	0.0005980510287674948	Hungatella hathewayi	Hungatella	Clostridiaceae	Clostridiales	Clostridia	Firmicutes	Terrabacteria group	Bacteria			
460384	0.0011156613490542722	Enterocloster lavalensis	Enterocloster	Lachnospiraceae	Clostridiales	Clostridia	Firmicutes	Terrabacteria group	Bacteria			
1679721	1.6077295621890464e-05	Herbinix luporum	Herbinix	Lachnospiraceae	Clostridiales	Clostridia	Firmicutes	Terrabacteria group	Bacteria			
29370	0.0007131714855226817	Lacrimispora sphenoides	Lacrimispora	Lachnospiraceae	Clostridiales	Clostridia	Firmicutes	Terrabacteria group	Bacteria			
433279	6.100233037259441e-06	Falcatimonas natans	Falcatimonas	Clostridiaceae	Clostridiales	Clostridia	Firmicutes	Terrabacteria group	Bacteria			
208479	0.001957213048526586	Enterocloster bolteae	Enterocloster	Lachnospiraceae	Clostridiales	Clostridia	Firmicutes	Terrabacteria group	Bacteria			
333367	0.006147466530698186	Enterocloster asparagiformis	Enterocloster	Lachnospiraceae	Clostridiales	Clostridia	Firmicutes	Terrabacteria group	Bacteria			
1469948	3.947701889275687e-05	Kineothrix alysoides	Kineothrix	Lachnospiraceae	Clostridiales	Clostridia	Firmicutes	Terrabacteria group	Bacteria			
84030	3.687535370577426e-05	Lacrimispora saccharolytica	Lacrimispora	Lachnospiraceae	Clostridiales	Clostridia	Firmicutes	Terrabacteria group	Bacteria			
39488	8.892086134979307e-06	Anaerobutyricum hallii	Anaerobutyricum	Lachnospiraceae	Clostridiales	Clostridia	Firmicutes	Terrabacteria group	Bacteria			
37658	8.834404086591729e-05	[Clostridium] populeti	Lachnoclostridium	Lachnospiraceae	Clostridiales	Clostridia	Firmicutes	Terrabacteria group	Bacteria			
290052	8.856404993880752e-06	Acetivibrio ethanolgignens	Acetivibrio	Ruminococcaceae	Clostridiales	Clostridia	Firmicutes	Terrabacteria group	Bacteria			
39491	0.005775443074156399	[Eubacterium] rectale		Lachnospiraceae	Clostridiales	Clostridia	Firmicutes	Terrabacteria group	Bacteria			
185007	0.007431528681146375	Pseudobutyrivibrio xylanivorans	Pseudobutyrivibrio	Lachnospiraceae	Clostridiales	Clostridia	Firmicutes	Terrabacteria group	Bacteria			
301301	0.000681628929006718	Roseburia hominis	Roseburia	Lachnospiraceae	Clostridiales	Clostridia	Firmicutes	Terrabacteria group	Bacteria			
1462919	4.218281007269545e-06	Mobilitalea sibirica	Mobilitalea	Lachnospiraceae	Clostridiales	Clostridia	Firmicutes	Terrabacteria group	Bacteria			
301302	3.6928571635045707e-06	Roseburia faecis	Roseburia	Lachnospiraceae	Clostridiales	Clostridia	Firmicutes	Terrabacteria group	Bacteria			
915180	5.309863744452942e-06	Caecibacterium sporoformans	Caecibacterium	Lachnospiraceae	Clostridiales	Clostridia	Firmicutes	Terrabacteria group	Bacteria			
100134	0.002924442529554311	Anaerocolumna xylanovorans	Anaerocolumna	Lachnospiraceae	Clostridiales	Clostridia	Firmicutes	Terrabacteria group	Bacteria			
433286	2.5445382670413618e-05	Anaerocolumna cellulosilytica	Anaerocolumna	Lachnospiraceae	Clostridiales	Clostridia	Firmicutes	Terrabacteria group	Bacteria			
1512	0.0006199978220216655	[Clostridium] symbiosum	Lachnoclostridium	Lachnospiraceae	Clostridiales	Clostridia	Firmicutes	Terrabacteria group	Bacteria			
115544	1.2776991926136584e-05	Parasporobacterium paucivorans	Parasporobacterium	Lachnospiraceae	Clostridiales	Clostridia	Firmicutes	Terrabacteria group	Bacteria			
259063	0.0010489742956721533	Anaerocolumna jejuensis	Anaerocolumna	Lachnospiraceae	Clostridiales	Clostridia	Firmicutes	Terrabacteria group	Bacteria			
180332	8.863964814747594e-06	Robinsoniella peoriensis	Robinsoniella	Lachnospiraceae	Clostridiales	Clostridia	Firmicutes	Terrabacteria group	Bacteria			
1912897	4.5845373508052895e-05	Blautia sp. N6H1-15	Blautia	Lachnospiraceae	Clostridiales	Clostridia	Firmicutes	Terrabacteria group	Bacteria			
2025493	3.7918904057844396e-06	Blautia hominis	Blautia	Lachnospiraceae	Clostridiales	Clostridia	Firmicutes	Terrabacteria group	Bacteria			
1796616	1.2015732243682475e-05	Blautia sp. YL58	Blautia	Lachnospiraceae	Clostridiales	Clostridia	Firmicutes	Terrabacteria group	Bacteria			
1322	9.801539583869127e-06	Blautia hansenii	Blautia	Lachnospiraceae	Clostridiales	Clostridia	Firmicutes	Terrabacteria group	Bacteria			
1532	2.4023326587348687e-05	Blautia coccoides	Blautia	Lachnospiraceae	Clostridiales	Clostridia	Firmicutes	Terrabacteria group	Bacteria			
871664	9.364035667372195e-06	Blautia stercoris	Blautia	Lachnospiraceae	Clostridiales	Clostridia	Firmicutes	Terrabacteria group	Bacteria			
42322	1.5040092359836269e-05	Eubacterium ruminantium	Eubacterium	Eubacteriaceae	Clostridiales	Clostridia	Firmicutes	Terrabacteria group	Bacteria			
706562	2.4417833631092494e-05	Lactobacillus rogosae	Lactobacillus	Lactobacillaceae	Lactobacillales	Bacilli	Firmicutes	Terrabacteria group	Bacteria			
116085	1.2753224344575863e-05	Coprococcus catus	Coprococcus	Lachnospiraceae	Clostridiales	Clostridia	Firmicutes	Terrabacteria group	Bacteria			
166486	0.0006697181142976765	Roseburia intestinalis	Roseburia	Lachnospiraceae	Clostridiales	Clostridia	Firmicutes	Terrabacteria group	Bacteria			
831	3.7411369925196735e-05	Butyrivibrio fibrisolvens	Butyrivibrio	Lachnospiraceae	Clostridiales	Clostridia	Firmicutes	Terrabacteria group	Bacteria			
253257	3.3002078718201816e-06	Lacrimispora amygdalina	Lacrimispora	Lachnospiraceae	Clostridiales	Clostridia	Firmicutes	Terrabacteria group	Bacteria			
1544	3.237153310148969e-05	Faecalicatena orotica	Faecalicatena	Lachnospiraceae	Clostridiales	Clostridia	Firmicutes	Terrabacteria group	Bacteria			
1912855	5.8679406213108356e-05	Faecalimonas umbilicata	Faecalimonas	Lachnospiraceae	Clostridiales	Clostridia	Firmicutes	Terrabacteria group	Bacteria			
290055	5.469073350278802e-06	Faecalicatena fissicatena	Faecalicatena	Lachnospiraceae	Clostridiales	Clostridia	Firmicutes	Terrabacteria group	Bacteria			
39482	1.0276725313246695e-05	Faecalicatena contorta	Faecalicatena	Lachnospiraceae	Clostridiales	Clostridia	Firmicutes	Terrabacteria group	Bacteria			
1653435	4.331806239627116e-06	Merdimonas faecis	Merdimonas	Lachnospiraceae	Clostridiales	Clostridia	Firmicutes	Terrabacteria group	Bacteria			
342942	5.502056287414234e-06	Mediterraneibacter glycyrrhizinilyticus	Mediterraneibacter	Lachnospiraceae	Clostridiales	Clostridia	Firmicutes	Terrabacteria group	Bacteria			
66219	0.008082295330841885	Lachnoclostridium phytofermentans	Lachnoclostridium	Lachnospiraceae	Clostridiales	Clostridia	Firmicutes	Terrabacteria group	Bacteria			
237576	0.03545620947291472	Oribacterium sinus	Oribacterium	Lachnospiraceae	Clostridiales	Clostridia	Firmicutes	Terrabacteria group	Bacteria			
253239	0.00033844491229366273	Ethanoligenens harbinense	Ethanoligenens	Ruminococcaceae	Clostridiales	Clostridia	Firmicutes	Terrabacteria group	Bacteria			
1414721	0.00022568961402291547	Clostridium jeddahense	Clostridium	Clostridiaceae	Clostridiales	Clostridia	Firmicutes	Terrabacteria group	Bacteria			
1549	0.0014782331432053872	[Clostridium] sporosphaeroides		Ruminococcaceae	Clostridiales	Clostridia	Firmicutes	Terrabacteria group	Bacteria			
1841867	1.0647885379724241e-05	Phocea massiliensis	Phocea	Ruminococcaceae	Clostridiales	Clostridia	Firmicutes	Terrabacteria group	Bacteria			
1650663	8.615883027325502e-06	Fournierella massiliensis	Fournierella	Ruminococcaceae	Clostridiales	Clostridia	Firmicutes	Terrabacteria group	Bacteria			
1673717	0.0005093424983355628	Anaeromassilibacillus senegalensis	Anaeromassilibacillus	Ruminococcaceae	Clostridiales	Clostridia	Firmicutes	Terrabacteria group	Bacteria			
474960	4.8249108348560835e-05	Hydrogenoanaerobacterium saccharovorans	Hydrogenoanaerobacterium	Ruminococcaceae	Clostridiales	Clostridia	Firmicutes	Terrabacteria group	Bacteria			
214851	0.003616089615560879	Subdoligranulum variabile	Subdoligranulum	Ruminococcaceae	Clostridiales	Clostridia	Firmicutes	Terrabacteria group	Bacteria			
501571	0.0005506358855089494	Butyricicoccus pullicaecorum	Butyricicoccus	Clostridiaceae	Clostridiales	Clostridia	Firmicutes	Terrabacteria group	Bacteria			
853	0.01080773160253645	Faecalibacterium prausnitzii	Faecalibacterium	Ruminococcaceae	Clostridiales	Clostridia	Firmicutes	Terrabacteria group	Bacteria			
43997	0.003632883103543529	Catonella morbi	Catonella	Lachnospiraceae	Clostridiales	Clostridia	Firmicutes	Terrabacteria group	Bacteria			
43305	0.0013027016222684179	Butyrivibrio proteoclasticus	Butyrivibrio	Lachnospiraceae	Clostridiales	Clostridia	Firmicutes	Terrabacteria group	Bacteria			
39485	4.7917330021654226e-05	Lachnospira eligens	Lachnospira	Lachnospiraceae	Clostridiales	Clostridia	Firmicutes	Terrabacteria group	Bacteria			
185008	2.6934585181756655e-05	Butyrivibrio hungatei	Butyrivibrio	Lachnospiraceae	Clostridiales	Clostridia	Firmicutes	Terrabacteria group	Bacteria			
959	1.674795525910074e-05	Bdellovibrio bacteriovorus	Bdellovibrio	Bdellovibrionaceae	Bdellovibrionales	Oligoflexia	Proteobacteria		Bacteria			
84026	0.003095254647358398	[Clostridium] methylpentosum		Ruminococcaceae	Clostridiales	Clostridia	Firmicutes	Terrabacteria group	Bacteria			
169435	0.002315795854806709	Anaerotruncus colihominis	Anaerotruncus	Ruminococcaceae	Clostridiales	Clostridia	Firmicutes	Terrabacteria group	Bacteria			
1161942	8.378712910545213e-06	Ruminococcus champanellensis	Ruminococcus	Ruminococcaceae	Clostridiales	Clostridia	Firmicutes	Terrabacteria group	Bacteria			
1628085	2.6906912831336818e-05	Agathobaculum butyriciproducens	Agathobaculum	Ruminococcaceae	Clostridiales	Clostridia	Firmicutes	Terrabacteria group	Bacteria			
40519	0.0038775311115695093	Ruminococcus callidus	Ruminococcus	Ruminococcaceae	Clostridiales	Clostridia	Firmicutes	Terrabacteria group	Bacteria			
29466	3.266999697328027e-05	Veillonella parvula	Veillonella	Veillonellaceae	Veillonellales	Negativicutes	Firmicutes	Terrabacteria group	Bacteria			
29362	2.5618510045384268e-06	Ruminiclostridium papyrosolvens	Ruminiclostridium	Hungateiclostridiaceae	Clostridiales	Clostridia	Firmicutes	Terrabacteria group	Bacteria			
755731	4.453547879703505e-05	Clostridium sp. BNL1100	Clostridium	Clostridiaceae	Clostridiales	Clostridia	Firmicutes	Terrabacteria group	Bacteria			
1521	0.0037931641519721405	Ruminiclostridium cellulolyticum	Ruminiclostridium	Hungateiclostridiaceae	Clostridiales	Clostridia	Firmicutes	Terrabacteria group	Bacteria			
1499	5.240936619153452e-05	Ruminiclostridium josui	Ruminiclostridium	Hungateiclostridiaceae	Clostridiales	Clostridia	Firmicutes	Terrabacteria group	Bacteria			
396504	7.263050962265734e-06	Ruminiclostridium sufflavum	Ruminiclostridium	Hungateiclostridiaceae	Clostridiales	Clostridia	Firmicutes	Terrabacteria group	Bacteria			
39483	0.0006501892173647343	Faecalitalea cylindroides	Faecalitalea	Erysipelotrichaceae	Erysipelotrichales	Erysipelotrichia	Firmicutes	Terrabacteria group	Bacteria			
1265	0.003531874361946671	Ruminococcus flavefaciens	Ruminococcus	Ruminococcaceae	Clostridiales	Clostridia	Firmicutes	Terrabacteria group	Bacteria			
322095	0.0001058291313664923	Porphyromonas somerae	Porphyromonas	Porphyromonadaceae	Bacteroidales	Bacteroidia	Bacteroidetes	FCB group	Bacteria			
28114	0.005229796651232585	Porphyromonas levii	Porphyromonas	Porphyromonadaceae	Bacteroidales	Bacteroidia	Bacteroidetes	FCB group	Bacteria			
1510	0.00021531563655676056	Thermoclostridium stercorarium	Thermoclostridium	Hungateiclostridiaceae	Clostridiales	Clostridia	Firmicutes	Terrabacteria group	Bacteria			
47246	0.0003490458648661786	[Clostridium] viride		Ruminococcaceae	Clostridiales	Clostridia	Firmicutes	Terrabacteria group	Bacteria			
292800	3.908769066344169e-05	Flavonifractor plautii	Flavonifractor	Ruminococcaceae	Clostridiales	Clostridia	Firmicutes	Terrabacteria group	Bacteria			
106588	5.244444935139967e-06	Pseudoflavonifractor capillosus	Pseudoflavonifractor	Ruminococcaceae	Clostridiales	Clostridia	Firmicutes	Terrabacteria group	Bacteria			
1870988	3.1923649896496663e-06	Pseudoflavonifractor phocaeensis	Pseudoflavonifractor	Ruminococcaceae	Clostridiales	Clostridia	Firmicutes	Terrabacteria group	Bacteria			
1432052	6.563229789969787e-06	Eisenbergiella tayi	Eisenbergiella	Lachnospiraceae	Clostridiales	Clostridia	Firmicutes	Terrabacteria group	Bacteria			
1720294	2.6345677597160327e-06	Eisenbergiella massiliensis	Eisenbergiella	Lachnospiraceae	Clostridiales	Clostridia	Firmicutes	Terrabacteria group	Bacteria			
214856	0.003673475309745627	Alistipes finegoldii	Alistipes	Rikenellaceae	Bacteroidales	Bacteroidia	Bacteroidetes	FCB group	Bacteria			
1852362	4.159076093386075e-06	Bacteroides ihuae	Bacteroides	Bacteroidaceae	Bacteroidales	Bacteroidia	Bacteroidetes	FCB group	Bacteria			
328814	0.0005798184959092238	Alistipes shahii	Alistipes	Rikenellaceae	Bacteroidales	Bacteroidia	Bacteroidetes	FCB group	Bacteria			
1465754	0.0006460692885912826	Alistipes timonensis	Alistipes	Rikenellaceae	Bacteroidales	Bacteroidia	Bacteroidetes	FCB group	Bacteria			
328813	0.003456881007170391	Alistipes onderdonkii	Alistipes	Rikenellaceae	Bacteroidales	Bacteroidia	Bacteroidetes	FCB group	Bacteria			
28117	0.00043413026626494913	Alistipes putredinis	Alistipes	Rikenellaceae	Bacteroidales	Bacteroidia	Bacteroidetes	FCB group	Bacteria			
1288121	5.693403172447482e-05	Alistipes senegalensis	Alistipes	Rikenellaceae	Bacteroidales	Bacteroidia	Bacteroidetes	FCB group	Bacteria			
626932	0.0013395119757319397	Alistipes indistinctus	Alistipes	Rikenellaceae	Bacteroidales	Bacteroidia	Bacteroidetes	FCB group	Bacteria			
36874	0.0002532687523621448	Porphyromonas cangingivalis	Porphyromonas	Porphyromonadaceae	Bacteroidales	Bacteroidia	Bacteroidetes	FCB group	Bacteria			
328812	0.007231612520927825	Parabacteroides goldsteinii	Parabacteroides	Tannerellaceae	Bacteroidales	Bacteroidia	Bacteroidetes	FCB group	Bacteria			
41976	0.00019566239254170716	Porphyromonas catoniae	Porphyromonas	Porphyromonadaceae	Bacteroidales	Bacteroidia	Bacteroidetes	FCB group	Bacteria			
28131	4.779385101180226e-05	Prevotella intermedia	Prevotella	Prevotellaceae	Bacteroidales	Bacteroidia	Bacteroidetes	FCB group	Bacteria			
28116	0.0035934982484335277	Bacteroides ovatus	Bacteroides	Bacteroidaceae	Bacteroidales	Bacteroidia	Bacteroidetes	FCB group	Bacteria			
837	0.0036518267239854007	Porphyromonas gingivalis	Porphyromonas	Porphyromonadaceae	Bacteroidales	Bacteroidia	Bacteroidetes	FCB group	Bacteria			
487174	0.0010017620561181266	Barnesiella intestinihominis	Barnesiella	Barnesiellaceae	Bacteroidales	Bacteroidia	Bacteroidetes	FCB group	Bacteria			
28123	0.0013499881479480354	Porphyromonas asaccharolytica	Porphyromonas	Porphyromonadaceae	Bacteroidales	Bacteroidia	Bacteroidetes	FCB group	Bacteria			
28128	2.383204951873198e-05	Prevotella corporis	Prevotella	Prevotellaceae	Bacteroidales	Bacteroidia	Bacteroidetes	FCB group	Bacteria			
589537	3.853696109086159e-06	Prevotella dentasini	Prevotella	Prevotellaceae	Bacteroidales	Bacteroidia	Bacteroidetes	FCB group	Bacteria			
28134	0.0008356669372496717	Prevotella oralis	Prevotella	Prevotellaceae	Bacteroidales	Bacteroidia	Bacteroidetes	FCB group	Bacteria			
28133	2.910462948843452e-05	Prevotella nigrescens	Prevotella	Prevotellaceae	Bacteroidales	Bacteroidia	Bacteroidetes	FCB group	Bacteria			
28126	0.03008506095680296	Prevotella buccae	Prevotella	Prevotellaceae	Bacteroidales	Bacteroidia	Bacteroidetes	FCB group	Bacteria			
28135	0.0010800990132242012	Prevotella oris	Prevotella	Prevotellaceae	Bacteroidales	Bacteroidia	Bacteroidetes	FCB group	Bacteria			
29524	6.365165008044828e-06	Porphyromonas circumdentaria	Porphyromonas	Porphyromonadaceae	Bacteroidales	Bacteroidia	Bacteroidetes	FCB group	Bacteria			
439703	0.09340820963829047	Prevotella maculosa	Prevotella	Prevotellaceae	Bacteroidales	Bacteroidia	Bacteroidetes	FCB group	Bacteria			
821	0.0006609715521250696	Phocaeicola vulgatus	Phocaeicola		Bacteroidales	Bacteroidia	Bacteroidetes	FCB group	Bacteria			
357276	0.0013612699945369333	Phocaeicola dorei	Phocaeicola		Bacteroidales	Bacteroidia	Bacteroidetes	FCB group	Bacteria			
454154	0.0004449501284541158	Paraprevotella clara	Paraprevotella	Prevotellaceae	Bacteroidales	Bacteroidia	Bacteroidetes	FCB group	Bacteria			
817	0.00016343683614322477	Bacteroides fragilis	Bacteroides	Bacteroidaceae	Bacteroidales	Bacteroidia	Bacteroidetes	FCB group	Bacteria			
246787	3.4705600753819935e-05	Bacteroides cellulosilyticus	Bacteroides	Bacteroidaceae	Bacteroidales	Bacteroidia	Bacteroidetes	FCB group	Bacteria			
818	0.010475923177729898	Bacteroides thetaiotaomicron	Bacteroides	Bacteroidaceae	Bacteroidales	Bacteroidia	Bacteroidetes	FCB group	Bacteria			
28111	0.00041206182560610683	Bacteroides eggerthii	Bacteroides	Bacteroidaceae	Bacteroidales	Bacteroidia	Bacteroidetes	FCB group	Bacteria			
626929	1.6212608346033e-05	Bacteroides clarus	Bacteroides	Bacteroidaceae	Bacteroidales	Bacteroidia	Bacteroidetes	FCB group	Bacteria			
28136	0.004738133454573416	Prevotella oulorum	Prevotella	Prevotellaceae	Bacteroidales	Bacteroidia	Bacteroidetes	FCB group	Bacteria			
589436	6.846022906665194e-05	Prevotella fusca	Prevotella	Prevotellaceae	Bacteroidales	Bacteroidia	Bacteroidetes	FCB group	Bacteria			
1177574	0.0007265662715716289	Prevotella jejuni	Prevotella	Prevotellaceae	Bacteroidales	Bacteroidia	Bacteroidetes	FCB group	Bacteria			
589437	0.005578040878032471	Prevotella scopos	Prevotella	Prevotellaceae	Bacteroidales	Bacteroidia	Bacteroidetes	FCB group	Bacteria			
28132	0.0005538162528473183	Prevotella melaninogenica	Prevotella	Prevotellaceae	Bacteroidales	Bacteroidia	Bacteroidetes	FCB group	Bacteria			
77768	0.00015637772319788512	Prevotella albensis	Prevotella	Prevotellaceae	Bacteroidales	Bacteroidia	Bacteroidetes	FCB group	Bacteria			
52227	5.288332160285947e-06	Prevotella dentalis	Prevotella	Prevotellaceae	Bacteroidales	Bacteroidia	Bacteroidetes	FCB group	Bacteria			
386414	0.0060214892080964685	Prevotella timonensis	Prevotella	Prevotellaceae	Bacteroidales	Bacteroidia	Bacteroidetes	FCB group	Bacteria			
28129	0.0020071892639097443	Prevotella denticola	Prevotella	Prevotellaceae	Bacteroidales	Bacteroidia	Bacteroidetes	FCB group	Bacteria			
28112	0.0005129660639578523	Tannerella forsythia	Tannerella	Tannerellaceae	Bacteroidales	Bacteroidia	Bacteroidetes	FCB group	Bacteria			
470565	0.00073213413230991	Prevotella histicola	Prevotella	Prevotellaceae	Bacteroidales	Bacteroidia	Bacteroidetes	FCB group	Bacteria			
228603	8.940898380330115e-05	Prevotella shahii	Prevotella	Prevotellaceae	Bacteroidales	Bacteroidia	Bacteroidetes	FCB group	Bacteria			
1484053	3.481923269527922e-05	Mariniphaga anaerophila	Mariniphaga	Prolixibacteraceae	Marinilabiliales	Bacteroidia	Bacteroidetes	FCB group	Bacteria			
85831	3.4830095241148587e-06	Bacteroides acidifaciens	Bacteroides	Bacteroidaceae	Bacteroidales	Bacteroidia	Bacteroidetes	FCB group	Bacteria			
371601	0.0003609964682954574	Bacteroides xylanisolvens	Bacteroides	Bacteroidaceae	Bacteroidales	Bacteroidia	Bacteroidetes	FCB group	Bacteria			
28137	0.0001860992311578439	Prevotella veroralis	Prevotella	Prevotellaceae	Bacteroidales	Bacteroidia	Bacteroidetes	FCB group	Bacteria			
305719	3.4048540113422584e-05	Prevotella baroniae	Prevotella	Prevotellaceae	Bacteroidales	Bacteroidia	Bacteroidetes	FCB group	Bacteria			
1703337	0.0006259089643931596	Prevotella colorans	Prevotella	Prevotellaceae	Bacteroidales	Bacteroidia	Bacteroidetes	FCB group	Bacteria			
407975	4.420245551760277e-06	Prevotella pleuritidis	Prevotella	Prevotellaceae	Bacteroidales	Bacteroidia	Bacteroidetes	FCB group	Bacteria			
840	0.0020103970722107675	Prevotella loescheii	Prevotella	Prevotellaceae	Bacteroidales	Bacteroidia	Bacteroidetes	FCB group	Bacteria			
76122	0.0004102662231579799	Alloprevotella tannerae	Alloprevotella	Prevotellaceae	Bacteroidales	Bacteroidia	Bacteroidetes	FCB group	Bacteria			
1720195	2.0740882360371805e-05	Gabonibacter massiliensis	Gabonibacter	Porphyromonadaceae	Bacteroidales	Bacteroidia	Bacteroidetes	FCB group	Bacteria			
185293	0.009844329800599197	Prevotella oryzae	Prevotella	Prevotellaceae	Bacteroidales	Bacteroidia	Bacteroidetes	FCB group	Bacteria			
242750	1.8452513853114395e-05	Prevotella bergensis	Prevotella	Prevotellaceae	Bacteroidales	Bacteroidia	Bacteroidetes	FCB group	Bacteria			
185294	0.00042197030009479214	Prevotella paludivivens	Prevotella	Prevotellaceae	Bacteroidales	Bacteroidia	Bacteroidetes	FCB group	Bacteria			
28130	0.0006431108747991984	Prevotella disiens	Prevotella	Prevotellaceae	Bacteroidales	Bacteroidia	Bacteroidetes	FCB group	Bacteria			
1562970	6.0642682347873394e-06	Fermentimonas caenicola	Fermentimonas	Dysgonomonadaceae	Bacteroidales	Bacteroidia	Bacteroidetes	FCB group	Bacteria			
1642646	4.8728003409936e-06	Petrimonas mucosa	Petrimonas	Dysgonomonadaceae	Bacteroidales	Bacteroidia	Bacteroidetes	FCB group	Bacteria			
397865	0.001345783903522115	Barnesiella viscericola	Barnesiella	Barnesiellaceae	Bacteroidales	Bacteroidia	Bacteroidetes	FCB group	Bacteria			
823	0.0019711122576928026	Parabacteroides distasonis	Parabacteroides	Tannerellaceae	Bacteroidales	Bacteroidia	Bacteroidetes	FCB group	Bacteria			
574930	0.001303982430723509	Parabacteroides gordonii	Parabacteroides	Tannerellaceae	Bacteroidales	Bacteroidia	Bacteroidetes	FCB group	Bacteria			
387661	0.003940757181484911	Parabacteroides johnsonii	Parabacteroides	Tannerellaceae	Bacteroidales	Bacteroidia	Bacteroidetes	FCB group	Bacteria			
671267	1.577276846093751e-05	Phocaeicola sartorii	Phocaeicola		Bacteroidales	Bacteroidia	Bacteroidetes	FCB group	Bacteria			
419005	0.002270162772881208	Prevotella amnii	Prevotella	Prevotellaceae	Bacteroidales	Bacteroidia	Bacteroidetes	FCB group	Bacteria			
47678	0.00014768554900179633	Bacteroides caccae	Bacteroides	Bacteroidaceae	Bacteroidales	Bacteroidia	Bacteroidetes	FCB group	Bacteria			
1099853	0.002612587806730844	Coprobacter fastidiosus	Coprobacter	Barnesiellaceae	Bacteroidales	Bacteroidia	Bacteroidetes	FCB group	Bacteria			
310300	0.0006546327849875657	Bacteroides pyogenes	Bacteroides	Bacteroidaceae	Bacteroidales	Bacteroidia	Bacteroidetes	FCB group	Bacteria			
889453	8.294350980764885e-06	Alkalitalea saponilacus	Alkalitalea	Marinilabiliaceae	Marinilabiliales	Bacteroidia	Bacteroidetes	FCB group	Bacteria			
28118	2.0256321998443097e-05	Odoribacter splanchnicus	Odoribacter	Odoribacteraceae	Bacteroidales	Bacteroidia	Bacteroidetes	FCB group	Bacteria			
77095	0.00011250415671594494	Prevotella bryantii	Prevotella	Prevotellaceae	Bacteroidales	Bacteroidia	Bacteroidetes	FCB group	Bacteria			
671218	0.0013319848877912698	Alloprevotella rava	Alloprevotella	Prevotellaceae	Bacteroidales	Bacteroidia	Bacteroidetes	FCB group	Bacteria			
111105	9.513898269982452e-05	Porphyromonas gulae	Porphyromonas	Porphyromonadaceae	Bacteroidales	Bacteroidia	Bacteroidetes	FCB group	Bacteria			
467210	0.0035475188057162354	Lachnoanaerobaculum saburreum	Lachnoanaerobaculum	Lachnospiraceae	Clostridiales	Clostridia	Firmicutes	Terrabacteria group	Bacteria			
979627	1.7287145900566848e-05	Lachnoanaerobaculum orale	Lachnoanaerobaculum	Lachnospiraceae	Clostridiales	Clostridia	Firmicutes	Terrabacteria group	Bacteria			
43995	0.0002452493833754763	Johnsonella ignava	Johnsonella	Lachnospiraceae	Clostridiales	Clostridia	Firmicutes	Terrabacteria group	Bacteria			
2490855	4.392139358119072e-06	Lachnoanaerobaculum gingivalis	Lachnoanaerobaculum	Lachnospiraceae	Clostridiales	Clostridia	Firmicutes	Terrabacteria group	Bacteria			
617123	5.713874936310381e-06	Lachnoanaerobaculum umeaense	Lachnoanaerobaculum	Lachnospiraceae	Clostridiales	Clostridia	Firmicutes	Terrabacteria group	Bacteria			
674529	0.0003500401612894758	Bacteroides faecis	Bacteroides	Bacteroidaceae	Bacteroidales	Bacteroidia	Bacteroidetes	FCB group	Bacteria			
290053	5.081285882279728e-06	Bacteroides helcogenes	Bacteroides	Bacteroidaceae	Bacteroidales	Bacteroidia	Bacteroidetes	FCB group	Bacteria			
310297	2.2264542616516344e-05	Phocaeicola plebeius	Phocaeicola		Bacteroidales	Bacteroidia	Bacteroidetes	FCB group	Bacteria			
376806	0.005372509477890817	Bacteroides gallinarum	Bacteroides	Bacteroidaceae	Bacteroidales	Bacteroidia	Bacteroidetes	FCB group	Bacteria			
376804	0.00044894012701074957	Phocaeicola barnesiae	Phocaeicola		Bacteroidales	Bacteroidia	Bacteroidetes	FCB group	Bacteria			
626933	0.02411996676300373	Odoribacter laneus	Odoribacter	Odoribacteraceae	Bacteroidales	Bacteroidia	Bacteroidetes	FCB group	Bacteria			
596085	2.382676578145825e-05	Prevotella aurantiaca	Prevotella	Prevotellaceae	Bacteroidales	Bacteroidia	Bacteroidetes	FCB group	Bacteria			
425941	0.001728032114215998	Prevotella nanceiensis	Prevotella	Prevotellaceae	Bacteroidales	Bacteroidia	Bacteroidetes	FCB group	Bacteria			
515414	4.716138182834471e-06	Prevotella falsenii	Prevotella	Prevotellaceae	Bacteroidales	Bacteroidia	Bacteroidetes	FCB group	Bacteria			
60133	0.013758138365780484	Prevotella pallens	Prevotella	Prevotellaceae	Bacteroidales	Bacteroidia	Bacteroidetes	FCB group	Bacteria			
652716	0.00040214398526256944	Prevotella sp. oral taxon 299	Prevotella	Prevotellaceae	Bacteroidales	Bacteroidia	Bacteroidetes	FCB group	Bacteria			
83231	0.005129034058731917	Prevotella brevis	Prevotella	Prevotellaceae	Bacteroidales	Bacteroidia	Bacteroidetes	FCB group	Bacteria			
46503	0.0003943499170164141	Parabacteroides merdae	Parabacteroides	Tannerellaceae	Bacteroidales	Bacteroidia	Bacteroidetes	FCB group	Bacteria			
454155	0.001787578005541168	Paraprevotella xylaniphila	Paraprevotella	Prevotellaceae	Bacteroidales	Bacteroidia	Bacteroidetes	FCB group	Bacteria			
291645	0.0013132004596628543	Bacteroides nordii	Bacteroides	Bacteroidaceae	Bacteroidales	Bacteroidia	Bacteroidetes	FCB group	Bacteria			
76123	0.00013253428552966853	Prevotella enoeca	Prevotella	Prevotellaceae	Bacteroidales	Bacteroidia	Bacteroidetes	FCB group	Bacteria			
28115	0.0012836370286615684	Porphyromonas macacae	Porphyromonas	Porphyromonadaceae	Bacteroidales	Bacteroidia	Bacteroidetes	FCB group	Bacteria			
1816687	3.6675423835565626e-05	Massiliprevotella massiliensis	Massiliprevotella	Prevotellaceae	Bacteroidales	Bacteroidia	Bacteroidetes	FCB group	Bacteria			
839	0.00029885214648396326	Prevotella ruminicola	Prevotella	Prevotellaceae	Bacteroidales	Bacteroidia	Bacteroidetes	FCB group	Bacteria			
310514	1.0957391691955043e-05	Prevotella multisaccharivorax	Prevotella	Prevotellaceae	Bacteroidales	Bacteroidia	Bacteroidetes	FCB group	Bacteria			
385682	2.718448446445912e-05	Thermophagus xiamenensis	Thermophagus	Marinilabiliaceae	Marinilabiliales	Bacteroidia	Bacteroidetes	FCB group	Bacteria			
281920	2.945294512691613e-05	Porphyromonas uenonis	Porphyromonas	Porphyromonadaceae	Bacteroidales	Bacteroidia	Bacteroidetes	FCB group	Bacteria			
626930	0.00044755745023007665	Bacteroides fluxus	Bacteroides	Bacteroidaceae	Bacteroidales	Bacteroidia	Bacteroidetes	FCB group	Bacteria			
691816	4.254892687192288e-06	Bacteroides rodentium	Bacteroides	Bacteroidaceae	Bacteroidales	Bacteroidia	Bacteroidetes	FCB group	Bacteria			
820	0.0004480514827580456	Bacteroides uniformis	Bacteroides	Bacteroidaceae	Bacteroidales	Bacteroidia	Bacteroidetes	FCB group	Bacteria			
2133944	2.879606738409282e-06	Alloprevotella sp. E39	Alloprevotella	Prevotellaceae	Bacteroidales	Bacteroidia	Bacteroidetes	FCB group	Bacteria			
338188	0.00014513609341908112	Bacteroides finegoldii	Bacteroides	Bacteroidaceae	Bacteroidales	Bacteroidia	Bacteroidetes	FCB group	Bacteria			
363265	2.1130850339842993e-05	Prevotella stercorea	Prevotella	Prevotellaceae	Bacteroidales	Bacteroidia	Bacteroidetes	FCB group	Bacteria			
1686296	1.0577121201926691e-05	Gabonia massiliensis	Gabonia	Porphyromonadaceae	Bacteroidales	Bacteroidia	Bacteroidetes	FCB group	Bacteria			
1870999	4.838926596094937e-06	Metaprevotella massiliensis	Metaprevotella	Prevotellaceae	Bacteroidales	Bacteroidia	Bacteroidetes	FCB group	Bacteria			
228604	0.00024642458639906014	Prevotella salivae	Prevotella	Prevotellaceae	Bacteroidales	Bacteroidia	Bacteroidetes	FCB group	Bacteria			
633701	0.0009038470242575098	Prevotella saccharolytica	Prevotella	Prevotellaceae	Bacteroidales	Bacteroidia	Bacteroidetes	FCB group	Bacteria			
1168034	4.636414550615061e-06	Draconibacterium orientale	Draconibacterium	Prolixibacteraceae	Marinilabiliales	Bacteroidia	Bacteroidetes	FCB group	Bacteria			
1841864	2.69411941404592e-06	Marseilla massiliensis	Marseilla	Prevotellaceae	Bacteroidales	Bacteroidia	Bacteroidetes	FCB group	Bacteria			
1462569	3.3564701238325717e-06	Bacteroides caecicola	Bacteroides	Bacteroidaceae	Bacteroidales	Bacteroidia	Bacteroidetes	FCB group	Bacteria			
189722	0.0017439021183832644	Prevotella marshii	Prevotella	Prevotellaceae	Bacteroidales	Bacteroidia	Bacteroidetes	FCB group	Bacteria			
555313	0.004956122118649101	Phocaeicola abscessus	Phocaeicola		Bacteroidales	Bacteroidia	Bacteroidetes	FCB group	Bacteria			
204516	0.00063453458277195	Phocaeicola massiliensis	Phocaeicola		Bacteroidales	Bacteroidia	Bacteroidetes	FCB group	Bacteria			
2490854	3.0548321420438885e-06	Prevotella koreensis	Prevotella	Prevotellaceae	Bacteroidales	Bacteroidia	Bacteroidetes	FCB group	Bacteria			
29361	0.001983787021287602	Tyzzerella nexilis	Tyzzerella	Lachnospiraceae	Clostridiales	Clostridia	Firmicutes	Terrabacteria group	Bacteria			
645466	2.3121258704295675e-05	Anaerostipes butyraticus	Anaerostipes	Lachnospiraceae	Clostridiales	Clostridia	Firmicutes	Terrabacteria group	Bacteria			
28127	0.00029586430614622134	Prevotella buccalis	Prevotella	Prevotellaceae	Bacteroidales	Bacteroidia	Bacteroidetes	FCB group	Bacteria			
1852370	2.1961991114954266e-05	Prevotellamassilia timonensis	Prevotellamassilia	Prevotellaceae	Bacteroidales	Bacteroidia	Bacteroidetes	FCB group	Bacteria			
291644	0.000682998356133984	Bacteroides salyersiae	Bacteroides	Bacteroidaceae	Bacteroidales	Bacteroidia	Bacteroidetes	FCB group	Bacteria			
387090	1.504238580413422e-05	Phocaeicola coprophilus	Phocaeicola		Bacteroidales	Bacteroidia	Bacteroidetes	FCB group	Bacteria			
39495	3.495191205464471e-06	Eubacterium uniforme	Eubacterium	Eubacteriaceae	Clostridiales	Clostridia	Firmicutes	Terrabacteria group	Bacteria			
1501392	1.6686204600490503e-05	Coprobacter secundus	Coprobacter	Barnesiellaceae	Bacteroidales	Bacteroidia	Bacteroidetes	FCB group	Bacteria			
1556	6.049743369207821e-06	Gottschalkia acidurici	Gottschalkia	Gottschalkiaceae	Tissierellales	Tissierellia	Firmicutes	Terrabacteria group	Bacteria			
177972	0.014024981159896272	Shuttleworthia satelles	Shuttleworthia	Lachnospiraceae	Clostridiales	Clostridia	Firmicutes	Terrabacteria group	Bacteria			
1096246	1.3952602452162789e-05	Hungatella effluvii	Hungatella	Clostridiaceae	Clostridiales	Clostridia	Firmicutes	Terrabacteria group	Bacteria			
210	0.00038840582269468026	Helicobacter pylori	Helicobacter	Helicobacteraceae	Campylobacterales	Epsilonproteobacteria	Proteobacteria		Bacteria			
134821	0.006919844359194309	Ureaplasma parvum	Ureaplasma	Mycoplasmataceae	Mycoplasmatales	Mollicutes	Tenericutes	Terrabacteria group	Bacteria			
2130	2.6430673775164668e-06	Ureaplasma urealyticum	Ureaplasma	Mycoplasmataceae	Mycoplasmatales	Mollicutes	Tenericutes	Terrabacteria group	Bacteria			
1735	0.0037951141874850453	Holdemanella biformis	Holdemanella	Erysipelotrichaceae	Erysipelotrichales	Erysipelotrichia	Firmicutes	Terrabacteria group	Bacteria			
1547	0.0017034082933452398	Erysipelatoclostridium ramosum	Erysipelatoclostridium	Erysipelotrichaceae	Erysipelotrichales	Erysipelotrichia	Firmicutes	Terrabacteria group	Bacteria			
1247	8.549257185836867e-06	Oenococcus oeni	Oenococcus	Leuconostocaceae	Lactobacillales	Bacilli	Firmicutes	Terrabacteria group	Bacteria			
2203724	3.9094723589140226e-06	Oenococcus sicerae	Oenococcus	Leuconostocaceae	Lactobacillales	Bacilli	Firmicutes	Terrabacteria group	Bacteria			
1509	1.5217966611244775e-05	Clostridium sporogenes	Clostridium	Clostridiaceae	Clostridiales	Clostridia	Firmicutes	Terrabacteria group	Bacteria			
35787	0.0003955547721689152	Lactobacillus pontis	Lactobacillus	Lactobacillaceae	Lactobacillales	Bacilli	Firmicutes	Terrabacteria group	Bacteria			
168384	1.6066095891886267e-05	Marvinbryantia formatexigens	Marvinbryantia	Lachnospiraceae	Clostridiales	Clostridia	Firmicutes	Terrabacteria group	Bacteria			
1871021	1.0505178066604808e-05	Lachnoclostridium phocaeense	Lachnoclostridium	Lachnospiraceae	Clostridiales	Clostridia	Firmicutes	Terrabacteria group	Bacteria			
1796634	7.291027011835434e-06	Muricomes intestini	Muricomes	Lachnospiraceae	Clostridiales	Clostridia	Firmicutes	Terrabacteria group	Bacteria			
1531	0.0005532661355083562	Enterocloster clostridioformis	Enterocloster	Lachnospiraceae	Clostridiales	Clostridia	Firmicutes	Terrabacteria group	Bacteria			
1834196	6.979566413817389e-06	Lachnoclostridium sp. YL32	Lachnoclostridium	Lachnospiraceae	Clostridiales	Clostridia	Firmicutes	Terrabacteria group	Bacteria			
1917870	3.1755948519033464e-06	Lachnoclostridium pacaense	Lachnoclostridium	Lachnospiraceae	Clostridiales	Clostridia	Firmicutes	Terrabacteria group	Bacteria			
140626	0.001098277981537361	Lachnobacterium bovis	Lachnobacterium	Lachnospiraceae	Clostridiales	Clostridia	Firmicutes	Terrabacteria group	Bacteria			
1337051	3.070509161473375e-05	Murimonas intestini	Murimonas	Lachnospiraceae	Clostridiales	Clostridia	Firmicutes	Terrabacteria group	Bacteria			
360807	4.754027783490574e-06	Roseburia inulinivorans	Roseburia	Lachnospiraceae	Clostridiales	Clostridia	Firmicutes	Terrabacteria group	Bacteria			
871665	7.651539992957105e-06	Blautia faecis	Blautia	Lachnospiraceae	Clostridiales	Clostridia	Firmicutes	Terrabacteria group	Bacteria			
1501332	0.006498216594389216	Oribacterium asaccharolyticum	Oribacterium	Lachnospiraceae	Clostridiales	Clostridia	Firmicutes	Terrabacteria group	Bacteria			
404403	4.05082279185361e-06	Howardella ureilytica	Howardella		Clostridiales	Clostridia	Firmicutes	Terrabacteria group	Bacteria			
180164	0.0011055356803599235	Blautia schinkii	Blautia	Lachnospiraceae	Clostridiales	Clostridia	Firmicutes	Terrabacteria group	Bacteria			
536633	2.6315979274566163e-05	Blautia glucerasea	Blautia	Lachnospiraceae	Clostridiales	Clostridia	Firmicutes	Terrabacteria group	Bacteria			
341220	0.0044782237170335444	Lactonifactor longoviformis	Lactonifactor	Clostridiaceae	Clostridiales	Clostridia	Firmicutes	Terrabacteria group	Bacteria			
46228	8.649738376775666e-05	[Ruminococcus] lactaris	Mediterraneibacter	Lachnospiraceae	Clostridiales	Clostridia	Firmicutes	Terrabacteria group	Bacteria			
2109690	5.321842344822194e-05	Lachnospiraceae bacterium Choco86		Lachnospiraceae	Clostridiales	Clostridia	Firmicutes	Terrabacteria group	Bacteria			
33039	0.0031337134030828308	[Ruminococcus] torques	Mediterraneibacter	Lachnospiraceae	Clostridiales	Clostridia	Firmicutes	Terrabacteria group	Bacteria			
438033	0.0006792512572983963	Ruminococcus gauvreauii	Ruminococcus	Ruminococcaceae	Clostridiales	Clostridia	Firmicutes	Terrabacteria group	Bacteria			
2109691	7.092718211990655e-06	Lachnospiraceae bacterium GAM79		Lachnospiraceae	Clostridiales	Clostridia	Firmicutes	Terrabacteria group	Bacteria			
2044587	2.682257904677125e-06	Schaedlerella arabinosiphila	Schaedlerella	Lachnospiraceae	Clostridiales	Clostridia	Firmicutes	Terrabacteria group	Bacteria			
433293	3.8010688262250115e-06	Anaerotaenia torta	Anaerotaenia	Lachnospiraceae	Clostridiales	Clostridia	Firmicutes	Terrabacteria group	Bacteria			
29364	1.749569323117343e-05	[Clostridium] polysaccharolyticum	Lachnoclostridium	Lachnospiraceae	Clostridiales	Clostridia	Firmicutes	Terrabacteria group	Bacteria			
1763509	1.888066290171556e-05	Lachnotalea glycerini	Lachnotalea	Lachnospiraceae	Clostridiales	Clostridia	Firmicutes	Terrabacteria group	Bacteria			
2479767	3.664212801370147e-05	Blautia sp. SC05B48	Blautia	Lachnospiraceae	Clostridiales	Clostridia	Firmicutes	Terrabacteria group	Bacteria			
418240	0.00012823708454050934	Blautia wexlerae	Blautia	Lachnospiraceae	Clostridiales	Clostridia	Firmicutes	Terrabacteria group	Bacteria			
89014	2.773880185719602e-05	Blautia luti	Blautia	Lachnospiraceae	Clostridiales	Clostridia	Firmicutes	Terrabacteria group	Bacteria			
84037	6.077501146941356e-06	Syntrophococcus sucromutans	Syntrophococcus	Lachnospiraceae	Clostridiales	Clostridia	Firmicutes	Terrabacteria group	Bacteria			
1796615	3.2227266100457693e-06	Blautia caecimuris	Blautia	Lachnospiraceae	Clostridiales	Clostridia	Firmicutes	Terrabacteria group	Bacteria			
88431	0.0015823474077833986	Dorea longicatena	Dorea	Lachnospiraceae	Clostridiales	Clostridia	Firmicutes	Terrabacteria group	Bacteria			
48256	0.00011375428852716216	Ruminiclostridium hungatei	Ruminiclostridium	Hungateiclostridiaceae	Clostridiales	Clostridia	Firmicutes	Terrabacteria group	Bacteria			
39484	0.000279260436190178	Agathobaculum desmolans	Agathobaculum	Ruminococcaceae	Clostridiales	Clostridia	Firmicutes	Terrabacteria group	Bacteria			
876	9.735706005976763e-05	Desulfovibrio desulfuricans	Desulfovibrio	Desulfovibrionaceae	Desulfovibrionales	Deltaproteobacteria	Proteobacteria		Bacteria			
433287	1.1202841447589986e-05	Anaerotignum aminivorans	Anaerotignum	Lachnospiraceae	Clostridiales	Clostridia	Firmicutes	Terrabacteria group	Bacteria			
2610895	5.593598529650355e-06	Flintibacter sp. KGMB00164	Flintibacter		Clostridiales	Clostridia	Firmicutes	Terrabacteria group	Bacteria			
2109688	4.6917883635729415e-06	Clostridiales bacterium CCNA10			Clostridiales	Clostridia	Firmicutes	Terrabacteria group	Bacteria			
682400	7.321877981024551e-06	Natranaerovirga pectinivora	Natranaerovirga		Clostridiales	Clostridia	Firmicutes	Terrabacteria group	Bacteria			
371674	5.1440610530970285e-05	Moryella indoligenes	Moryella	Lachnospiraceae	Clostridiales	Clostridia	Firmicutes	Terrabacteria group	Bacteria			
907	6.299854537105285e-05	Megasphaera elsdenii	Megasphaera	Veillonellaceae	Veillonellales	Negativicutes	Firmicutes	Terrabacteria group	Bacteria			
108328	0.0004034077780623288	Anaerobranca gottschalkii	Anaerobranca	Proteinivoraceae	Clostridiales	Clostridia	Firmicutes	Terrabacteria group	Bacteria			
1870986	2.75557716151839e-06	Colidextribacter massiliensis	Colidextribacter		Clostridiales	Clostridia	Firmicutes	Terrabacteria group	Bacteria			
1297617	6.811682961991847e-05	Intestinimonas butyriciproducens	Intestinimonas		Clostridiales	Clostridia	Firmicutes	Terrabacteria group	Bacteria			
1898207	1.5836033128062467e-05	Clostridiales bacterium			Clostridiales	Clostridia	Firmicutes	Terrabacteria group	Bacteria			
1503	7.804690224307358e-06	Gottschalkia purinilytica	Gottschalkia	Gottschalkiaceae	Tissierellales	Tissierellia	Firmicutes	Terrabacteria group	Bacteria			
2173034	5.9877324945735385e-06	Petrocella atlantisensis	Petrocella	Vallitaleaceae	Clostridiales	Clostridia	Firmicutes	Terrabacteria group	Bacteria			
109327	0.002654169188113572	Anaerovorax odorimutans	Anaerovorax	Clostridiales Family XIII. Incertae Sedis	Clostridiales	Clostridia	Firmicutes	Terrabacteria group	Bacteria			
1776391	3.721293583402876e-05	Romboutsia timonensis	Romboutsia	Peptostreptococcaceae	Clostridiales	Clostridia	Firmicutes	Terrabacteria group	Bacteria			
1619234	1.2605610770559136e-05	Anaerobium acetethylicum	Anaerobium	Lachnospiraceae	Clostridiales	Clostridia	Firmicutes	Terrabacteria group	Bacteria			
1329262	2.8128270114039985e-06	Mobilisporobacter senegalensis	Mobilisporobacter	Lachnospiraceae	Clostridiales	Clostridia	Firmicutes	Terrabacteria group	Bacteria			
28052	0.00012301470127917244	Lachnospira pectinoschiza	Lachnospira	Lachnospiraceae	Clostridiales	Clostridia	Firmicutes	Terrabacteria group	Bacteria			
99656	3.6365539189840303e-06	[Clostridium] fimetarium	Lachnoclostridium	Lachnospiraceae	Clostridiales	Clostridia	Firmicutes	Terrabacteria group	Bacteria			
166485	0.00234516047095982	Caminicella sporogenes	Caminicella	Clostridiaceae	Clostridiales	Clostridia	Firmicutes	Terrabacteria group	Bacteria			
1323370	2.0111465548979647e-05	Caloranaerobacter ferrireducens	Caloranaerobacter	Clostridiaceae	Clostridiales	Clostridia	Firmicutes	Terrabacteria group	Bacteria			
1548890	4.32017610472631e-06	Brassicibacter thermophilus	Brassicibacter	Clostridiaceae	Clostridiales	Clostridia	Firmicutes	Terrabacteria group	Bacteria			
116090	0.03191147311926092	Caloranaerobacter azorensis	Caloranaerobacter	Clostridiaceae	Clostridiales	Clostridia	Firmicutes	Terrabacteria group	Bacteria			
408753	0.0016748592976373838	Clostridiisalibacter paucivorans	Clostridiisalibacter	Clostridiaceae	Clostridiales	Clostridia	Firmicutes	Terrabacteria group	Bacteria			
1648	0.0020515669930938245	Erysipelothrix rhusiopathiae	Erysipelothrix	Erysipelotrichaceae	Erysipelotrichales	Erysipelotrichia	Firmicutes	Terrabacteria group	Bacteria			
2485784	2.9203958475038278e-05	Erysipelothrix piscisicarius	Erysipelothrix	Erysipelotrichaceae	Erysipelotrichales	Erysipelotrichia	Firmicutes	Terrabacteria group	Bacteria			
1526571	6.138919289512975e-06	Lacimicrobium alkaliphilum	Lacimicrobium	Alteromonadaceae	Alteromonadales	Gammaproteobacteria	Proteobacteria		Bacteria			
1643805	7.117210595149304e-06	Peptococcus simiae	Peptococcus	Peptococcaceae	Clostridiales	Clostridia	Firmicutes	Terrabacteria group	Bacteria			
29546	0.003450048387549848	Lawsonia intracellularis	Lawsonia	Desulfovibrionaceae	Desulfovibrionales	Deltaproteobacteria	Proteobacteria		Bacteria			
52561	2.367055203025348e-05	Desulfomicrobium norvegicum	Desulfomicrobium	Desulfomicrobiaceae	Desulfovibrionales	Deltaproteobacteria	Proteobacteria		Bacteria			
1076	0.000641962505346561	Rhodopseudomonas palustris	Rhodopseudomonas	Bradyrhizobiaceae	Rhizobiales	Alphaproteobacteria	Proteobacteria		Bacteria			
190148	3.2220552537970564e-05	Bradyrhizobium paxllaeri	Bradyrhizobium	Bradyrhizobiaceae	Rhizobiales	Alphaproteobacteria	Proteobacteria		Bacteria			
1274631	7.232122263313711e-06	Bradyrhizobium icense	Bradyrhizobium	Bradyrhizobiaceae	Rhizobiales	Alphaproteobacteria	Proteobacteria		Bacteria			
87461	3.401764408103374e-06	Rhodopseudomonas rhenobacensis	Rhodopseudomonas	Bradyrhizobiaceae	Rhizobiales	Alphaproteobacteria	Proteobacteria		Bacteria			
40137	7.306831220651431e-06	Oligotropha carboxidovorans	Oligotropha	Bradyrhizobiaceae	Rhizobiales	Alphaproteobacteria	Proteobacteria		Bacteria			
1712665	2.055164490207981e-05	Agathobacter ruminis	Agathobacter	Lachnospiraceae	Clostridiales	Clostridia	Firmicutes	Terrabacteria group	Bacteria			
361365	8.064407170064171e-06	Tindallia texcoconensis	Tindallia	Clostridiaceae	Clostridiales	Clostridia	Firmicutes	Terrabacteria group	Bacteria			
53443	0.0004446417183611909	Blautia hydrogenotrophica	Blautia	Lachnospiraceae	Clostridiales	Clostridia	Firmicutes	Terrabacteria group	Bacteria			
1468449	0.0003385747494169275	Holdemania massiliensis	Holdemania	Erysipelotrichaceae	Erysipelotrichales	Erysipelotrichia	Firmicutes	Terrabacteria group	Bacteria			
61171	0.00018084649573599752	Holdemania filiformis	Holdemania	Erysipelotrichaceae	Erysipelotrichales	Erysipelotrichia	Firmicutes	Terrabacteria group	Bacteria			
264463	0.0006593576968866204	Anaerosporobacter mobilis	Anaerosporobacter	Lachnospiraceae	Clostridiales	Clostridia	Firmicutes	Terrabacteria group	Bacteria			
40520	0.010661689084603737	Blautia obeum	Blautia	Lachnospiraceae	Clostridiales	Clostridia	Firmicutes	Terrabacteria group	Bacteria			
39496	3.2637538874917794e-06	Eubacterium ventriosum	Eubacterium	Eubacteriaceae	Clostridiales	Clostridia	Firmicutes	Terrabacteria group	Bacteria			
105841	0.001308523055624099	Anaerostipes caccae	Anaerostipes	Lachnospiraceae	Clostridiales	Clostridia	Firmicutes	Terrabacteria group	Bacteria			
1732	9.817236847940965e-06	Eubacterium oxidoreducens	Eubacterium	Eubacteriaceae	Clostridiales	Clostridia	Firmicutes	Terrabacteria group	Bacteria			
1150298	2.5438052039034674e-06	Fusicatenibacter saccharivorans	Fusicatenibacter	Lachnospiraceae	Clostridiales	Clostridia	Firmicutes	Terrabacteria group	Bacteria			
2086584	2.1053819871747048e-05	Massilistercora timonensis	Massilistercora		Clostridiales	Clostridia	Firmicutes	Terrabacteria group	Bacteria			
358743	0.004513459990891923	Enterocloster citroniae	Enterocloster	Lachnospiraceae	Clostridiales	Clostridia	Firmicutes	Terrabacteria group	Bacteria			
1796622	5.3000113627351974e-05	Extibacter muris	Extibacter	Lachnospiraceae	Clostridiales	Clostridia	Firmicutes	Terrabacteria group	Bacteria			
2497860	0.0017324752677900506	Cellulosilyticum sp. WCF-2	Cellulosilyticum	Lachnospiraceae	Clostridiales	Clostridia	Firmicutes	Terrabacteria group	Bacteria			
2382	0.004319586502139403	Acetitomaculum ruminis	Acetitomaculum	Lachnospiraceae	Clostridiales	Clostridia	Firmicutes	Terrabacteria group	Bacteria			
1526	7.777516308272054e-06	[Clostridium] aminophilum	Lachnoclostridium	Lachnospiraceae	Clostridiales	Clostridia	Firmicutes	Terrabacteria group	Bacteria			
1630	1.1468489600317185e-05	Kandleria vitulina	Kandleria	Erysipelotrichaceae	Erysipelotrichales	Erysipelotrichia	Firmicutes	Terrabacteria group	Bacteria			
879566	2.571370443500596e-06	Acetatifactor muris	Acetatifactor	Lachnospiraceae	Clostridiales	Clostridia	Firmicutes	Terrabacteria group	Bacteria			
1557	5.914557598061171e-06	Peptoclostridium litorale	Peptoclostridium	Peptostreptococcaceae	Clostridiales	Clostridia	Firmicutes	Terrabacteria group	Bacteria			
28450	5.259663821849647e-06	Burkholderia pseudomallei	Burkholderia	Burkholderiaceae	Burkholderiales	Betaproteobacteria	Proteobacteria		Bacteria			pseudomallei group
39486	7.216668700449183e-05	Dorea formicigenerans	Dorea	Lachnospiraceae	Clostridiales	Clostridia	Firmicutes	Terrabacteria group	Bacteria			
1632013	4.694042436254651e-06	Drancourtella massiliensis	Drancourtella	Ruminococcaceae	Clostridiales	Clostridia	Firmicutes	Terrabacteria group	Bacteria			
173	8.095012744358909e-05	Leptospira interrogans	Leptospira	Leptospiraceae	Leptospirales	Spirochaetia	Spirochaetes		Bacteria			
1653434	3.089279284593191e-06	Sellimonas intestinalis	Sellimonas	Lachnospiraceae	Clostridiales	Clostridia	Firmicutes	Terrabacteria group	Bacteria			
437507	0.0012979669794813613	Robiginitomaculum antarcticum	Robiginitomaculum	Hyphomonadaceae	Rhodobacterales	Alphaproteobacteria	Proteobacteria		Bacteria			
7	4.567639866680357e-06	Azorhizobium caulinodans	Azorhizobium	Xanthobacteraceae	Rhizobiales	Alphaproteobacteria	Proteobacteria		Bacteria			
1859103	3.7910744127383357e-06	Sporosalibacterium tautonense	Sporosalibacterium	Clostridiaceae	Clostridiales	Clostridia	Firmicutes	Terrabacteria group	Bacteria			
39498	3.2997533422678315e-06	[Eubacterium] yurii	Peptoanaerobacter	Peptostreptococcaceae	Clostridiales	Clostridia	Firmicutes	Terrabacteria group	Bacteria			
1818004	7.867232066650843e-06	Streptomyces zhihengii	Streptomyces	Streptomycetaceae	Streptomycetales	Actinobacteria	Actinobacteria	Terrabacteria group	Bacteria			
29448	8.663686546960251e-06	Bradyrhizobium elkanii	Bradyrhizobium	Bradyrhizobiaceae	Rhizobiales	Alphaproteobacteria	Proteobacteria		Bacteria			
722472	2.3603090211274995e-05	Bradyrhizobium lablabi	Bradyrhizobium	Bradyrhizobiaceae	Rhizobiales	Alphaproteobacteria	Proteobacteria		Bacteria			
670	1.2185222276199089e-05	Vibrio parahaemolyticus	Vibrio	Vibrionaceae	Vibrionales	Gammaproteobacteria	Proteobacteria		Bacteria			Vibrio harveyi group
415015	7.401109548584704e-06	Proteiniborus ethanoligenes	Proteiniborus		Clostridiales	Clostridia	Firmicutes	Terrabacteria group	Bacteria			
78587	0.00014363004681555987	Asticcacaulis excentricus	Asticcacaulis	Caulobacteraceae	Caulobacterales	Alphaproteobacteria	Proteobacteria		Bacteria			
165813	0.0007191158251374616	Sporanaerobacter acetigenes	Sporanaerobacter	Tissierellaceae	Tissierellales	Tissierellia	Firmicutes	Terrabacteria group	Bacteria			
945	6.851435502617418e-06	Ehrlichia chaffeensis	Ehrlichia	Anaplasmataceae	Rickettsiales	Alphaproteobacteria	Proteobacteria		Bacteria			canis group
784	3.8063530570090183e-06	Orientia tsutsugamushi	Orientia	Rickettsiaceae	Rickettsiales	Alphaproteobacteria	Proteobacteria		Bacteria			
1679444	2.968955384467036e-05	Akkermansia glycaniphila	Akkermansia	Akkermansiaceae	Verrucomicrobiales	Verrucomicrobiae	Verrucomicrobia	PVC group	Bacteria			
226011	5.595325533331423e-06	Aestuariibacter halophilus	Aestuariibacter	Alteromonadaceae	Alteromonadales	Gammaproteobacteria	Proteobacteria		Bacteria			
314275	1.5670612385005214e-05	Alteromonas mediterranea	Alteromonas	Alteromonadaceae	Alteromonadales	Gammaproteobacteria	Proteobacteria		Bacteria			
2500543	0.00024944269700547526	Salmonella sp. SSDFZ69	Salmonella	Enterobacteriaceae	Enterobacterales	Gammaproteobacteria	Proteobacteria		Bacteria			
550	2.818012364358997e-05	Enterobacter cloacae	Enterobacter	Enterobacteriaceae	Enterobacterales	Gammaproteobacteria	Proteobacteria		Bacteria			Enterobacter cloacae complex
573	1.4219336766759762e-05	Klebsiella pneumoniae	Klebsiella	Enterobacteriaceae	Enterobacterales	Gammaproteobacteria	Proteobacteria		Bacteria			
2500542	0.0002100038277951083	Salmonella sp. SSDFZ54	Salmonella	Enterobacteriaceae	Enterobacterales	Gammaproteobacteria	Proteobacteria		Bacteria			
54736	4.699391735655752e-06	Salmonella bongori	Salmonella	Enterobacteriaceae	Enterobacterales	Gammaproteobacteria	Proteobacteria		Bacteria			
83655	6.82529031961809e-06	Leclercia adecarboxylata	Leclercia	Enterobacteriaceae	Enterobacterales	Gammaproteobacteria	Proteobacteria		Bacteria			
57706	4.417346564008712e-06	Citrobacter braakii	Citrobacter	Enterobacteriaceae	Enterobacterales	Gammaproteobacteria	Proteobacteria		Bacteria			Citrobacter freundii complex
632	1.3070306447601106e-05	Yersinia pestis	Yersinia	Yersiniaceae	Enterobacterales	Gammaproteobacteria	Proteobacteria		Bacteria			Yersinia pseudotuberculosis complex
633	4.228704974924866e-06	Yersinia pseudotuberculosis	Yersinia	Yersiniaceae	Enterobacterales	Gammaproteobacteria	Proteobacteria		Bacteria			Yersinia pseudotuberculosis complex
584	2.478416405610806e-05	Proteus mirabilis	Proteus	Morganellaceae	Enterobacterales	Gammaproteobacteria	Proteobacteria		Bacteria			
381741	2.9769400819771023e-06	Lactobacillus thailandensis	Lactobacillus	Lactobacillaceae	Lactobacillales	Bacilli	Firmicutes	Terrabacteria group	Bacteria			
1203069	1.0514159196934587e-05	Lactobacillus gigeriorum	Lactobacillus	Lactobacillaceae	Lactobacillales	Bacilli	Firmicutes	Terrabacteria group	Bacteria			
451	1.0937645584876738e-05	Tatlockia micdadei	Tatlockia	Legionellaceae	Legionellales	Gammaproteobacteria	Proteobacteria		Bacteria			
1304284	3.266683701074488e-06	Caldisalinibacter kiritimatiensis	Caldisalinibacter	Clostridiaceae	Clostridiales	Clostridia	Firmicutes	Terrabacteria group	Bacteria			
64897	1.4013770184566688e-05	Borreliella bissettii	Borreliella	Borreliaceae	Spirochaetales	Spirochaetia	Spirochaetes		Bacteria			
139	0.00031333259271820697	Borreliella burgdorferi	Borreliella	Borreliaceae	Spirochaetales	Spirochaetia	Spirochaetes		Bacteria			
1852381	3.4965342021559865e-05	Duodenibacillus massiliensis	Duodenibacillus	Sutterellaceae	Burkholderiales	Betaproteobacteria	Proteobacteria		Bacteria			
80869	0.0016299128432625965	Acidovorax citrulli	Acidovorax	Comamonadaceae	Burkholderiales	Betaproteobacteria	Proteobacteria		Bacteria			
487175	0.000996977913450058	Parasutterella excrementihominis	Parasutterella	Sutterellaceae	Burkholderiales	Betaproteobacteria	Proteobacteria		Bacteria			
305	9.884332735529373e-05	Ralstonia solanacearum	Ralstonia	Burkholderiaceae	Burkholderiales	Betaproteobacteria	Proteobacteria		Bacteria			
94132	5.1956032432070364e-05	Ramlibacter tataouinensis	Ramlibacter	Comamonadaceae	Burkholderiales	Betaproteobacteria	Proteobacteria		Bacteria			
80867	7.231429579577165e-05	Acidovorax avenae	Acidovorax	Comamonadaceae	Burkholderiales	Betaproteobacteria	Proteobacteria		Bacteria			
80868	1.496456420105186e-05	Acidovorax cattleyae	Acidovorax	Comamonadaceae	Burkholderiales	Betaproteobacteria	Proteobacteria		Bacteria			
862720	2.992993855965281e-06	Acidovorax oryzae	Acidovorax	Comamonadaceae	Burkholderiales	Betaproteobacteria	Proteobacteria		Bacteria			
1903263	1.1934257804592976e-05	Traorella massiliensis	Traorella	Erysipelotrichaceae	Erysipelotrichales	Erysipelotrichia	Firmicutes	Terrabacteria group	Bacteria			
174709	0.0005889644635435852	Allobaculum stercoricanis	Allobaculum	Erysipelotrichaceae	Erysipelotrichales	Erysipelotrichia	Firmicutes	Terrabacteria group	Bacteria			
285106	4.093686153460458e-06	Tepidimicrobium ferriphilum	Tepidimicrobium	Tissierellaceae	Tissierellales	Tissierellia	Firmicutes	Terrabacteria group	Bacteria			
879	0.008356686693868366	Desulfovibrio gigas	Desulfovibrio	Desulfovibrionaceae	Desulfovibrionales	Deltaproteobacteria	Proteobacteria		Bacteria			
248039	0.0026157427910534353	Mucispirillum schaedleri	Mucispirillum	Deferribacteraceae	Deferribacterales	Deferribacteres	Deferribacteres		Bacteria			
119	5.075137409346828e-06	Rubinisphaera brasiliensis	Rubinisphaera	Planctomycetaceae	Planctomycetales	Planctomycetia	Planctomycetes	PVC group	Bacteria			
477689	4.806516816118054e-06	Aliiglaciecola lipolytica	Aliiglaciecola	Alteromonadaceae	Alteromonadales	Gammaproteobacteria	Proteobacteria		Bacteria			
2071609	4.7340791922838535e-06	Alteromonas oceani	Alteromonas	Alteromonadaceae	Alteromonadales	Gammaproteobacteria	Proteobacteria		Bacteria			
673	5.3108214345833775e-06	Grimontia hollisae	Grimontia	Vibrionaceae	Vibrionales	Gammaproteobacteria	Proteobacteria		Bacteria			
1177982	4.1496017337402326e-06	Acidovorax wautersii	Acidovorax	Comamonadaceae	Burkholderiales	Betaproteobacteria	Proteobacteria		Bacteria			
2267264	7.18240811489458e-06	Alteromonas sp. RKMC-009	Alteromonas	Alteromonadaceae	Alteromonadales	Gammaproteobacteria	Proteobacteria		Bacteria			
1917158	4.239783843884109e-06	Alteromonas sp. RW2A1	Alteromonas	Alteromonadaceae	Alteromonadales	Gammaproteobacteria	Proteobacteria		Bacteria			
390877	0.0017186952818310879	Nisaea denitrificans	Nisaea	Rhodospirillaceae	Rhodospirillales	Alphaproteobacteria	Proteobacteria		Bacteria			
28082	1.0402209890952452e-05	Legionella anisa	Legionella	Legionellaceae	Legionellales	Gammaproteobacteria	Proteobacteria		Bacteria			
28108	1.1728825924613247e-05	Alteromonas macleodii	Alteromonas	Alteromonadaceae	Alteromonadales	Gammaproteobacteria	Proteobacteria		Bacteria			
226010	0.008926834558264124	Aestuariibacter salexigens	Aestuariibacter	Alteromonadaceae	Alteromonadales	Gammaproteobacteria	Proteobacteria		Bacteria			
2652380	7.550183841980308e-06	Alteromonas sp. I4	Alteromonas	Alteromonadaceae	Alteromonadales	Gammaproteobacteria	Proteobacteria		Bacteria			
1856405	3.6878463947468997e-06	Alteromonas lipolytica	Alteromonas	Alteromonadaceae	Alteromonadales	Gammaproteobacteria	Proteobacteria		Bacteria			
634436	0.00014273858024182166	Marisediminitalea aggregata	Marisediminitalea	Alteromonadaceae	Alteromonadales	Gammaproteobacteria	Proteobacteria		Bacteria			
1938339	7.667676697994824e-06	Alteromonas aestuariivivens	Alteromonas	Alteromonadaceae	Alteromonadales	Gammaproteobacteria	Proteobacteria		Bacteria			
227	9.489186706321888e-06	Pseudoalteromonas carrageenovora	Pseudoalteromonas	Pseudoalteromonadaceae	Alteromonadales	Gammaproteobacteria	Proteobacteria		Bacteria			
1858656	5.801433560082577e-06	Alteromonas pelagimontana	Alteromonas	Alteromonadaceae	Alteromonadales	Gammaproteobacteria	Proteobacteria		Bacteria			
2162	3.298848147242824e-05	Methanobacterium formicicum	Methanobacterium	Methanobacteriaceae	Methanobacteriales	Methanobacteria	Euryarchaeota	Methanomada group	Archaea			
224719	6.3439217616817285e-06	Methanobrevibacter sp. AbM4	Methanobrevibacter	Methanobacteriaceae	Methanobacteriales	Methanobacteria	Euryarchaeota	Methanomada group	Archaea			
2275	0.0018906199961517122	Desulfurococcus mucosus	Desulfurococcus	Desulfurococcaceae	Desulfurococcales	Thermoprotei	Crenarchaeota	TACK group	Archaea			
2285	1.1926580969070727e-05	Sulfolobus acidocaldarius	Sulfolobus	Sulfolobaceae	Sulfolobales	Thermoprotei	Crenarchaeota	TACK group	Archaea			
76887	0.00035741202294896156	Caldivirga maquilingensis	Caldivirga	Thermoproteaceae	Thermoproteales	Thermoprotei	Crenarchaeota	TACK group	Archaea			
971279	1.95392790260398e-05	Palaeococcus pacificus	Palaeococcus	Thermococcaceae	Thermococcales	Thermococci	Euryarchaeota		Archaea			
