abundance	species	genus	family	order	class	phylum	clade	superkingdom	subspecies	species subgroup	species group	tax_id
0.01936627146527976	Prevotella bivia	Prevotella	Prevotellaceae	Bacteroidales	Bacteroidia	Bacteroidetes	FCB group	Bacteria				28125
0.0005592549143098823	Prevotella colorans	Prevotella	Prevotellaceae	Bacteroidales	Bacteroidia	Bacteroidetes	FCB group	Bacteria				1703337
0.0006854183105332879	Prevotella timonensis	Prevotella	Prevotellaceae	Bacteroidales	Bacteroidia	Bacteroidetes	FCB group	Bacteria				386414
0.008617779836268363	Prevotella veroralis	Prevotella	Prevotellaceae	Bacteroidales	Bacteroidia	Bacteroidetes	FCB group	Bacteria				28137
0.0012130289864634395	Fannyhessea vaginae	Fannyhessea	Actinomycetaceae	Actinomycetales	Actinobacteria	Actinobacteria	Terrabacteria group	Bacteria				82135
0.00015822117210244292	Winkia neuii	Winkia	Actinomycetaceae	Actinomycetales	Actinobacteria	Actinobacteria	Terrabacteria group	Bacteria				33007
0.00014767309361756983	Olegusella massiliensis	Olegusella	Coriobacteriaceae	Coriobacteriales	Coriobacteriia	Actinobacteria	Terrabacteria group	Bacteria				1776381
0.0002215096409434201	Staphylococcus warneri	Staphylococcus	Staphylococcaceae	Bacillales	Bacilli	Firmicutes	Terrabacteria group	Bacteria				1292
0.29417500521539897	Aerococcus christensenii	Aerococcus	Aerococcaceae	Lactobacillales	Bacilli	Firmicutes	Terrabacteria group	Bacteria				87541
0.004783646775546577	Lactobacillus coleohominis	Lactobacillus	Lactobacillaceae	Lactobacillales	Bacilli	Firmicutes	Terrabacteria group	Bacteria				181675
0.0008701330049143297	Lactobacillus crispatus	Lactobacillus	Lactobacillaceae	Lactobacillales	Bacilli	Firmicutes	Terrabacteria group	Bacteria				47770
0.002508551013053754	Lactobacillus gasseri	Lactobacillus	Lactobacillaceae	Lactobacillales	Bacilli	Firmicutes	Terrabacteria group	Bacteria				1596
0.3447006355257857	Lactobacillus iners	Lactobacillus	Lactobacillaceae	Lactobacillales	Bacilli	Firmicutes	Terrabacteria group	Bacteria				147802
0.04797300539622878	Lactobacillus jensenii	Lactobacillus	Lactobacillaceae	Lactobacillales	Bacilli	Firmicutes	Terrabacteria group	Bacteria				109790
0.00032888214674795375	Lactobacillus paragasseri	Lactobacillus	Lactobacillaceae	Lactobacillales	Bacilli	Firmicutes	Terrabacteria group	Bacteria				2107999
0.00010568908491690837	Peptostreptococcaceae bacterium oral taxon 929		Peptostreptococcaceae	Clostridiales	Clostridia	Firmicutes	Terrabacteria group	Bacteria				2081703
0.0012763174549597063	Howardella ureilytica	Howardella		Clostridiales	Clostridia	Firmicutes	Terrabacteria group	Bacteria				404403
0.03421053880141954	Dialister micraerophilus	Dialister	Veillonellaceae	Veillonellales	Negativicutes	Firmicutes	Terrabacteria group	Bacteria				309120
0.018392726871191062	Dialister propionicifaciens	Dialister	Veillonellaceae	Veillonellales	Negativicutes	Firmicutes	Terrabacteria group	Bacteria				308994
0.00029010266780292985	Megasphaera elsdenii	Megasphaera	Veillonellaceae	Veillonellales	Negativicutes	Firmicutes	Terrabacteria group	Bacteria				907
0.00011731424772514015	Megasphaera hexanoica	Megasphaera	Veillonellaceae	Veillonellales	Negativicutes	Firmicutes	Terrabacteria group	Bacteria				1675036
0.00011998700386166467	Megasphaera stantonii	Megasphaera	Veillonellaceae	Veillonellales	Negativicutes	Firmicutes	Terrabacteria group	Bacteria				2144175
0.015220869045487768	Anaerococcus hydrogenalis	Anaerococcus	Peptoniphilaceae	Tissierellales	Tissierellia	Firmicutes	Terrabacteria group	Bacteria				33029
0.00018987311729017284	Anaerococcus obesiensis	Anaerococcus	Peptoniphilaceae	Tissierellales	Tissierellia	Firmicutes	Terrabacteria group	Bacteria				1287640
0.07741442770074312	Finegoldia magna	Finegoldia	Peptoniphilaceae	Tissierellales	Tissierellia	Firmicutes	Terrabacteria group	Bacteria				1260
0.0779397493279861	Peptoniphilus coxii	Peptoniphilus	Peptoniphilaceae	Tissierellales	Tissierellia	Firmicutes	Terrabacteria group	Bacteria				755172
0.00020041348466651984	Peptoniphilus duerdenii	Peptoniphilus	Peptoniphilaceae	Tissierellales	Tissierellia	Firmicutes	Terrabacteria group	Bacteria				507750
0.047769955115468936	Peptoniphilus harei	Peptoniphilus	Peptoniphilaceae	Tissierellales	Tissierellia	Firmicutes	Terrabacteria group	Bacteria				54005
0.00011602915694114942	Peptoniphilus lacrimalis	Peptoniphilus	Peptoniphilaceae	Tissierellales	Tissierellia	Firmicutes	Terrabacteria group	Bacteria				33031
0.00032699042234504873	Ureaplasma parvum	Ureaplasma	Mycoplasmataceae	Mycoplasmatales	Mollicutes	Tenericutes	Terrabacteria group	Bacteria				134821
