abundance	species	genus	family	order	class	phylum	clade	superkingdom	subspecies	species subgroup	species group	tax_id
7.141448285712343e-05	Prevotella timonensis	Prevotella	Prevotellaceae	Bacteroidales	Bacteroidia	Bacteroidetes	FCB group	Bacteria				386414
6.121241387753436e-05	Fannyhessea vaginae	Fannyhessea	Actinomycetaceae	Actinomycetales	Actinobacteria	Actinobacteria	Terrabacteria group	Bacteria				82135
0.00010542137945575362	Gemella asaccharolytica	Gemella		Bacillales	Bacilli	Firmicutes	Terrabacteria group	Bacteria				502393
5.101034642789098e-05	Aerococcus christensenii	Aerococcus	Aerococcaceae	Lactobacillales	Bacilli	Firmicutes	Terrabacteria group	Bacteria				87541
0.0001257148110722918	Lactobacillus amylovorus	Lactobacillus	Lactobacillaceae	Lactobacillales	Bacilli	Firmicutes	Terrabacteria group	Bacteria				1604
0.5026358870984604	Lactobacillus crispatus	Lactobacillus	Lactobacillaceae	Lactobacillales	Bacilli	Firmicutes	Terrabacteria group	Bacteria				47770
0.0009486850770531154	Lactobacillus gasseri	Lactobacillus	Lactobacillaceae	Lactobacillales	Bacilli	Firmicutes	Terrabacteria group	Bacteria				1596
7.100080875638899e-05	Lactobacillus helveticus	Lactobacillus	Lactobacillaceae	Lactobacillales	Bacilli	Firmicutes	Terrabacteria group	Bacteria				1587
0.4652383436682103	Lactobacillus iners	Lactobacillus	Lactobacillaceae	Lactobacillales	Bacilli	Firmicutes	Terrabacteria group	Bacteria				147802
0.018081489484391415	Lactobacillus jensenii	Lactobacillus	Lactobacillaceae	Lactobacillales	Bacilli	Firmicutes	Terrabacteria group	Bacteria				109790
0.00014629282629841165	Lactobacillus paragasseri	Lactobacillus	Lactobacillaceae	Lactobacillales	Bacilli	Firmicutes	Terrabacteria group	Bacteria				2107999
0.009586544151229157	Lactobacillus vaginalis	Lactobacillus	Lactobacillaceae	Lactobacillales	Bacilli	Firmicutes	Terrabacteria group	Bacteria				1633
5.2292260456833015e-05	Ercella succinigenes	Ercella	Hungateiclostridiaceae	Clostridiales	Clostridia	Firmicutes	Terrabacteria group	Bacteria				1337094
0.0003022204638570029	Mageeibacillus indolicus	Mageeibacillus	Hungateiclostridiaceae	Clostridiales	Clostridia	Firmicutes	Terrabacteria group	Bacteria				884684
5.357003486972645e-05	Saccharofermentans acetigenes	Saccharofermentans	Hungateiclostridiaceae	Clostridiales	Clostridia	Firmicutes	Terrabacteria group	Bacteria				319644
9.521931047616456e-05	Peptostreptococcaceae bacterium oral taxon 929		Peptostreptococcaceae	Clostridiales	Clostridia	Firmicutes	Terrabacteria group	Bacteria				2081703
3.5671306254513026e-05	Caecibacter massiliensis	Caecibacter	Veillonellaceae	Veillonellales	Negativicutes	Firmicutes	Terrabacteria group	Bacteria				1852378
0.00014964586832921835	Dialister invisus	Dialister	Veillonellaceae	Veillonellales	Negativicutes	Firmicutes	Terrabacteria group	Bacteria				218538
0.00028028293168880713	Dialister micraerophilus	Dialister	Veillonellaceae	Veillonellales	Negativicutes	Firmicutes	Terrabacteria group	Bacteria				309120
0.00016519192528196105	Dialister propionicifaciens	Dialister	Veillonellaceae	Veillonellales	Negativicutes	Firmicutes	Terrabacteria group	Bacteria				308994
0.000768459403049333	Megasphaera elsdenii	Megasphaera	Veillonellaceae	Veillonellales	Negativicutes	Firmicutes	Terrabacteria group	Bacteria				907
0.00012072637544466725	Megasphaera hexanoica	Megasphaera	Veillonellaceae	Veillonellales	Negativicutes	Firmicutes	Terrabacteria group	Bacteria				1675036
5.2703010156040193e-05	Megasphaera paucivorans	Megasphaera	Veillonellaceae	Veillonellales	Negativicutes	Firmicutes	Terrabacteria group	Bacteria				349095
0.00022968469920858946	Megasphaera stantonii	Megasphaera	Veillonellaceae	Veillonellales	Negativicutes	Firmicutes	Terrabacteria group	Bacteria				2144175
0.00017683586231287705	Parvimonas micra	Parvimonas	Peptoniphilaceae	Tissierellales	Tissierellia	Firmicutes	Terrabacteria group	Bacteria				33033
7.481517251698645e-05	Peptoniphilus harei	Peptoniphilus	Peptoniphilaceae	Tissierellales	Tissierellia	Firmicutes	Terrabacteria group	Bacteria				54005
7.481517251698645e-05	Peptoniphilus lacrimalis	Peptoniphilus	Peptoniphilaceae	Tissierellales	Tissierellia	Firmicutes	Terrabacteria group	Bacteria				33031
0.00020744206925164422	Sneathia amnii	Sneathia	Leptotrichiaceae	Fusobacteriales	Fusobacteriia	Fusobacteria		Bacteria				187101
3.7407586258493225e-05	Moraxella osloensis	Moraxella	Moraxellaceae	Pseudomonadales	Gammaproteobacteria	Proteobacteria		Bacteria				34062
