abundance	species	genus	family	order	class	phylum	clade	superkingdom	subspecies	species subgroup	species group	tax_id
0.00376448105391916	Prevotella bivia	Prevotella	Prevotellaceae	Bacteroidales	Bacteroidia	Bacteroidetes	FCB group	Bacteria				28125
0.0005523046010700478	Lancefieldella rimae	Lancefieldella	Atopobiaceae	Coriobacteriales	Coriobacteriia	Actinobacteria	Terrabacteria group	Bacteria				1383
0.0001050395267032098	Staphylococcus hominis	Staphylococcus	Staphylococcaceae	Bacillales	Bacilli	Firmicutes	Terrabacteria group	Bacteria				1290
0.00024735113901019494	Staphylococcus pasteuri	Staphylococcus	Staphylococcaceae	Bacillales	Bacilli	Firmicutes	Terrabacteria group	Bacteria				45972
0.00014521258976818907	Lactobacillus amylovorus	Lactobacillus	Lactobacillaceae	Lactobacillales	Bacilli	Firmicutes	Terrabacteria group	Bacteria				1604
0.9605835584139826	Lactobacillus crispatus	Lactobacillus	Lactobacillaceae	Lactobacillales	Bacilli	Firmicutes	Terrabacteria group	Bacteria				47770
0.00032528369142793384	Lactobacillus iners	Lactobacillus	Lactobacillaceae	Lactobacillales	Bacilli	Firmicutes	Terrabacteria group	Bacteria				147802
0.00164336031606732	Lactobacillus rhamnosus	Lactobacillus	Lactobacillaceae	Lactobacillales	Bacilli	Firmicutes	Terrabacteria group	Bacteria				47715
0.011290054789971775	Peptostreptococcus anaerobius	Peptostreptococcus	Peptostreptococcaceae	Clostridiales	Clostridia	Firmicutes	Terrabacteria group	Bacteria				1261
0.001680632405710084	Howardella ureilytica	Howardella		Clostridiales	Clostridia	Firmicutes	Terrabacteria group	Bacteria				404403
0.002954777972640454	Dialister invisus	Dialister	Veillonellaceae	Veillonellales	Negativicutes	Firmicutes	Terrabacteria group	Bacteria				218538
0.009445290308259231	Dialister micraerophilus	Dialister	Veillonellaceae	Veillonellales	Negativicutes	Firmicutes	Terrabacteria group	Bacteria				309120
0.001515974568376673	Dialister propionicifaciens	Dialister	Veillonellaceae	Veillonellales	Negativicutes	Firmicutes	Terrabacteria group	Bacteria				308994
0.0001795837792598306	Megasphaera elsdenii	Megasphaera	Veillonellaceae	Veillonellales	Negativicutes	Firmicutes	Terrabacteria group	Bacteria				907
0.0015484859060675574	Anaerococcus hydrogenalis	Anaerococcus	Peptoniphilaceae	Tissierellales	Tissierellia	Firmicutes	Terrabacteria group	Bacteria				33029
0.0006336255239269874	Finegoldia magna	Finegoldia	Peptoniphilaceae	Tissierellales	Tissierellia	Firmicutes	Terrabacteria group	Bacteria				1260
0.00322234156820623	Peptoniphilus harei	Peptoniphilus	Peptoniphilaceae	Tissierellales	Tissierellia	Firmicutes	Terrabacteria group	Bacteria				54005
0.0001626418457138791	Aquabacterium olei	Aquabacterium		Burkholderiales	Betaproteobacteria	Proteobacteria		Bacteria				1296669
