family	theoretical	Emu	Minimap2	Kraken2	Bracken
Aerococcaceae	0.049418887	0.03729634506643563	0.04354674658613114	0.09971152663057191	0.136
Akkermansiaceae	0.003132183		0.0008463148629816237	7.30219894768011e-05	
Alteromonadaceae	0.924318802	0.863188732533601	0.8468021351754587	0.8597609040998562	0.333
Anaplasmataceae	0.000649638	0.0006676777704903888	0.0007950230531039496	0.035671241859417335	0.012
Azospirillaceae	0.0		0.0007693771481651125	0.01854758532710748	0.006
Bacteroidaceae	3.242064606	1.9903920197945908	2.3478825971503774	2.019131031023027	6.127
Barnesiellaceae	0.493028805	0.42758643171925725	0.46434475482256204	0.37752368559506166	0.101
Bdellovibrionaceae	0.0017169	0.0015905863563269282	0.0016926297259632474	0.004089231410700861	0.001
Blastochloridaceae	6.96e-05		7.693771481651125e-05	0.001204862826367218	0.0
Borreliaceae	0.032365891	0.03274189066827	0.03290369603652107	0.04691662823884471	0.039
Bradyrhizobiaceae	0.072805853	0.06649912995405859	0.06272988348039103	0.12928543236867635	0.022000000000000002
Burkholderiaceae	0.009744569	0.007925913910542468	0.009694152066880417	0.14246590146923893	0.196
Carnobacteriaceae	0.079557448	0.05502205619735732	0.07278307821641444	0.2899703202123772	0.344
Caulobacteraceae	0.01438484	0.01325611729577	0.013977018191666208	0.06725325230813381	0.002
Christensenellaceae	0.000394423	0.0004127887533483132	0.0005385640037155787	0.002884368584333643	0.0
Clostridiaceae	0.950513132	1.761260824000236	1.700092684300383	2.836101049289478	3.58
Comamonadaceae	0.17825601400000002	0.16404920424111671	0.16023561405783857	0.19796261347160776	0.305
Coprobacillaceae	0.001044061	0.0010174065448725748	0.0020003805852292925	0.01197560627419538	0.012
Coriobacteriaceae	1.156100345	1.1494500687732696	1.1724538360887722	1.531818784249595	0.461
Deferribacteraceae	0.261247263	0.26186888370715	0.16605723447896537	0.02508305338528118	0.48700000000000004
Desulfomicrobiaceae	0.002343337	0.0013056095212337117	0.0021542560148623147	0.01599181569541944	0.011000000000000001
Desulfovibrionaceae	1.191598418	1.1864572863321552	1.182994303018663	1.3520386461577107	1.269
Desulfurococcaceae	0.187049328	0.19089197508498	0.1864970207152148	0.15772749726989035	0.008
Dysgonomonadaceae	0.000904853		0.0017695674407797585	0.038263522485843776	0.023
Eggerthellaceae	3.596906145	3.614087477792965	3.5232600664023663	2.5605160610040305	0.079
Enterobacteriaceae	0.061437189	0.053335468570188296	0.05554903009751409	0.2668588605429696	0.477
Enterococcaceae	0.453122473	0.3997783655856636	0.3565037245547556	0.8298949104038444	1.155
Erwiniaceae	0.026983176	0.026941170633479512	0.02790274457344627	0.06294495492900255	0.06999999999999999
Erysipelotrichaceae	1.036497353	0.8567747805016093	0.8183864725031844	0.31757263223460797	0.186
Eubacteriaceae	0.03972072	0.054986671218111224	0.38827900077394895	0.6198106466790877	0.345
Eubacteriales Family XII. Incertae Sedis	0.148488675	0.14272420022140958	0.139000804768486	0.1252692229474523	0.027
Eubacteriales Family XIII. Incertae Sedis	0.267511629	0.2593329623480026	0.257741344635306	0.38252569187422253	0.042
Helicobacteraceae	0.03858385	0.03882803016649	0.03905871322184045	0.06436888372380017	0.045
Lachnospiraceae	23.972058141	20.188371467485318	20.176607959770465	14.898859067925418	6.3149999999999995
Lactobacillaceae	24.885379497	23.812777493605196	23.60372152855725	25.226249506645182	27.789
Legionellaceae	0.002296934	0.002282661213636643	0.0025132986840060343	0.021504975900917923	0.02
Leptospiraceae	0.008074071	0.008063505683827594	0.008257981390305539	0.015736238732250638	0.012
Marinilabiliaceae	0.00324819	0.0032893274229244198	0.004359803839602304	0.022308217785162735	0.006999999999999999
Mesoaciditogaceae	0.043618548	0.04388613248383	0.022619688156049998	0.007521264916110513	0.002
Methanobacteriaceae	0.0038746270000000003	0.0037422460255724464	0.0030005708778439387	0.0032494785317176487	0.001
Methanosarcinaceae	2.32e-05		2.564590493883708e-05	0.0004381319368608066	0.0
Morganellaceae	0.002157726	0.0014419273549351936	0.0018721510605351067	0.04527363347561668	0.027999999999999997
Mycoplasmataceae	0.688848245	0.6986880622434187	0.6985431587240332	0.9978089752057486	0.7250000000000001
Nitrosopumilaceae	2.32e-05		2.564590493883708e-05	7.30219894768011e-05	
Odoribacteraceae	2.402639572	2.310458350971159	2.304617955518707	2.0254474331127703	0.016
Oscillospiraceae	6.0527000200000005	4.851291325217293	5.1244108494486165	2.9259180963459435	2.6550000000000002
Peptococcaceae	0.000672839	0.0015063342990206188	0.006360184424831597	0.159699090985764	0.154
Peptostreptococcaceae	0.329273636	0.20574892383805565	0.30385268171533386	0.3000108437654373	0.20400000000000001
Planctomycetaceae	0.000487228	0.00046218313631532054	0.000666793528409764	0.004819451305468872	0.048
Porphyromonadaceae	1.216516674	1.1697717916887422	1.2610604376524484	1.8990098583336894	1.226
Prevotellaceae	19.005993606	18.81579815163627	18.211593077451983	18.123692678194647	10.438
Prolixibacteraceae	0.003897828	0.0036435426669995485	0.004539325174174162	0.020482668048242707	0.013999999999999999
Proteinivoraceae	0.040602372	0.03854131634374	0.03952033951074347	0.04202415494389903	0.0
Pseudoalteromonadaceae	0.000997658	0.0005204983464612618	0.003795593930947888	0.07324105544523149	0.248
Rhodospirillaceae	0.0	0.000526709712728814	0.004795784223562535	0.016429947632280246	0.0
Rickettsiaceae	0.00034802	0.0003338388852451944	0.0003590426691437191	0.01131840836890417	0.005
Rikenellaceae	1.231295937	0.997839725945374	1.003524260256619	0.5401801671546361	0.029
Robiginitomaculaceae	0.129695577	0.12823538103322998	0.12525459972128	0.07565078109796593	0.0
Ruminococcaceae	0.000603236				
Selenomonadaceae	0.093501463	0.01371300550691266	0.03795593930947508	0.07408080832421471	0.05
Staphylococcaceae	0.000417624	0.0017534817501914924	0.007001332048302523	1.0118657081800329	1.373
Streptococcaceae	0.053479123999999996	0.06295233032332596	0.125998330964491	0.9707178171098554	1.208
Sulfolobaceae	0.001160068	0.0012326358840233846	0.0011284198173088316	0.004089231410700861	0.0
Sutterellaceae	0.10382606600000001	0.09181880737212524	0.07234709783245465	0.012194672242625782	0.24
Tannerellaceae	1.52641718	0.8700990955659886	0.9179695213806877	0.6080175953785844	0.232
Thalassobaculaceae	0.173082112	0.16137403596372	0.13346128930170173	0.06948042298717624	0.0
Thermococcaceae	0.001948914	0.0019516734829719056	0.0020003805852292925	0.0021176376948272317	0.011000000000000001
Thermohalobacteraceae	3.377421322	3.288229414569034	3.1372635511679277	1.5436118355500983	0.79
Thermoproteaceae	0.035730087	0.03615611657232	0.03610943415387419	0.0466245402809375	0.044000000000000004
Tissierellaceae	0.071460175	0.0413257669479	0.03949469360580251	0.015772749726989038	0.006
Veillonellaceae	0.009164535	0.004870561737074951	0.20083308157602275	0.1388148019953989	0.133
Vibrionaceae	0.000232014		0.001590046106207899	0.11570334232599135	0.11900000000000001
Xanthobacteraceae	0.000394423	0.00028494975454159224	0.00046162628889906746	0.005148050258114477	0.0
Yersiniaceae	0.001299276	0.0012069684831847785	0.001615692011146736	0.05115190362849917	0.105
Atopobiaceae		0.0007458960232403333	0.0043085120297246295	0.11555729834703773	0.787
Bacillaceae		0.022122827328979727	0.09730056333794634	6.068638479448508	8.295
Bifidobacteriaceae		0.0004304692588781569	0.0010771280074311574	0.041586023007038224	0.02
Flavobacteriaceae		0.000507858823397145	0.0025132986840060343	0.5315635723963736	0.335
Listeriaceae		0.0003749629795775717	0.0016669838210244103	0.04461643557032547	0.03
Methylobacteriaceae		0.0003669916174862368	0.0008719607679204608	0.050312150749515956	0.008
Microcoleaceae		0.0006423540773087498	0.0012566493420030171	0.00861659475826253	0.003
Paenibacillaceae		0.0016618673095636766	0.00923252577798135	0.7290150319416437	0.7040000000000001
Pseudomonadaceae		0.0013475778790640043	0.003257029927232309	0.5292268687331159	0.803
Sphingobacteriaceae		0.0003807802505791645	0.001897796965473944	0.14859974858529024	0.16
Sphingomonadaceae		0.00043002554054962124	0.001974734680290455	0.08214973816140124	0.045
Symbiobacteriaceae		0.0004297063044412476	0.0007180853382874384	0.02782137799066122	0.027999999999999997
Synechococcaceae		0.0004166736547363056	0.0007950230531039496	0.038044456517413366	0.003
Syntrophomonadaceae		0.0004511520590605516	0.0020773183000458036	0.01862060731658428	0.013
Verrucomicrobiaceae		0.0015412755774879122	0.0017695674407797587	0.0064989570634352975	0.008
Acaryochloridaceae			5.129180987767416e-05	0.0014239287947976215	0.0
Acetobacteraceae			0.0007693771481651125	0.05524113503920003	0.015
Acholeplasmataceae			0.0018465051555962698	0.09759388893574467	0.056999999999999995
Acidaminococcaceae			0.00010258361975534832	0.012742337163701791	0.012
Acidimicrobiaceae			0.0001795213345718596	0.0014969507842744225	0.004
Acidithiobacillaceae			0.0001282295246941854	0.025484674327403582	0.06
Acidobacteriaceae			0.0007180853382874382	0.03070574657499486	0.031
Actinomycetaceae			0.000333396764204882	0.030888301548686867	0.021
Actinopolysporaceae			2.564590493883708e-05	0.0007302198947680109	0.018000000000000002
Aeromonadaceae			0.0002564590493883708	0.05082330467585356	0.091
Alcaligenaceae			0.0009232525777981349	0.09240932768289178	0.06999999999999999
Alcanivoracaceae			0.00015387542963302248	0.02614187223269479	0.048
Alicyclobacillaceae			0.0007693771481651125	0.02322099265362275	0.029
Amoebophilaceae			2.564590493883708e-05	0.006279891095004895	0.001
Anaerolineaceae			2.564590493883708e-05	0.005878270152882488	0.002
Anaeromyxobacteraceae			0.00017952133457185956	0.0019715937158736297	0.002
Anaeroplasmataceae			5.129180987767416e-05	0.0003285989526456049	
Aphanizomenonaceae			0.0005129180987767417	0.02051917904298111	0.049
Aphanothecaceae			2.564590493883708e-05	0.0008762638737216132	0.0
Aquificaceae			0.00020516723951069664	0.0055496712002368834	0.005
Archangiaceae			2.564590493883708e-05	0.005914781147620889	0.006
Arcobacteraceae			0.00012822952469418542	0.008726127742477732	0.009000000000000001
Aurantimonadaceae			2.564590493883708e-05	0.002519258636949638	0.0
Bacteriovoracaceae			0.000666793528409764	0.016356925642803444	0.009000000000000001
Bartonellaceae			5.129180987767416e-05	0.0019350827211352289	0.0
Beijerinckiaceae			7.693771481651125e-05	0.0023367036632576353	0.0
Blattabacteriaceae			2.564590493883708e-05	0.007813352874017718	0.0
Bonnemaisoniaceae			2.564590493883708e-05		
Boseaceae			0.0001282295246941854	0.0021541486895656323	0.0
Brachyspiraceae			5.129180987767416e-05	0.0014604397895360219	0.0
Brucellaceae			0.00017952133457185956	0.026799070137986002	0.045
Caedimonadaceae			5.129180987767416e-05	0.00010953298421520166	
Caldicoprobacteraceae			0.0001282295246941854	0.0002190659684304033	
Caldilineaceae			7.693771481651125e-05	0.0031034345527640463	0.0
Calditrichaceae			0.00012822952469418542	0.001131840836890417	0.0
Callithamniaceae			2.564590493883708e-05	0.0001460439789536022	
Calotrichaceae			5.129180987767416e-05	0.003943187431747259	0.0
Campylobacteraceae			0.00010258361975534832	0.014202776953237814	0.009000000000000001
Candidatus Competibacteraceae			0.0001538754296330225	0.0006206869105528093	0.001
Candidatus Midichloriaceae			2.564590493883708e-05	0.001204862826367218	0.016
Cardiobacteriaceae			0.00010258361975534832	0.0013509068053208203	0.0
Catenulisporaceae			2.564590493883708e-05	0.0002555769631688038	
Cellulomonadaceae			2.564590493883708e-05	0.008945193710908133	0.0
Chelatococcaceae			2.564590493883708e-05	0.001131840836890417	0.0
Chitinophagaceae			0.0002564590493883708	0.020957310979841916	0.078
Chlamydiaceae			7.693771481651125e-05	0.003468544500148052	0.003
Chlorobiaceae			0.0001538754296330225	0.005513160205498483	0.001
Chloroflexaceae			0.0001538754296330225	0.00463689633177687	0.003
Chromatiaceae			0.0008719607679204607	0.014129754963761012	0.027
Chromobacteriaceae			0.0004103344790213933	0.016831568574402652	0.002
Chroococcidiopsidaceae			2.564590493883708e-05	0.0012413738211056187	0.0
Chrysiogenaceae			2.564590493883708e-05	0.0008032418842448121	0.0
Clostridiales Family XVI. Incertae Sedis			0.00010258361975534832	0.004709918321253671	0.011000000000000001
Clostridiales Family XVII. Incertae Sedis			5.129180987767416e-05	0.02351308061152995	0.018000000000000002
Coleofasciculaceae			7.693771481651125e-05	0.0011683518316288177	0.0
Colwelliaceae			0.0002821049543272079	0.007375220937156911	0.006999999999999999
Conexibacteraceae			2.564590493883708e-05	0.0012413738211056187	0.022000000000000002
Coprothermobacteraceae			0.0001538754296330225	0.0028113465948568423	0.003
Corynebacteriaceae			7.693771481651125e-05	0.0332250052119445	0.023
Coxiellaceae			0.00017952133457185956	0.006352913084481695	0.023
Criblamydiaceae			5.129180987767416e-05	7.30219894768011e-05	
Crocinitomicaceae			0.00017952133457185953	0.02453538846420517	0.02
Cryomorphaceae			0.00020516723951069664	0.0066084900476505	0.001
Cryptomonadaceae			2.564590493883708e-05		
Cyanothecaceae			7.693771481651125e-05	0.001204862826367218	0.0
Cyclobacteriaceae			0.000333396764204882	0.028551597885429228	0.0
Cynomoriaceae			2.564590493883708e-05	3.651099473840055e-05	
Cytophagaceae			0.0011797116271865056	0.09620647113568545	0.034999999999999996
Defluviitaleaceae			0.00023081314444953373		
Dehalococcoidaceae			2.564590493883708e-05	0.0025922806264264387	0.002
Deinococcaceae			0.00010258361975534832	0.00858008376352413	0.002
Dermabacteraceae			5.129180987767416e-05	0.008287995805616925	0.001
Dermacoccaceae			2.564590493883708e-05	0.0010588188474136158	0.0
Desulfallaceae			0.0001282295246941854	0.0011683518316288177	0.001
Desulfoarculaceae			2.564590493883708e-05	0.0014604397895360219	0.001
Desulfobacteraceae			0.00010258361975534832	0.01471393087957542	0.013999999999999999
Desulfobulbaceae			0.0003590426691437191	0.015772749726989038	0.013999999999999999
Desulfocapsaceae			2.564590493883708e-05	0.0018985717263968285	0.018000000000000002
Desulfohalobiaceae			0.0001282295246941854	0.0036876104685784556	0.004
Desulfonatronaceae			7.693771481651125e-05	0.0015699727737512237	0.367
Desulfurellaceae			5.129180987767416e-05	0.0007667308895064115	0.001
Desulfurobacteriaceae			7.693771481651125e-05	0.0009492858631984142	0.002
Desulfuromonadaceae			0.0002821049543272079	0.005732226173928886	0.006999999999999999
Devosiaceae			0.00010258361975534832	0.0031764565422408475	0.0
Dietziaceae			0.0001282295246941854	0.0061703581107896924	0.001
Ectothiorhodospiraceae			7.693771481651125e-05	0.007667308895064115	0.008
Elusimicrobiaceae			2.564590493883708e-05	0.0007302198947680109	0.005
Entomoplasmataceae			2.564590493883708e-05	0.0013874178000592209	0.006999999999999999
Erythrobacteraceae			0.0002564590493883708	0.010259589521490555	0.0
Euglenaceae			2.564590493883708e-05	7.30219894768011e-05	
Fastidiosibacteraceae			2.564590493883708e-05	0.0006571979052912098	0.001
Fervidobacteriaceae			2.564590493883708e-05	0.0013509068053208203	0.045
Fibrobacteraceae			0.0002821049543272079	0.015006018837482624	0.019
Filobasidiaceae			0.00025645904938837084		
Flammeovirgaceae			0.00012822952469418542	0.007302198947680109	0.004
Flexibacteraceae			0.00017952133457185956	0.011062831405735366	0.008
Francisellaceae			0.00012822952469418542	0.0037606324580552563	0.004
Frankiaceae			0.00015387542963302248	0.001789038742181627	0.001
Fulvivirgaceae			7.693771481651125e-05	0.0017160167527048259	0.0
Fusobacteriaceae			0.0020003805852292925	0.020884288990365114	0.013999999999999999
Gallionellaceae			7.693771481651125e-05	0.013107447111085796	0.004
Gemmatimonadaceae			5.129180987767416e-05	0.0032859895264560493	0.015
Geobacteraceae			0.0008463148629816237	0.016831568574402652	0.017
Geodermatophilaceae			5.129180987767416e-05	0.0071196439739881065	0.0
Gloeobacteraceae			2.564590493883708e-05	0.0005476649210760082	0.0
Gloeotrichiaceae			2.564590493883708e-05	3.651099473840055e-05	
Glycomycetaceae			5.129180987767416e-05	0.0014604397895360219	0.0
Gordoniaceae			0.00010258361975534832	0.005659204184452085	0.008
Gottschalkiaceae			0.001538754296330225	0.0005841759158144088	0.011000000000000001
Gracilibacteraceae			0.0005385640037155787	0.0029208795790720437	0.003
Hafniaceae			7.693771481651125e-05	0.0016795057579664253	0.002
Halanaerobiaceae			0.0003590426691437192	0.007886374863494519	0.004
Haliscomenobacteraceae			5.129180987767416e-05	0.001131840836890417	0.001
Halobacteriovoraceae			5.129180987767416e-05	7.30219894768011e-05	
Halobacteroidaceae			0.0004872721938379045	0.010515166484659357	0.002
Halomonadaceae			0.000307750859266045	0.05611739891292165	0.03
Haloplasmataceae			5.129180987767416e-05	0.00036510994738400546	0.001
Halothiobacillaceae			7.693771481651125e-05	0.0006937089000296104	0.0
Hapalosiphonaceae			2.564590493883708e-05	0.005257583242329679	0.0
Heliobacteriaceae			0.0001282295246941854	0.01865711831132268	0.003
Holophagaceae			7.693771481651125e-05	0.0020081047106120303	0.002
Holosporaceae			7.693771481651125e-05	0.0007302198947680109	0.0
Hydrogenothermaceae			2.564590493883708e-05	0.002373214657996036	0.001
Hymenobacteraceae			0.00010258361975534832	0.012450249205794586	0.002
Hyphomicrobiaceae			0.00020516723951069664	0.01193909527945698	0.004
Hyphomonadaceae			0.0005385640037155787	0.0039796984264856596	0.0
Idiomarinaceae			0.0006924394333486012	0.011537474337334572	0.033
Ignavibacteriaceae			0.00010258361975534832	0.0012413738211056187	0.001
Intrasporangiaceae			5.129180987767416e-05	0.012085139258410583	0.001
Isosphaeraceae			2.564590493883708e-05	0.0008762638737216132	0.001
Kaistiaceae			7.693771481651125e-05	0.0008032418842448121	0.0
Kangiellaceae			2.564590493883708e-05	0.0013874178000592209	0.001
Kineosporiaceae			2.564590493883708e-05	0.002190659684304033	0.0
Kofleriaceae			7.693771481651125e-05	0.0032129675369792486	0.004
Kordiimonadaceae			5.129180987767416e-05	0.0005841759158144088	0.0
Kribbellaceae			5.129180987767416e-05	0.0034320335054096518	0.001
Ktedonobacteraceae			2.564590493883708e-05	0.001204862826367218	0.0
Leptolyngbyaceae			0.000307750859266045	0.009091237689861736	0.002
Leptotrichiaceae			0.0001538754296330225	0.004454341358084867	0.009000000000000001
Lewinellaceae			5.129180987767416e-05	0.005659204184452085	0.0
Limnochordaceae			0.00010258361975534832	3.651099473840055e-05	
Lumbricoplasmataceae			0.00010258361975534832	0.003797143452793657	0.0
Magnetococcaceae			0.00010258361975534832	0.006352913084481695	0.001
Maricaulaceae			0.0001282295246941854	0.0028113465948568423	0.0
Marinifilaceae			0.0001282295246941854	0.0005476649210760082	6.715
Marinobacteraceae			0.00017952133457185956	0.019131761242921888	0.009000000000000001
Marivirgaceae			0.00010258361975534832	0.002190659684304033	0.006
Merismopediaceae			0.0001282295246941854	0.0032129675369792486	0.0
Methanomicrobiaceae			0.00010258361975534832	0.0002920879579072044	
Methylococcaceae			7.693771481651125e-05	0.011427941353119371	0.012
Methylocystaceae			7.693771481651125e-05	0.006316402089743295	0.004
Methylophilaceae			0.00017952133457185956	0.005841759158144087	0.003
Microbacteriaceae			0.001538754296330225	0.1475409297378766	0.073
Microbulbiferaceae			0.0006924394333486012	0.001204862826367218	0.0
Micrococcaceae			0.0008463148629816237	0.2054473673929799	0.212
Microcystaceae			7.693771481651125e-05	0.010624699468874559	0.004
Micromonosporaceae			0.00010258361975534832	0.02267332773254674	0.017
Microscillaceae			2.564590493883708e-05	0.0007667308895064115	0.0
Moraxellaceae			0.000974544387675809	0.10164660935170712	0.11399999999999999
Moritellaceae			5.129180987767416e-05	0.002555769631688038	0.003
Mycobacteriaceae			0.0005385640037155787	0.03851909944901258	0.006999999999999999
Mycoplasmoidaceae			0.00010258361975534832	0.00040162094212240607	0.14200000000000002
Myxococcaceae			7.693771481651125e-05	0.004855962300207273	0.003
Natranaerobiaceae			0.0002564590493883708	0.002190659684304033	0.0
Nautiliaceae			2.564590493883708e-05	0.0002555769631688038	
Neisseriaceae			0.0006924394333486012	0.023074948674669145	0.019
Nitrosomonadaceae			0.00017952133457185956	0.018292008363938676	0.149
Nitrospinaceae			2.564590493883708e-05	0.0010223078526752152	0.001
Nitrospiraceae			0.00038468857408255623	0.01599181569541944	0.018000000000000002
Nocardiaceae			0.0005898558135932528	0.10595490673083838	0.046
Nocardioidaceae			0.0001282295246941854	0.011500963342596173	0.003
Nocardiopsaceae			0.0001538754296330225	0.024133767522082763	0.012
Nostocaceae			0.0009488984827369719	0.028953218827551634	0.005
Oceanospirillaceae			0.00023081314444953373	0.022271706790424332	0.011000000000000001
Oculatellaceae			7.693771481651125e-05	0.0006571979052912098	0.0
Orbaceae			2.564590493883708e-05	0.0009127748684600136	0.001
Oscillatoriaceae			0.00020516723951069664	0.0132534910900394	0.004
Oxalobacteraceae			0.0005385640037155787	0.03709517065421496	0.076
Palmariaceae			2.564590493883708e-05		
Paludibacteraceae			0.000974544387675809	0.01533461779012823	0.001
Pasteurellaceae			0.0004872721938379045	0.017050634542833055	0.009000000000000001
Pasteuriaceae			0.0001282295246941854	0.008835660726692932	0.005
Pectobacteriaceae			0.0001282295246941854	0.011281897374165769	0.01
Peptoniphilaceae			0.0025389445889448707	0.06312750990269454	0.257
Phyllobacteriaceae			0.0005385640037155787	0.036876104685784554	0.13699999999999998
Piscirickettsiaceae			0.0002821049543272079	0.013034425121608996	0.01
Planococcaceae			0.001923442870412781	0.12742337163701792	0.124
Pleurastraceae			2.564590493883708e-05		
Polyangiaceae			7.693771481651125e-05	0.005476649210760082	0.005
Prochlorococcaceae			0.0002821049543272079	0.008507061774047328	0.006999999999999999
Prochlorotrichaceae			5.129180987767416e-05	0.0008397528789832126	0.0
Promicromonosporaceae			0.00010258361975534832	0.015517172763820234	0.005
Propionibacteriaceae			0.0008206689580427866	0.026945114116939603	0.019
Pseudanabaenaceae			0.0001282295246941854	0.0020081047106120303	0.0
Pseudonocardiaceae			7.693771481651125e-05	0.039212808349042186	0.008
Puniceicoccaceae			7.693771481651125e-05	0.0008397528789832126	0.005
Pycnococcaceae			2.564590493883708e-05		
Pyrodictiaceae			5.129180987767416e-05	0.0006571979052912098	0.0
Reichenbachiellaceae			2.564590493883708e-05	0.0005841759158144088	0.0
Rhizobiaceae			0.0017182756309020845	0.1407133737217957	0.11900000000000001
Rhodanobacteraceae			0.00010258361975534832	0.010515166484659357	0.015
Rhodobacteraceae			0.0007950230531039496	0.03603635180680134	0.017
Rhodobiaceae			2.564590493883708e-05	0.001204862826367218	0.0
Rhodocyclaceae			0.0002821049543272079	0.01664901360071065	0.019
Rhodothermaceae			0.00010258361975534832	0.005403627221283281	0.025
Roseiflexaceae			2.564590493883708e-05	0.0010953298421520164	0.0
Roseivirgaceae			5.129180987767416e-05	0.0005111539263376076	0.0
Roseobacteraceae			0.0005129180987767416	0.027711845006446016	0.013
Rubrobacteraceae			0.00023081314444953373	0.006133847116051292	0.126
Salinisphaeraceae			0.00010258361975534832	0.001789038742181627	0.001
Salisaetaceae			2.564590493883708e-05		
Saprospiraceae			0.0004872721938379046	0.017525277474432263	0.0
Schleiferiaceae			0.00023081314444953373	0.012304205226840984	0.012
Scytonemataceae			0.00010258361975534832	0.002263681673780834	0.0
Shewanellaceae			0.0002821049543272079	0.04311948478605104	0.083
Solirubrobacteraceae			7.693771481651125e-05	0.0008762638737216132	0.001
Sphingosinicellaceae			2.564590493883708e-05	0.0006937089000296104	0.0
Spirochaetaceae			0.0003590426691437191	0.01865711831132268	0.041
Spiroplasmataceae			0.00010258361975534832	0.011610496326811375	0.009000000000000001
Spirosomaceae			0.00017952133457185953	0.019058739253445086	0.002
Sporolactobacillaceae			0.00017952133457185956	0.005367116226544881	0.345
Sporomusaceae			0.0011027739123699945	0.009821457584629748	0.005
Stappiaceae			0.0002564590493883708	0.002738324605380041	0.0
Sterolibacteriaceae			5.129180987767416e-05	0.0017525277474432265	0.001
Stigonemataceae			5.129180987767416e-05	0.0009857968579368148	0.0
Streptomycetaceae			0.0026928200185778934	0.4237100939391384	1.0030000000000001
Streptosporangiaceae			2.564590493883708e-05	0.009565880621460944	0.003
Succinivibrionaceae			0.00023081314444953373	0.0033590115159328506	0.0
Symphyonemataceae			2.564590493883708e-05	0.0002555769631688038	
Synergistaceae			0.000307750859266045	0.006571979052912099	0.008
Syntrophaceae			0.0002821049543272079	0.005914781147620889	0.017
Syntrophobacteraceae			5.129180987767416e-05	0.014056732974284211	0.003
Syntrophorhabdaceae			2.564590493883708e-05	0.0008032418842448121	0.001
Thalassospiraceae			7.693771481651125e-05	0.0029208795790720437	0.0
Thermaceae			2.564590493883708e-05	0.0032859895264560493	0.001
Thermoactinomycetaceae			0.00046162628889906746	0.010077034547798552	0.004
Thermoanaerobacteraceae			0.0012053575321253427	0.032969428248775696	0.025
Thermoanaerobacterales Family III. Incertae Sedis			0.00038468857408255623	0.006206869105528093	0.018000000000000002
Thermoanaerobacterales Family IV. Incertae Sedis			2.564590493883708e-05		
Thermodesulfobacteriaceae			7.693771481651125e-05	0.0027748356001184417	0.004
Thermodesulfovibrionaceae			5.129180987767416e-05	0.0012413738211056187	0.0
Thermomonosporaceae			2.564590493883708e-05	0.011866073289980178	0.005
Thermonemataceae			5.129180987767416e-05	0.0001460439789536022	
Thermosediminibacteraceae			0.0001538754296330225	0.00040162094212240607	3.4709999999999996
Thermotogaceae			0.02123480928935186	0.0016429947632280247	0.001
Thioalkalispiraceae			2.564590493883708e-05	0.00018255497369200273	
Thiobacillaceae			7.693771481651125e-05	0.008908682716169734	0.018000000000000002
Thiotrichaceae			0.000333396764204882	0.010259589521490555	0.003
Tolypothrichaceae			2.564590493883708e-05	0.0007302198947680109	0.0
Treponemataceae			0.00061550171853209	0.03530613191203333	0.023
Trichocoleusaceae			2.564590493883708e-05		
Tsukamurellaceae			7.693771481651125e-05	0.0012413738211056187	0.001
Turicibacteraceae			0.00020516723951069664	0.010296100516228954	0.019
Vallitaleaceae			0.0001538754296330225	0.0011683518316288177	0.001
Verrucomicrobia subdivision 3			2.564590493883708e-05	0.0004381319368608066	0.0
Weeksellaceae			0.0007693771481651125	0.09197119574603098	0.07100000000000001
Xanthomonadaceae			0.00061550171853209	0.11033622609944646	0.097
Xenococcaceae			0.00010258361975534832	0.0005111539263376076	0.0
Zoogloeaceae			0.00020516723951069664	0.014385331926929817	0.015
Zymomonadaceae			2.564590493883708e-05	0.0001460439789536022	
Bacillales Family X. Incertae Sedis				0.0007667308895064115	0.0
Thermodesulfobiaceae				0.0016064837684896243	0.0
Tepidanaerobacteraceae				0.0007667308895064115	0.001
Thermolithobacteraceae				7.30219894768011e-05	
Brevibacteriaceae				0.010880276432043364	0.003
Ornithinimicrobiaceae				0.001204862826367218	0.0
Bogoriellaceae				0.0008032418842448121	0.0
Sanguibacteraceae				0.0005476649210760082	0.0
Kytococcaceae				0.00040162094212240607	0.0
Tropherymataceae				0.00040162094212240607	0.0
Jonesiaceae				0.0002920879579072044	
Beutenbergiaceae				0.0002555769631688038	
Dermatophilaceae				0.0002190659684304033	
Rarobacteraceae				7.30219894768011e-05	
Segniliparaceae				3.651099473840055e-05	
Actinopolymorphaceae				0.0002190659684304033	
Candidatus Nanopelagicaceae				0.0017525277474432265	0.002
Jiangellaceae				0.0002920879579072044	
Sporichthyaceae				0.0002920879579072044	
Cryptosporangiaceae				0.0001460439789536022	
Nakamurellaceae				7.30219894768011e-05	
Acidothermaceae				3.651099473840055e-05	
Motilibacteraceae				3.651099473840055e-05	
Gaiellaceae				7.30219894768011e-05	
Microthrixaceae				0.0008032418842448121	0.0
Ilumatobacteraceae				0.0001460439789536022	
Patulibacteraceae				0.0002920879579072044	
Thermoleophilaceae				0.0001460439789536022	
Nitriliruptoraceae				0.0002555769631688038	
Euzebyaceae				3.651099473840055e-05	
Rivulariaceae				0.0009492858631984142	0.0
Fortieaceae				0.00010953298421520166	
Prochloraceae				0.0005111539263376076	0.0
Gomontiellaceae				0.0005841759158144088	0.0
Laspinemaceae				3.651099473840055e-05	
Chroococcaceae				0.0031034345527640463	0.0
Geminocystaceae				0.0007302198947680109	0.0
Entophysalidaceae				7.30219894768011e-05	
Cyanothrichaceae				3.651099473840055e-05	
Gomphosphaeriaceae				3.651099473840055e-05	
Schizotrichaceae				3.651099473840055e-05	
Thermosynechococcaceae				3.651099473840055e-05	
Dermocarpellaceae				0.00040162094212240607	0.0
Hyellaceae				0.0002555769631688038	
Spirulinaceae				0.0016795057579664253	0.001
Thermostichaceae				3.651099473840055e-05	
Oscillochloridaceae				7.30219894768011e-05	
Herpetosiphonaceae				0.0001460439789536022	
Thermosporotrichaceae				0.0002190659684304033	
Thermogemmatisporaceae				7.30219894768011e-05	
Sphaerobacteraceae				0.00018255497369200273	
Thermomicrobiaceae				0.00010953298421520166	
Thermoflexaceae				7.30219894768011e-05	
Trueperaceae				0.00010953298421520166	
Fimbriimonadaceae				3.651099473840055e-05	
Balneicellaceae				0.013655112032161803	0.013999999999999999
Salinivirgaceae				0.0002920879579072044	
Ichthyobacteriaceae				0.0002920879579072044	
Luteibaculaceae				3.651099473840055e-05	
Filobacteriaceae				0.00010953298421520166	
Bernardetiaceae				0.0006937089000296104	0.0
Persicobacteraceae				0.00010953298421520166	
Mooreiaceae				7.30219894768011e-05	
Thermoflexibacteraceae				7.30219894768011e-05	
Balneolaceae				0.002555769631688038	0.001
Psychromonadaceae				0.0008762638737216132	0.0
Ferrimonadaceae				0.00010953298421520166	
Perlucidibacaceae				3.651099473840055e-05	
Bruguierivoracaceae				0.001277884815844019	0.003
Budviciaceae				0.0005476649210760082	0.0
Thorselliaceae				0.00040162094212240607	0.46299999999999997
Endozoicomonadaceae				0.0022271706790424335	0.001
Hahellaceae				0.00040162094212240607	0.001
Oleiphilaceae				0.0003285989526456049	
Balneatrichaceae				7.30219894768011e-05	
Zooshikellaceae				3.651099473840055e-05	
Thioprofundaceae				0.00018255497369200273	
Thiofilaceae				0.0002190659684304033	
Thiolinaceae				7.30219894768011e-05	
Celerinatantimonadaceae				0.0002190659684304033	
Psittacicellaceae				0.00010953298421520166	
Crenotrichaceae				7.30219894768011e-05	
Methylothermaceae				3.651099473840055e-05	
Sinobacteraceae				0.004490852352823267	0.002
Steroidobacteraceae				0.0012413738211056187	0.002
Cellvibrionaceae				0.003541566489624853	0.001
Porticoccaceae				0.00040162094212240607	0.0
Halieaceae				0.00036510994738400546	0.0
Spongiibacteraceae				0.0001460439789536022	
Arenicellaceae				3.651099473840055e-05	
Vulgatibacteraceae				3.651099473840055e-05	
Phaselicystidaceae				7.30219894768011e-05	
Sandaracinaceae				3.651099473840055e-05	
Nannocystaceae				0.0021176376948272317	0.0
Desulfofabaceae				7.30219894768011e-05	
Desulfosalsimonadaceae				3.651099473840055e-05	
Syntrophotaleaceae				7.30219894768011e-05	
Desulfarculaceae				7.30219894768011e-05	
Sulfurovaceae				0.0031399455475024473	0.003
Thiovulaceae				0.00036510994738400546	0.044000000000000004
Rhodovibrionaceae				0.003468544500148052	0.0
Parvibaculaceae				0.0017525277474432265	0.0
Pleomorphomonadaceae				0.0009127748684600136	0.0
Ahrensiaceae				0.00018255497369200273	
Afifellaceae				0.0001460439789536022	
Amorphaceae				3.651099473840055e-05	
Reyranellaceae				3.651099473840055e-05	
Cohaesibacteraceae				3.651099473840055e-05	
Kiloniellaceae				0.0004381319368608066	0.0
Geminicoccaceae				0.0001460439789536022	
Terasakiellaceae				0.0001460439789536022	
Elioraeaceae				3.651099473840055e-05	
Stellaceae				3.651099473840055e-05	
Zavarziniaceae				3.651099473840055e-05	
Neomegalonemataceae				7.30219894768011e-05	
Pelagibacteraceae				0.0014969507842744225	0.0
Candidatus Paracaedibacteraceae				0.0004746429315992071	0.0
Candidatus Hepatincolaceae				0.0002190659684304033	
Parvularculaceae				0.0013874178000592209	0.0
Sneathiellaceae				0.0004746429315992071	0.0
Micropepsaceae				7.30219894768011e-05	
Rhodothalassiaceae				3.651099473840055e-05	
Kopriimonadaceae				3.651099473840055e-05	
Spirillaceae				0.0004746429315992071	0.0
Azonexaceae				0.005148050258114477	0.012
Procabacteriaceae				0.0004381319368608066	0.0
Ferrovaceae				3.651099473840055e-05	
Hydrogenophilaceae				0.0031034345527640463	0.004
Mariprofundaceae				0.0006206869105528093	2.481
Solibacteraceae				0.0005111539263376076	0.0
Acanthopleuribacteraceae				3.651099473840055e-05	
Blastocatellaceae				0.0001460439789536022	
Pyrinomonadaceae				7.30219894768011e-05	
Pirellulaceae				0.0010953298421520164	0.004
Thermoguttaceae				3.651099473840055e-05	
Gemmataceae				0.0005111539263376076	0.0
Candidatus Scalinduaceae				0.0006571979052912098	0.001
Candidatus Brocadiaceae				7.30219894768011e-05	
Phycisphaeraceae				0.0006571979052912098	0.031
Rubritaleaceae				0.0003285989526456049	
Opitutaceae				0.0008032418842448121	0.001
Chthoniobacteraceae				3.651099473840055e-05	
Methylacidiphilaceae				3.651099473840055e-05	
Candidatus Clavichlamydiaceae				3.651099473840055e-05	
Parachlamydiaceae				0.0006206869105528093	0.002
Rhabdochlamydiaceae				0.0005111539263376076	0.0
Simkaniaceae				0.0002555769631688038	
Waddliaceae				0.00010953298421520166	
Lentisphaeraceae				0.0002555769631688038	
Victivallaceae				0.0001460439789536022	
Kiritimatiellaceae				0.00010953298421520166	
Sphaerochaetaceae				0.0005111539263376076	0.0
Brevinemataceae				3.651099473840055e-05	
Candidatus Babeliaceae				3.651099473840055e-05	
Candidatus Sumerlaeaceae				3.651099473840055e-05	
Petrotogaceae				0.0019715937158736297	0.002
Kosmotogaceae				7.30219894768011e-05	
Dictyoglomaceae				0.0002555769631688038	
Caldisphaeraceae				0.00036510994738400546	0.0
Acidilobaceae				0.0001460439789536022	
Thermofilaceae				0.0002190659684304033	
Fervidicoccaceae				3.651099473840055e-05	
Nitrososphaeraceae				0.0001460439789536022	
Halobacteriaceae				0.0010588188474136158	0.001
Haloarculaceae				0.00040162094212240607	0.0
Halococcaceae				3.651099473840055e-05	
Halorubraceae				0.0005476649210760082	0.0
Haloferacaceae				3.651099473840055e-05	
Natrialbaceae				7.30219894768011e-05	
Methanocalculaceae				0.0001460439789536022	
Methanocorpusculaceae				7.30219894768011e-05	
Methanospirillaceae				3.651099473840055e-05	
Methanotrichaceae				0.00036510994738400546	0.0
Methanococcaceae				0.00010953298421520166	
Methanocaldococcaceae				7.30219894768011e-05	
Fabaceae				0.0005841759158144088	0.0
Solanaceae				7.30219894768011e-05	
Oleaceae				3.651099473840055e-05	
Orobanchaceae				3.651099473840055e-05	
Apiaceae				3.651099473840055e-05	
Poaceae				3.651099473840055e-05	
Pinaceae				7.30219894768011e-05	
Zygnemataceae				3.651099473840055e-05	
Chlorellaceae				7.30219894768011e-05	
Chlamydomonadaceae				3.651099473840055e-05	
Codiaceae				3.651099473840055e-05	
Oltmannsiellopsidaceae				3.651099473840055e-05	
Nephroselmidaceae				3.651099473840055e-05	
Chloropicaceae				3.651099473840055e-05	
Skeletonemataceae				0.00010953298421520166	
Thalassiosiraceae				3.651099473840055e-05	
Olisthodiscaceae				3.651099473840055e-05	
Peronosporaceae				3.651099473840055e-05	
Dinophysiaceae				0.0002555769631688038	
Ceramiaceae				0.0001460439789536022	
Gelidiaceae				7.30219894768011e-05	
Pterocladiaceae				3.651099473840055e-05	
Hypneaceae				3.651099473840055e-05	
Corallinaceae				0.0001460439789536022	
Bangiaceae				0.00010953298421520166	
Cyanidiaceae				3.651099473840055e-05	
Chrysochromulinaceae				3.651099473840055e-05	
Phacaceae				0.00010953298421520166	
Histionidae				3.651099473840055e-05	
Tuberaceae				3.651099473840055e-05	
Naididae				3.651099473840055e-05	
Malawimonadidae				3.651099473840055e-05	
