abundance	species	genus	family	order	class	phylum	clade	superkingdom	subspecies	species subgroup	species group	tax_id
0.061022866447872505	Halovivax ruber	Halovivax	Natrialbaceae	Natrialbales	Halobacteria	Euryarchaeota	Stenosarchaea group	Archaea				387341
0.07849634421120016	Natronobacterium gregoryi	Natronobacterium	Natrialbaceae	Natrialbales	Halobacteria	Euryarchaeota	Stenosarchaea group	Archaea				44930
0.05607060161743455	Natronococcus occultus	Natronococcus	Natrialbaceae	Natrialbales	Halobacteria	Euryarchaeota	Stenosarchaea group	Archaea				29288
0.0032858913214916068	Echinicola vietnamensis	Echinicola	Cyclobacteriaceae	Cytophagales	Cytophagia	Bacteroidetes	FCB group	Bacteria				390884
0.01786273110768961	Coraliomargarita akajimensis	Coraliomargarita	Puniceicoccaceae	Puniceicoccales	Opitutae	Verrucomicrobia	PVC group	Bacteria				395922
0.0012809760453306963	Corynebacterium glutamicum	Corynebacterium	Corynebacteriaceae	Corynebacteriales	Actinobacteria	Actinobacteria	Terrabacteria group	Bacteria				1718
0.031816816252957306	Segniliparus rotundus	Segniliparus	Segniliparaceae	Corynebacteriales	Actinobacteria	Actinobacteria	Terrabacteria group	Bacteria				286802
6.989038683807544e-05	Nocardiopsis dassonvillei	Nocardiopsis	Nocardiopsaceae	Streptosporangiales	Actinobacteria	Actinobacteria	Terrabacteria group	Bacteria				2014
0.08866690867517034	Olsenella uli	Olsenella	Atopobiaceae	Coriobacteriales	Coriobacteriia	Actinobacteria	Terrabacteria group	Bacteria				133926
0.11422384117566062	Meiothermus silvanus	Meiothermus	Thermaceae	Thermales	Deinococci	Deinococcus-Thermus	Terrabacteria group	Bacteria				52022
0.0006237977810323749	Thermobacillus composti	Thermobacillus	Paenibacillaceae	Bacillales	Bacilli	Firmicutes	Terrabacteria group	Bacteria				377615
0.0039889677502806045	Streptococcus pyogenes	Streptococcus	Streptococcaceae	Lactobacillales	Bacilli	Firmicutes	Terrabacteria group	Bacteria				1314
0.0013560821326790758	Clostridium perfringens	Clostridium	Clostridiaceae	Clostridiales	Clostridia	Firmicutes	Terrabacteria group	Bacteria				1502
0.0011474541122669104	Hungateiclostridium thermocellum	Hungateiclostridium	Hungateiclostridiaceae	Clostridiales	Clostridia	Firmicutes	Terrabacteria group	Bacteria				1515
0.07641001247595562	Desulfallas gibsoniae	Desulfallas	Peptococcaceae	Clostridiales	Clostridia	Firmicutes	Terrabacteria group	Bacteria				102134
0.06988842567666868	Desulfosporosinus acidiphilus	Desulfosporosinus	Peptococcaceae	Clostridiales	Clostridia	Firmicutes	Terrabacteria group	Bacteria				885581
0.025791513904656643	Desulfosporosinus meridiei	Desulfosporosinus	Peptococcaceae	Clostridiales	Clostridia	Firmicutes	Terrabacteria group	Bacteria				79209
0.01249160272217841	Terriglobus roseus	Terriglobus	Acidobacteriaceae	Acidobacteriales	Acidobacteriia	Acidobacteria		Bacteria				392734
0.04641764826150271	Hirschia baltica	Hirschia	Hyphomonadaceae	Rhodobacterales	Alphaproteobacteria	Proteobacteria		Bacteria				2724
0.001021477877994598	Escherichia coli	Escherichia	Enterobacteriaceae	Enterobacterales	Gammaproteobacteria	Proteobacteria		Bacteria				562
0.0004093069314395843	Salmonella bongori	Salmonella	Enterobacteriaceae	Enterobacterales	Gammaproteobacteria	Proteobacteria		Bacteria				54736
0.0017779141445049237	Salmonella enterica	Salmonella	Enterobacteriaceae	Enterobacterales	Gammaproteobacteria	Proteobacteria		Bacteria				28901
0.0378618131443998	Pseudomonas stutzeri	Pseudomonas	Pseudomonadaceae	Pseudomonadales	Gammaproteobacteria	Proteobacteria		Bacteria		Pseudomonas stutzeri subgroup	Pseudomonas stutzeri group	316
0.07406086096611464	Frateuria aurantia	Frateuria	Rhodanobacteraceae	Xanthomonadales	Gammaproteobacteria	Proteobacteria		Bacteria				81475
0.07249719395312546	Sediminispirochaeta smaragdinae	Sediminispirochaeta	Spirochaetaceae	Spirochaetales	Spirochaetia	Spirochaetes		Bacteria				55206
0.12145906092355452	Fervidobacterium pennivorans	Fervidobacterium	Fervidobacteriaceae	Thermotogales	Thermotogae	Thermotogae		Bacteria				93466
