# Constructed from biom file
#OTU ID	Ltornano
Unassigned;__;__;__;__;__	0.4341866559161459
d__Bacteria;__;__;__;__;__	0.05850634952630518
d__Bacteria;p__Firmicutes;c__Clostridia;o__Clostridiales;__;__	0.005392058052811933
d__Bacteria;p__Firmicutes;c__Clostridia;o__Clostridiales;f__Clostridiaceae;g__Clostridium	0.12688973997177988
d__Bacteria;p__Firmicutes;c__Clostridia;o__Clostridiales;f__Lachnospiraceae;__	0.10577504535375933
d__Bacteria;p__Firmicutes;c__Clostridia;o__Clostridiales;f__Peptostreptococcaceae;__	0.10249949606934086
d__Bacteria;p__Firmicutes;c__Clostridia;o__Clostridiales;f__Peptostreptococcaceae;g__Clostridioides	0.024138278572868373
d__Bacteria;p__Firmicutes;c__Clostridia;o__Clostridiales;f__Peptostreptococcaceae;g__Romboutsia	0.07911711348518444
d__Bacteria;p__Proteobacteria;c__Gammaproteobacteria;o__Enterobacterales;__;__	0.06349526305180407