genus	theoretical	Emu	Minimap2	Kraken2	Bracken	NanoCLUST	Centrifuge	MetaMaps	Qiime2
Clostridium	0.135606657	0.1356076474368	0.13560694015457	0.13867902389505418	0.207		0.13880825736536279	0.160161	0.13550234443047
Coraliomargarita	1.786252614	1.7862656574676	1.78625634092836	1.8180119204496346	2.835	15.66331326626532	1.7910135513261052	1.12379	1.7859396759000798
Corynebacterium	0.128096135	0.1280970700403	0.1280964019306223	0.1300779512032476	0.2	1.1260225204504	0.06914262103881297	0.150355	0.1280961346887
Desulfallas	7.640913572	7.6409693651893	7.640929512555631	7.761140778322749	12.098		7.64491446084969	9.03952	7.63767987440737
Desulfosporosinus	9.568092797	9.56795403526633	9.567799819121191	9.691497574178943	15.018	82.20064401288026	9.54042646666562	11.327	9.56058227412364
Echinicola	0.328585362	0.32858776109687	0.32858604729761	0.3340614159064628	0.516		0.32897661598648525	0.38895399999999997	0.32858536178291
Escherichia	0.101704993	0.10197384215278998	0.09951463146727442	0.10979640942380246	0.172		0.037552497659506585	0.119011	
Fervidobacterium	12.14576673	12.14585541304003	12.145792064490479	12.35283936275608	19.21		12.167846066140513	5.31602	12.14555809962916
Frateuria	7.406209742	7.40626382154868	7.394855072690533	7.3580584087166025	11.475		7.296900088389584	7.11568	3.49750431594264
Halovivax	6.102299576	6.10234256453479	6.10231230695569	4.6822753129038395	0.0		6.099090476414625	5.48024	6.101986637528619
Hirschia	4.641815877	4.641745458186939	4.641721248460076	4.692575362917484	0.0		4.6371581441325525	1.98456	3.0760805503544
Hungateiclostridium	0.114744095	0.11474493244652	0.11474433397694	0.11637994654592602	0.192	1.010020200404	0.11506336330210933	0.0069339300000000005	0.11463978177758999
Meiothermus	11.42225305	11.42233645717719	11.422276882250399	11.623234789109132	0.0		11.446503381293835	7.12641	11.422148739640429
Natronobacterium	7.849434885	7.849493950313691	7.849346948270116	7.990502716770924	0.0		7.8636394541812455	4.45092	0.25973890502839003
Natronococcus	5.607022339	5.60706310211206	5.6065124711444	5.52380001762689	0.0		5.590510410619302	4.00002	5.5907495397197104
Nocardiopsis	0.006988958	0.006989009521743121	0.006988973069504817	0.007751584030887407	0.002		0.0071130079132213034	0.014448099999999998	0.0068846456754515445
Olsenella	8.866589127	8.86665387086814	8.86650331246029	8.992899336655542	13.783999999999999		8.848477240989753	10.456999999999999	8.86231230213163
Pseudomonas	3.786555121	3.7863741435855496	3.7863543951773977	3.830981488580218	5.0		3.725542497607205	4.481269999999999	3.08536439073493
Salmonella	0.21926553399999998	0.21889471439768	0.21853579971061998	0.0956736604360213	0.15		0.08828498056998206	0.157011	
Sediminispirochaeta	7.249740522	7.24968914554664	7.249651333694253	7.373455390695763	11.393		7.263322506916878	8.59022	7.2442119427739895
Segniliparus	3.181645117	3.1816683495923397	3.1816517551188945	3.226039375923155	4.797		3.168322010052354	2.56787	3.1735087179433603
Streptococcus	0.398892198	0.39889511061411004	0.39889303011620814	0.4056308355889027	0.631		0.21067055790040742	0.47530999999999995	0.39889219792312997
Terriglobus	1.249145939	1.24915506004289	1.2489399188235981	1.2642514996129517	2.06		1.2483328887703389	1.4771299999999998	1.24893731321486
Thermobacillus	0.062379062	0.06237951782093	0.06227487944020813	0.06286216090801842	0.003		0.06213421618313903	0.0738073	0.06196181107905999
Azomonas			0.00010431303088813159						
Citrobacter			0.00020862606177626317	0.00021237216522979199			0.0005230152877368605		0.041829438119030005
Desulfitobacterium			0.00010431303088813159	0.00053093041307448			0.0013598397481158373	0.00197921	
Dokdonella			0.00010431303088813159	0.004672187635055424	0.0		0.0001046030575473721	0.000437432	
Dyella			0.010431303088813158	0.01242377166594283	0.006		0.017991725898148004	0.01334	0.25087231590092
Edaphobacter			0.00010431303088813159	0.001380419073993648	0.0		0.0025104733811369307	0.0009901369999999999	
Granulicella			0.00010431303088813159	0.000637116495689376			0.0002092061150947442	0.000169209	
Halobiforma			0.00020862606177626317	0.002548465982757504	0.0		0.00198745809340007	0.00126224	0.00312938439793252
Halostagnicola			0.00010431303088813159	0.029838289214785773	0.0		0.002824282553779047	0.00076507	
Haloterrigena			0.00020862606177626317	0.005415490213359696	0.0		0.00648538956793707	0.0037882600000000003	
Hyphobacterium			0.00010431303088813159						
Lelliottia			0.00010431303088813159						
Natrialba			0.00010431303088813159	0.020281541779445134	0.0		0.007636023200958164	0.00491891	
Olegusella			0.00010431303088813159	0.00021237216522979199			0.003242694783968535	0.00035578	
Paenibacillus			0.00010431303088813159	0.0015927912392234398	0.002		0.002301267266042186		0.0002086256265288347
Rhodanobacter			0.0008345042471050527	0.005627862378589488	0.0		0.0071130079132213034	0.00292982	
Savagea			0.00010431303088813159						
Shigella			0.00260782577220329	0.04215587479811371	0.066		0.0007322214028316048	0.000153255	
Desulfotomaculum				0.000637116495689376			0.0002092061150947442		
Desulfofarcimen				0.00053093041307448			0.0002092061150947442		
Sporotomaculum				0.00042474433045958397			0.0008368244603789768		
Desulfofundulus				0.000318558247844688			0.000941427517926349	0.00184926	
Desulfohalotomaculum				0.00010618608261489599					
Dehalobacterium				0.00010618608261489599				0.00010414799999999999	
Crassaminicella				0.00042474433045958397			0.00031380917264211633		
Oxobacter				0.000318558247844688					
Caloramator				0.00021237216522979199			0.00198745809340007	0.000257962	
Oceanirhabdus				0.00010618608261489599					
Sporosalibacterium				0.00010618608261489599					
Ercella				0.0016989773218383359	0.0				
Clostridioides				0.0008494886609191679			0.0002092061150947442	0.000374098	
Romboutsia				0.00010618608261489599					
Lacrimispora				0.00010618608261489599					
Tyzzerella				0.00010618608261489599					
Lachnoclostridium				0.00010618608261489599					
Anaerostipes				0.00010618608261489599			0.0004184122301894884	0.00043808	
Blautia				0.00010618608261489599			0.001150633633021093		
Cellulosilyticum				0.00010618608261489599				0.000212061	
Thermaerobacter				0.000637116495689376					
Anaerovorax				0.00010618608261489599					
Monoglobus				0.00010618608261489599					
Syntrophomonas				0.00042474433045958397				0.00054931	
Eubacterium				0.000318558247844688			0.0002092061150947442	0.000129016	
Caldicoprobacter				0.00010618608261489599				0.000419061	
Moorella				0.00021237216522979199			0.0001046030575473721	0.000303231	
Desulfothermobacter				0.00021237216522979199					
Thermoanaerobacter				0.00010618608261489599			0.0001046030575473721		
Caldanaerobacter				0.00010618608261489599			0.0001046030575473721	0.000331955	
Caldanaerobius				0.00010618608261489599					
Caldicellulosiruptor				0.00010618608261489599					
Mahella				0.00010618608261489599					
Halanaerobium				0.00042474433045958397			0.0001046030575473721		
Orenia				0.00010618608261489599					
Lactobacillus				0.001168046908763856	0.001		0.18535661797394337	0.00039288100000000004	
Lactiplantibacillus				0.00042474433045958397			0.0004184122301894884		
Pediococcus				0.00010618608261489599			0.0002092061150947442		
Limosilactobacillus				0.00010618608261489599					
Enterococcus				0.0008494886609191679			0.0017782519783053259	9.751979999999999e-05	
Leuconostoc				0.00010618608261489599			0.0001046030575473721	0.00026259799999999995	
Oenococcus				0.00010618608261489599					
Carnobacterium				0.00010618608261489599					
Cohnella				0.00042474433045958397			0.0007322214028316048		
Aneurinibacillus				0.00010618608261489599			0.0001046030575473721	0.00027221499999999997	
Xylanibacillus				0.00010618608261489599					
Bacillus				0.011361910839793873	0.018000000000000002		0.007636023200958164	0.0026829799999999997	
Lysinibacillus				0.000318558247844688			0.0001046030575473721		
Thermolongibacillus				0.00021237216522979199					
Parageobacillus				0.00021237216522979199			0.0001046030575473721		
Salimicrobium				0.00010618608261489599					
Pseudogracilibacillus				0.00010618608261489599					
Anaerobacillus				0.00010618608261489599					
Sinobaca				0.00010618608261489599					
Scopulibacillus				0.00010618608261489599					
Marininema				0.000955674743534064					
Laceyella				0.00010618608261489599					
Staphylococcus				0.0008494886609191679			0.0007322214028316048		
Alicyclobacillus				0.000743302578304272				0.00163095	
Kyrpidia				0.00010618608261489599			0.0002092061150947442		
Paenisporosarcina				0.00042474433045958397			0.0002092061150947442	0.000586027	
Planococcus				0.000318558247844688					
Listeria				0.000318558247844688			0.0001046030575473721		
Exiguobacterium				0.00010618608261489599			0.0002092061150947442	0.00010004999999999999	
Pelosinus				0.0026546520653723997	0.004		0.0027196794962316747		
Anaerospora				0.00021237216522979199					
Megasphaera				0.00021237216522979199			0.0013598397481158373	0.000522006	
Veillonella				0.00010618608261489599			0.0001046030575473721		
Finegoldia				0.00010618608261489599					
Peptoniphilus				0.00010618608261489599			0.0001046030575473721		
Sedimentibacter				0.00021237216522979199					
Erysipelothrix				0.00021237216522979199			0.0002092061150947442	0.00022165799999999998	
Ndongobacter				0.00010618608261489599					
Atopobium				0.00042474433045958397			0.0006276183452842327		
Lancefieldella				0.000318558247844688			0.0025104733811369307		
Parolsenella				0.00010618608261489599			0.0001046030575473721	0.000758023	
Slackia				0.00021237216522979199			0.000941427517926349	0.00100211	
Cryptobacterium				0.00010618608261489599			0.0002092061150947442		
Phoenicibacter				0.00010618608261489599					
Rhodococcus				0.0018051634044532318	0.002		0.0012552366905684653	0.00202484	
Nocardia				0.000318558247844688			0.00031380917264211633	0.0007830420000000001	
Mycolicibacterium				0.000743302578304272			0.0006276183452842327	0.00041094199999999997	
Gordonia				0.00021237216522979199			0.00031380917264211633	0.00028971300000000004	
Dietzia				0.00021237216522979199			0.00031380917264211633	0.0066133500000000005	
Nonomuraea				0.00042474433045958397			0.0001046030575473721		
Streptosporangium				0.000318558247844688			0.0004184122301894884		
Thermopolyspora				0.00010618608261489599					
Streptomyces				0.0026546520653723997	0.001		0.004916343704726489		
Streptacidiphilus				0.00053093041307448			0.0005230152877368605	0.00012489400000000001	
Kitasatospora				0.00010618608261489599			0.0005230152877368605		
Micromonospora				0.001911349487068128	0.0		0.0005230152877368605	0.000125718	
Actinoplanes				0.00010618608261489599			0.00031380917264211633		
Dactylosporangium				0.00010618608261489599			0.0002092061150947442		
Verrucosispora				0.00010618608261489599					
Ornithinimicrobium				0.00042474433045958397			0.0006276183452842327	0.000262194	
Tetrasphaera				0.00010618608261489599			0.00031380917264211633		
Humibacillus				0.00010618608261489599					
Microbacterium				0.00021237216522979199					
Agromyces				0.00010618608261489599					
Humibacter				0.00010618608261489599					
Cellulomonas				0.00021237216522979199			0.0002092061150947442		
Sanguibacter				0.00021237216522979199					
Brevibacterium				0.00010618608261489599					
Dermabacter				0.00010618608261489599					
Ruania				0.00010618608261489599					
Buchananella				0.00106186082614896	0.0		0.00198745809340007		
Actinomyces				0.00053093041307448			0.0002092061150947442		
Schaalia				0.00010618608261489599					
Fannyhessea				0.00010618608261489599			0.0004184122301894884	0.00035991	
Actinosynnema				0.0008494886609191679					
Pseudonocardia				0.000318558247844688			0.00031380917264211633		
Saccharomonospora				0.00021237216522979199			0.0002092061150947442	0.000632095	
Amycolatopsis				0.00021237216522979199			0.0001046030575473721	0.000360909	
Actinorectispora				0.00010618608261489599					
Bifidobacterium				0.000743302578304272			0.0002092061150947442		
Marmoricola				0.00021237216522979199					
Microlunatus				0.00010618608261489599					
Glycomyces				0.000318558247844688			0.0005230152877368605		
Kineosporia				0.00021237216522979199			0.0002092061150947442	0.0001373	
Acidimicrobium				0.000318558247844688				0.000370917	
Egibacter				0.00010618608261489599					
Calidithermus				0.00042474433045958397			0.000941427517926349	0.000980887	
Spiroplasma				0.00010618608261489599			0.00031380917264211633		
Luteibacter				0.0016989773218383359	0.0		0.00031380917264211633	0.000741915	
Ahniella				0.0016989773218383359	0.003		0.0002092061150947442		
Tahibacter				0.001380419073993648	0.002		0.0002092061150947442		
Oleiagrimonas				0.0008494886609191679					
Aerosticca				0.00021237216522979199			0.0008368244603789768	0.000134418	
Rudaea				0.00010618608261489599					
Pseudofulvimonas				0.00010618608261489599			0.0004184122301894884		
Mizugakiibacter				0.00010618608261489599			0.0002092061150947442		
Stenotrophomonas				0.005096931965515008	0.008		0.002615076438684303	0.00017216	
Xanthomonas				0.0033979546436766718	0.005		0.001882855035852698		
Lysobacter				0.001911349487068128	0.0		0.0008368244603789768	0.00023783799999999998	
Arenimonas				0.0008494886609191679			0.0004184122301894884	0.000169003	
Luteimonas				0.000637116495689376			0.0002092061150947442	0.0011693699999999999	
Pseudolysobacter				0.00021237216522979199			0.0001046030575473721	0.000285107	
Pseudoxanthomonas				0.00010618608261489599			0.0005230152877368605	0.00021787800000000002	
Entomomonas				0.000955674743534064			0.0002092061150947442		
Azotobacter				0.000318558247844688			0.0012552366905684653		
Oblitimonas				0.000318558247844688					
Acinetobacter				0.00042474433045958397			0.0005230152877368605	0.000139385	
Moraxella				0.000318558247844688			0.0006276183452842327		
Psychrobacter				0.00021237216522979199			0.0002092061150947442		
Klebsiella				0.08271895835700398	0.13		0.0014644428056632096		
Leclercia				0.00106186082614896	0.002		0.0002092061150947442		
Enterobacter				0.00042474433045958397			0.12259478344552012	0.0987418	
Pluralibacter				0.00021237216522979199					
Biostraticola				0.00021237216522979199					
Siccibacter				0.00021237216522979199					
Cronobacter				0.00010618608261489599					
Edwardsiella				0.000743302578304272			0.001046030575473721		
Erwinia				0.00021237216522979199			0.0004184122301894884	0.000186401	
Buchnera				0.00021237216522979199			0.0001046030575473721		
Pantoea				0.00021237216522979199			0.0013598397481158373	0.000104533	
Sodalis				0.00021237216522979199			0.0001046030575473721		
Pectobacterium				0.00021237216522979199			0.0002092061150947442		
Serratia				0.00021237216522979199			0.0005230152877368605		
Yersinia				0.00010618608261489599			0.00031380917264211633		
Morganella				0.00010618608261489599			0.0002092061150947442		
Xenorhabdus				0.00010618608261489599					
Marinomonas				0.00212372165229792	0.0		0.0005230152877368605		
Marinospirillum				0.00106186082614896	0.0		0.0005230152877368605		
Amphritea				0.00010618608261489599					
Neptunomonas				0.00010618608261489599			0.0002092061150947442		
Marinobacterium				0.00010618608261489599			0.0007322214028316048	0.00021973900000000002	
Zymobacter				0.000318558247844688				0.991653	
Chromohalobacter				0.00010618608261489599			0.0001046030575473721		
Endozoicomonas				0.00021237216522979199			0.0001046030575473721		
Thiovirga				0.000955674743534064					
Isochromatium				0.000318558247844688					
Thiophaeococcus				0.00021237216522979199					
Pararheinheimera				0.00010618608261489599					
Thiohalospira				0.00042474433045958397			0.00031380917264211633		
Thioalkalivibrio				0.00010618608261489599					
Ectothiorhodospira				0.00010618608261489599					
Thiohalophilus				0.00010618608261489599					
Legionella				0.0015927912392234398	0.0		0.0007322214028316048	0.00012439	
Fluoribacter				0.00010618608261489599					
Alteromonas				0.00053093041307448			0.004916343704726489		
Marinobacter				0.00021237216522979199					
Moritella				0.00021237216522979199			0.0004184122301894884		
Colwellia				0.00010618608261489599				0.00016589	
Aliidiomarina				0.00010618608261489599			0.00031380917264211633		
Aeromonas				0.000637116495689376			0.00397491618680014		
Cellvibrio				0.00021237216522979199			0.00031380917264211633		
Pseudoteredinibacter				0.00021237216522979199					
Parahaliea				0.00010618608261489599					
Vibrio				0.00053093041307448			0.00031380917264211633		
Haemophilus				0.00010618608261489599			0.00031380917264211633		
Mannheimia				0.00010618608261489599			0.0001046030575473721		
Aggregatibacter				0.00010618608261489599					
Francisella				0.00010618608261489599			0.00031380917264211633		
Sulfuricaulis				0.00010618608261489599			0.0001046030575473721		
Orbus				0.00010618608261489599			0.0001046030575473721		
Salinisphaera				0.00010618608261489599			0.0007322214028316048		
Methylothermus				0.00010618608261489599			0.00031380917264211633		
Euryhalocaulis				0.001168046908763856	0.0				
Ponticaulis				0.000637116495689376					
Hyphomonas				0.00042474433045958397			0.0008368244603789768	0.0009459519999999999	1.42345264980623
Asprobacter				0.000318558247844688			0.0005230152877368605		
Marinicauda				0.00021237216522979199					
Rhodovulum				0.001168046908763856	0.0				
Defluviimonas				0.001168046908763856	0.0		0.0001046030575473721		
Limibaculum				0.000637116495689376					
Paracoccus				0.000318558247844688					
Parasedimentitalea				0.00021237216522979199			0.00031380917264211633		
Celeribacter				0.00021237216522979199			0.0001046030575473721	0.00065813	
Rhodobacter				0.00010618608261489599			0.0001046030575473721		
Epibacterium				0.00010618608261489599					
Lutimaribacter				0.00010618608261489599					
Haematobacter				0.00010618608261489599					
Ketogulonicigenium				0.00010618608261489599					
Roseovarius				0.00010618608261489599			0.0001046030575473721		
Acuticoccus				0.00010618608261489599			0.0002092061150947442		
Liberibacter				0.0008494886609191679			0.0002092061150947442		
Rhizobium				0.00053093041307448			0.0002092061150947442	0.000323795	
Ensifer				0.00010618608261489599				8.16083e-05	
Mesorhizobium				0.000955674743534064			0.0002092061150947442		
Tianweitania				0.00021237216522979199					
Thalassocola				0.00010618608261489599					
Blastochloris				0.000318558247844688					
Methylorhabdus				0.00021237216522979199					
Hyphomicrobium				0.00021237216522979199					
Rhodoplanes				0.00010618608261489599					
Devosia				0.00010618608261489599					
Roseospirillum				0.00042474433045958397					
Tepidamorphus				0.00021237216522979199					
Rhodobium				0.00010618608261489599			0.00031380917264211633		
Hansschlegelia				0.00053093041307448					
Pseudoxanthobacter				0.000637116495689376					
Methylobacterium				0.00010618608261489599			0.0005230152877368605		
Methylorubrum				0.00010618608261489599			0.001046030575473721		
Aurantimonas				0.00010618608261489599					
Beijerinckia				0.00010618608261489599			0.0001046030575473721		
Azospirillum				0.000637116495689376			0.0002092061150947442		
Thalassospira				0.00010618608261489599			0.0001046030575473721		
Nisaea				0.00010618608261489599					
Swaminathania				0.00021237216522979199					
Acetobacter				0.00010618608261489599			0.0014644428056632096		
Sphingomonas				0.00053093041307448			0.00031380917264211633	0.00103593	
Sphingobium				0.00021237216522979199			0.0008368244603789768		
Novosphingobium				0.00010618608261489599					
Candidatus Phycorickettsia				0.00010618608261489599					
Woodsholea				0.00010618608261489599			0.0002092061150947442	0.000132674	
Neisseria				0.000637116495689376			0.001150633633021093		
Gulbenkiania				0.00021237216522979199					
Andreprevotia				0.00010618608261489599					
Bordetella				0.00010618608261489599					
Burkholderia				0.00010618608261489599			0.0012552366905684653		
Methylobacillus				0.00010618608261489599			0.0001046030575473721		
Arcobacter				0.000637116495689376			0.0005230152877368605		
Geobacter				0.00010618608261489599				0.000303052	
Desulfurella				0.00010618608261489599					
Desulfobacter				0.00010618608261489599					
Thermosipho				0.00106186082614896	0.001		0.0002092061150947442	0.00495089	
Pseudothermotoga				0.000637116495689376			0.0004184122301894884	0.00099157	
Petrotoga				0.00021237216522979199			0.0002092061150947442	0.000318837	
Defluviitoga				0.00021237216522979199					
Mesotoga				0.00010618608261489599			0.002824282553779047		
Sphaerochaeta				0.00042474433045958397			0.00031380917264211633		
Spirochaeta				0.000318558247844688			0.0001046030575473721	9.549529999999999e-05	
Treponema				0.000318558247844688			0.0005230152877368605	0.000262636	
Oceanispirochaeta				0.00010618608261489599					
Exilispira				0.00010618608261489599					
Puniceicoccus				0.00010618608261489599			0.0001046030575473721		
Cerasicoccus				0.00010618608261489599			0.0001046030575473721	0.000128965	
Roseimicrobium				0.00021237216522979199					
Waddlia				0.00053093041307448					
Planctopirus				0.00010618608261489599					
Acidobacterium				0.00010618608261489599			0.0001046030575473721		
Acidicapsa				0.00010618608261489599					
Paludibaculum				0.00010618608261489599					
Candidatus Cardinium				0.00010618608261489599					
Rhodonellum				0.00021237216522979199					
Schleiferia				0.00021237216522979199					
Bizionia				0.00010618608261489599					
Chryseobacterium				0.00010618608261489599					
Taibaiella				0.00021237216522979199					
Nemorincola				0.00010618608261489599					
Leptospirillum				0.00010618608261489599					
Natrinema				0.032811499528002865	0.0		0.003033488668873791	0.00273679	
Natronorubrum				0.008176328361346992	0.0		0.0014644428056632096	0.00906972	
Natrarchaeobaculum				0.006902095369968239	0.0		0.0005230152877368605	3.2962	
Halopiger				0.005840234543819279	0.0		0.0013598397481158373	0.00230254	0.00010431281326441734
Natronolimnobius				0.002973210313217088	0.0		0.0006276183452842327		
Salinarchaeum				0.000318558247844688			0.0001046030575473721		
Saliphagus				0.000318558247844688			0.00198745809340007	0.00029493	
Halovarius				0.00021237216522979199					
Haloarcula				0.008813444857036367	0.0		0.0002092061150947442	2.93027	
Halosimplex				0.002336093817527712	0.0		0.0006276183452842327	0.0030159500000000003	
Halomicrobium				0.002017535569683024	0.0		0.0005230152877368605		
Halosiccatus				0.001380419073993648	0.0				
Halapricum				0.00042474433045958397			0.0001046030575473721		
Natronomonas				0.000318558247844688				0.0015386599999999999	
Halorhabdus				0.00021237216522979199			0.00031380917264211633	0.000142073	
Halomicroarcula				0.00021237216522979199					
Haloarchaeobius				0.0018051634044532318	0.0		0.00031380917264211633		
Halovenus				0.0008494886609191679			0.0001046030575473721	0.00123119	
Haladaptatus				0.00053093041307448			0.0006276183452842327		
Natronoarchaeum				0.00042474433045958397			0.00031380917264211633	0.00390817	
Halorussus				0.00042474433045958397			0.0004184122301894884	0.00017096399999999998	
Halostella				0.00042474433045958397			0.00031380917264211633	0.0006616090000000001	
Halarchaeum				0.00021237216522979199			0.0002092061150947442	0.000613171	
Halobacterium				0.00010618608261489599			0.0004184122301894884		
Halalkalicoccus				0.00010618608261489599					
Salarchaeum				0.00010618608261489599					
Salinirubrum				0.00010618608261489599					
Halococcus				0.001486605156608544	0.0		0.0001046030575473721	0.000197777	
Halorubrum				0.007326839700427824	0.0		0.0016736489207579536	0.0009151119999999999	
Salinigranum				0.000955674743534064					
Halobaculum				0.000637116495689376					
Halopenitus				0.00021237216522979199			0.0002092061150947442	0.00031190199999999997	
Halonotius				0.00010618608261489599					
Halolamina				0.00010618608261489599					
Halohasta				0.00010618608261489599			0.0001046030575473721		
Halobium				0.00010618608261489599					
Haloprofundus				0.001380419073993648	0.0		0.0001046030575473721		
Haloferax				0.00106186082614896	0.0			0.000353649	
Halopelagius				0.00053093041307448				0.00048282699999999996	
Halobellus				0.000318558247844688			0.0002092061150947442	0.00161041	
Halogeometricum				0.00021237216522979199					
Haloplanus				0.00021237216522979199			0.00031380917264211633		
Halogranum				0.00021237216522979199			0.0001046030575473721	0.000124324	
Haloquadratum				0.00010618608261489599			0.0001046030575473721		
Syntrophobotulus							0.0005230152877368605		
Dehalobacter							0.0005230152877368605		
Desulfurispora							0.0004184122301894884		
Pelotomaculum							0.00031380917264211633		
Peptococcus							0.0001046030575473721		
Desulfitispora							0.0001046030575473721		
Desulfocucumis							0.0001046030575473721	0.000181286	
Caldisalinibacter							0.0002092061150947442		
Saccharofermentans							0.0004184122301894884		
Thermoclostridium							0.0001046030575473721		
Heliobacterium							0.006380786510389699		
Heliophilum							0.0004184122301894884		
Heliobacillus							0.0001046030575473721		
Heliorestis							0.0001046030575473721		
Anaerocolumna							0.0002092061150947442		
Carboxydocella							0.0005230152877368605		
Sulfobacillus							0.0004184122301894884		
Guggenheimella							0.0001046030575473721		
Aminipila							0.0001046030575473721		
Massilistercora							0.0001046030575473721		
Peptacetobacter							0.00031380917264211633		
Acetoanaerobium							0.0001046030575473721		
Acetobacterium							0.0001046030575473721		
Proteinivorax							0.0001046030575473721		
Thermacetogenium							0.001046030575473721	0.000133043	
Carboxydothermus							0.0002092061150947442		
Thermanaeromonas							0.0001046030575473721	0.00137032	
Caloribacterium							0.0001046030575473721		
Brockia							0.0001046030575473721	0.000224447	
Thermodesulfitimonas							0.0001046030575473721		
Halarsenatibacter							0.0002092061150947442		
Halothermothrix							0.0001046030575473721		
Halocella							0.0001046030575473721		
Thermovenabulum							0.0001046030575473721		
Thermosediminibacter							0.0001046030575473721		
Tepidanaerobacter							0.0001046030575473721		
Natranaerobius							0.0001046030575473721		
Lactococcus							0.0001046030575473721		
Weissella							0.0002092061150947442		
Agitococcus							0.0001046030575473721		
Marinilactibacillus							0.0001046030575473721		
Brevibacillus							0.0007322214028316048	0.00025733	
Saccharibacillus							0.0001046030575473721		
Alkalibacillus							0.0006276183452842327		
Alkalihalobacillus							0.0006276183452842327		
Virgibacillus							0.0005230152877368605		
Marinococcus							0.00031380917264211633		
Geobacillus							0.00031380917264211633	0.00358728	
Vulcanibacillus							0.0002092061150947442		
Halobacillus							0.0001046030575473721		
Anoxybacillus							0.0001046030575473721	0.000279992	
Pelagirhabdus							0.0001046030575473721		
Peribacillus							0.0001046030575473721		
Metabacillus							0.0001046030575473721		
Pullulanibacillus							0.0002092061150947442		
Sporolactobacillus							0.0001046030575473721		
Viridibacillus							0.0002092061150947442	0.00029194700000000003	
Bhargavaea							0.0001046030575473721		
Paenactinomyces							0.0001046030575473721		
Tumebacillus							0.0001046030575473721		
Thermosinus							0.0006276183452842327		
Sporomusa							0.0004184122301894884	0.000161118	
Desulfosporomusa							0.0001046030575473721		
Selenomonas							0.00031380917264211633		
Erysipelatoclostridium							0.0001046030575473721		
Anaerococcus							0.0001046030575473721	0.000128885	
Gottschalkia							0.0001046030575473721		
Thermolithobacter							0.0001046030575473721		
Coriobacterium							0.0001046030575473721	0.00266375	
Collinsella							0.0001046030575473721	0.00135937	
Eggerthella							0.0004184122301894884	0.00238728	
Adlercreutzia							0.0002092061150947442		
Raoultibacter							0.0001046030575473721	0.000302749	
Parvopolyspora							0.0004184122301894884		
Jongsikchunia							0.0001046030575473721		
Tsukamurella							0.0001046030575473721		
Lawsonella							0.0001046030575473721	0.000158165	
Kribbella							0.05784549082369678	0.000372671	
Nocardioides							0.0002092061150947442		
Marinactinospora							0.0001046030575473721		
Lipingzhangella							0.0001046030575473721		
Sphaerisporangium							0.0004184122301894884		
Arthrobacter							0.0005230152877368605		
Rothia							0.0004184122301894884		
Nesterenkonia							0.0002092061150947442		
Zhihengliuella							0.0001046030575473721		
Terrabacter							0.0001046030575473721		
Tonsilliphilus							0.0002092061150947442		
Austwickia							0.0002092061150947442		
Curtobacterium							0.0002092061150947442		
Leucobacter							0.0001046030575473721		
Cellulosimicrobium							0.0001046030575473721		
Brachybacterium							0.0001046030575473721	0.000302389	
Fudania							0.0002092061150947442		
Alloactinosynnema							0.001046030575473721		
Saccharopolyspora							0.0005230152877368605	0.00025784100000000003	
Actinokineospora							0.0001046030575473721		
Salinifilum							0.0001046030575473721		
Rugosimonospora							0.0004184122301894884		
Planosporangium							0.0001046030575473721		
Catenulispora							0.00031380917264211633		
Thermobispora							0.00031380917264211633		
Phytoactinopolyspora							0.0002092061150947442		
Frankia							0.0001046030575473721		
Rubrobacter							0.0013598397481158373		
Solirubrobacter							0.0002092061150947442	0.00182778	
Conexibacter							0.0001046030575473721		
Patulibacter							0.0001046030575473721		
Parviterribacter							0.0001046030575473721		
Euzebya							0.0001046030575473721		
Thermus							0.0002092061150947442	0.003947770000000001	
Deinococcus							0.0004184122301894884	0.000148873	
Gloeobacter							0.0007322214028316048		
Scytonema							0.0001046030575473721		
Dehalococcoides							0.00031380917264211633		
Thermogemmatispora							0.0002092061150947442		
Chloroflexus							0.0001046030575473721		
Litorilinea							0.0001046030575473721		
Mycoplasma							0.0001046030575473721	0.00012889300000000001	
Candidatus Izimaplasma							0.0001046030575473721	0.000130625	
Armatimonas							0.0001046030575473721		
Aquimonas							0.0013598397481158373	0.00113584	
Fulvimonas							0.0006276183452842327	0.000290872	
Vulcaniibacterium							0.00031380917264211633		
Thermomonas							0.0002092061150947442	0.000129065	
Fluviicoccus							0.0002092061150947442		
Franconibacter							0.0005230152877368605		
Candidatus Tachikawaea							0.0002092061150947442		
Candidatus Ishikawaella							0.0001046030575473721		
Tatumella							0.0002092061150947442		
Hafnia							0.0001046030575473721		
Brenneria							0.0001046030575473721		
Shewanella							0.00031380917264211633		
Pseudoalteromonas							0.0002092061150947442	6.244249999999999e-05	
Litorilituus							0.0001046030575473721		
Ferrimonas							0.0001046030575473721		
Anaerobiospirillum							0.0001046030575473721		
Succinatimonas							0.0001046030575473721		
Saccharophagus							0.0016736489207579536		
Marinagarivorans							0.00031380917264211633		
Microbulbifer							0.0002092061150947442		
Dasania							0.0001046030575473721		
Thalassolituus							0.0001046030575473721		
Oleispira							0.0001046030575473721		
Oceanobacter							0.0001046030575473721		
Halomonas							0.0006276183452842327		
Modicisalibacter							0.0002092061150947442		
Cobetia							0.0001046030575473721		
Alcanivorax							0.001046030575473721		
Litoricola							0.0001046030575473721		
Methylosoma							0.0007322214028316048		
Methylovulum							0.0006276183452842327		
Methylomicrobium							0.0005230152877368605		
Methyloglobulus							0.0005230152877368605		
Methylomonas							0.00031380917264211633		
Marichromatium							0.0006276183452842327		
Nitrosococcus							0.0002092061150947442		
Allochromatium							0.0001046030575473721		
Halorhodospira							0.0007322214028316048		
Nitrococcus							0.0001046030575473721		
Halothiobacillus							0.0001046030575473721		
Granulosicoccus							0.0001046030575473721		
Endothiovibrio							0.0001046030575473721		
Piscirickettsia							0.0007322214028316048		
Thiomicrospira							0.0001046030575473721		
Methylophaga							0.0001046030575473721		
Thiomicrorhabdus							0.0001046030575473721		
Leucothrix							0.0002092061150947442		
Thiothrix							0.0001046030575473721		
Plasticicumulans							0.0002092061150947442		
Candidatus Nardonella							0.0001046030575473721		
Celerinatantimonas							0.0001046030575473721		
Thiolapillus							0.0001046030575473721		
Dichelobacter							0.0004184122301894884		
Nevskia							0.0001046030575473721		
Algimonas							0.0002092061150947442		
Albimonas							0.00031380917264211633		
Roseobacter							0.0002092061150947442		
Sulfitobacter							0.0001046030575473721	0.00025755499999999997	
Roseibium							0.0001046030575473721		
Pseudorhodobacter							0.0001046030575473721		
Thioclava							0.0001046030575473721		
Microvirga							0.0001046030575473721		
Agrobacterium							0.00031380917264211633		
Sinorhizobium							0.0001046030575473721		
Maritalea							0.0005230152877368605		
Pelagibacterium							0.0001046030575473721		
Cucumibacter							0.0001046030575473721		
Methylopila							0.00031380917264211633		
Albibacter							0.0001046030575473721		
Terasakiella							0.0001046030575473721		
Rhodopseudomonas							0.00031380917264211633	0.000101312	
Bradyrhizobium							0.0002092061150947442		
Amorphus							0.0001046030575473721		
Phyllobacterium							0.0001046030575473721		
Xanthobacter							0.0001046030575473721		
Starkeya							0.0001046030575473721		
Bartonella							0.0001046030575473721	1.74694	
Gluconobacter							0.00031380917264211633		
Acidiphilium							0.0002092061150947442		
Roseomonas							0.0002092061150947442		
Acidisoma							0.0002092061150947442		
Rhodopila							0.0001046030575473721		
Rubritepida							0.0001046030575473721		
Acidicaldus							0.0001046030575473721		
Roseospira							0.0001046030575473721		
Magnetospira							0.0001046030575473721		
Sphingosinicella							0.00031380917264211633		
Erythrobacter							0.0002092061150947442	0.00298108	
Altererythrobacter							0.0001046030575473721	1.74226	
Wolbachia							0.001150633633021093		
Ehrlichia							0.0002092061150947442		
Rickettsia							0.0001046030575473721		
Micavibrio							0.001150633633021093		
Parvularcula							0.0001046030575473721		
Caballeronia							0.0001046030575473721		
Achromobacter							0.0006276183452842327		
Brackiella							0.0004184122301894884	0.000129197	
Polaromonas							0.0006276183452842327		
Acidovorax							0.00031380917264211633		
Massilia							0.0002092061150947442		
Herbaspirillum							0.0001046030575473721		
Herminiimonas							0.0001046030575473721		
Roseateles							0.0001046030575473721		
Crenobacter							0.0007322214028316048		
Vitreoscilla							0.0002092061150947442		
Quatrionicoccus							0.0005230152877368605		
Aromatoleum							0.0001046030575473721		
Azoarcus							0.0001046030575473721		
Nitrosomonas							0.0002092061150947442		
Candidatus Tremblaya							0.0001046030575473721		
Desulfovibrio							0.001150633633021093	0.00039731799999999997	
Pseudodesulfovibrio							0.0001046030575473721		
Desulfohalobium							0.0002092061150947442		
Desulfonatronospira							0.0001046030575473721		
Desulfohalophilus							0.0001046030575473721		
Algorimarina							0.0001046030575473721		
Dissulfurimicrobium							0.0002092061150947442		
Desulfosoma							0.0001046030575473721		
Syntrophorhabdus							0.0001046030575473721		
Desulfuromonas							0.0001046030575473721		
Hippea							0.0001046030575473721		
Acidithiobacillus							0.00031380917264211633		
Thermotoga							0.000941427517926349	0.00140588	
Kosmotoga							0.00031380917264211633	0.000131631	
Marinitoga							0.0001046030575473721		
Athalassotoga							0.0001046030575473721		
Marispirochaeta							0.0002092061150947442		
Salinispira							0.0001046030575473721		
Pleomorphochaeta							0.0001046030575473721		
Leptonema							0.0001046030575473721		
Geminisphaera							0.0001046030575473721		
Roseibacillus							0.0001046030575473721		
Terrimicrobium							0.0001046030575473721		
Criblamydia							0.0002092061150947442		
Tepidisphaera							0.0001046030575473721		
Candidatus Koribacter							0.0002092061150947442		
Candidatus Solibacter							0.0001046030575473721		
Bryobacter							0.0001046030575473721		
Algoriphagus							0.0002092061150947442	0.000188949	
Nitritalea							0.0001046030575473721		
Fibrisoma							0.0001046030575473721		
Tellurirhabdus							0.0001046030575473721		
Pontibacter							0.0001046030575473721	0.00018947499999999998	
Thermonema							0.0001046030575473721		
Hyunsoonleella							0.00031380917264211633		
Flavobacterium							0.0001046030575473721		
Salegentibacter							0.0001046030575473721		
Elizabethkingia							0.00031380917264211633		
Candidatus Sulcia							0.0001046030575473721		
Sphingobacterium							0.0001046030575473721		
Pseudopedobacter							0.0001046030575473721		
Flavihumibacter							0.0001046030575473721		
Chlorobaculum							0.00031380917264211633		
Chloroherpeton							0.0002092061150947442		
Gemmatirosa							0.0004184122301894884		
Synergistes							0.0016736489207579536		
Thermodesulfovibrio							0.0005230152877368605		
Sulfurihydrogenibium							0.00031380917264211633		
Vampirococcus							0.0001046030575473721		
Fusobacterium							0.0001046030575473721		
Geovibrio							0.0001046030575473721		
Thermodesulfobacterium							0.0001046030575473721		
Natronolimnohabitans							0.0008368244603789768	0.000374855	
Salinirussus							0.0002092061150947442		
Halomarina							0.0001046030575473721		
Methanobacterium							0.0005230152877368605		
Methanobrevibacter							0.0004184122301894884		
Methanosphaera							0.0001046030575473721		
Actibacterium								0.000142666	
Actinoallomurus								1.17583	
Actinoalloteichus								0.000148945	
Actinomadura								0.0005508339999999999	
Actinopolymorpha								0.00012894799999999999	
Actinopolyspora								0.000689605	
Aestuariicoccus								0.00034255500000000003	
Aminicella								0.000128886	
Ammonifex								0.00120972	
Anoxynatronum								0.00012890499999999999	
Aquiflexum								0.000129312	
Arenimicrobium								0.00111393	
Atlantibacter								0.00263956	
Beduini								0.000128914	
Bosea								0.000149741	
Bryocella								0.00034831900000000004	
Bulleidia								0.000169091	
Caldanaerovirga								0.000128925	
Caldibacillus								0.00047340900000000005	
Candidatus Paracaedibacter								0.000525791	
Chiayiivirga								1.6436699999999997	
Coralloluteibacterium								0.000571712	
Coxiella								0.000157942	
Cyclobacterium								0.000160515	
Demequina								0.000128892	
Desulfotalea								9.90207e-05	
Desulfotignum								0.00012864499999999999	
Desulfovirgula								0.000198888	
Desulfurobacterium								0.00041167	
Dialister								0.000425447	
Emcibacter								0.000131706	
Enorma								0.000794043	
Ferrovum								0.00012882100000000002	
Flavilitoribacter								0.00021839	
Flexivirga								0.00080364	
Fucophilus								0.000339233	
Geodermatophilus								0.00178888	
Gleimia								0.000128906	
Gordonibacter								0.000604441	
Halanaeroarchaeum								0.000198821	
Halorientalis								0.000131624	
Helicobacter								0.000129354	
Henriciella								0.000436013	
Hydrogenibacillus								0.000130915	
Hydrogenispora								0.00012901200000000002	
Jatrophihabitans								0.000374554	
Kangiella								0.000360115	
Kocuria								6.96689e-05	
Kordiimonas								0.0017513	
Kosakonia								0.000624521	
Labrenzia								0.000128945	
Lacunisphaera								0.000129027	
Larsenimonas								0.00012889	
Lebetimonas								0.000129155	
Lentibacillus								0.000156325	
Leptospira								9.673579999999999e-05	
Libanicoccus								0.000943349	
Litoribrevibacter								0.00025884	
Longimicrobium								0.00042350799999999996	
Longispora								0.000127568	
Methylomarinovum								0.000130398	
Millisia								0.00025997899999999997	
Mobiluncus								0.000117925	
Mongoliitalea								0.000338369	
Mooreia								0.00015414699999999999	
Mycobacteroides								0.000173389	
Negadavirga								0.000178924	
Nereida								0.000151492	
Oceanotoga								0.000250117	
Persephonella								0.000409524	
Planktomarina								0.000587655	
Pleomorphomonas								0.000694407	
Prevotella								0.000132915	
Propionispira								0.000138017	
Pseudoclostridium								0.1283	
Saccharothrix								0.00014935100000000001	
Salinibacillus								0.00036494100000000003	
Sphingomicrobium								0.0006092340000000001	
Stackebrandtia								0.00040458899999999996	
Succinimonas								0.00013467200000000001	
Synechococcus								0.00021605899999999997	
Syntrophothermus								0.000397255	
Tenacibaculum								0.00013374	
Terrilactibacillus								0.000242368	
Thermanaerothrix								0.000180914	
Thermobrachium								0.000129425	
Thermocrinis								0.000390764	
Thermomicrobium								0.000128886	
Trueperella								0.000260756	
Unclassified								0.00079347	
Vagococcus								0.000461101	
readsLongEnough								0.0	
readsLongEnough_unmapped								0.0	
totalReads								0.0	
Buttiauxella									0.0002086256265288347
Mixta									0.0002086256265288347
