name	taxonomy_id	taxonomy_lvl	kraken_assigned_reads	added_reads	new_est_reads	fraction_total_reads
Bacillus velezensis	492670	S	2361	21891	24252	0.06694
Bacillus amyloliquefaciens	1390	S	763	6478	7241	0.01999
Bacillus siamensis	659243	S	41	309	350	0.00097
Bacillus subtilis	1423	S	1242	12563	13805	0.03810
Bacillus halotolerans	260554	S	406	2667	3073	0.00848
Bacillus licheniformis	1402	S	102	590	692	0.00191
Bacillus vallismortis	72361	S	74	1708	1782	0.00492
Bacillus paralicheniformis	1648923	S	51	203	254	0.00070
Bacillus sonorensis	119858	S	39	66	105	0.00029
Bacillus anthracis	1392	S	1242	3332	4574	0.01262
Bacillus thuringiensis	1428	S	938	4898	5836	0.01611
Bacillus cereus	1396	S	900	5208	6108	0.01686
Bacillus mycoides	1405	S	134	926	1060	0.00293
Bacillus pseudomycoides	64104	S	83	174	257	0.00071
Bacillus sp. FDAARGOS_235	1839798	S	18	435	453	0.00125
Bacillus altitudinis	293387	S	709	4389	5098	0.01407
Bacillus ruris	217495	S	244	84	328	0.00091
Bacillus sp. ZY-1-1	2093834	S	76	524	600	0.00166
Bacillus sp. 1NLA3E	666686	S	37	38	75	0.00021
Bacillus sp. Lzh-5	2049935	S	28	405	433	0.00120
Bacillus circulans	1397	S	135	228	363	0.00100
Bacillus qingshengii	1226983	S	101	1	102	0.00028
Bacillus safensis	561879	S	80	580	660	0.00182
Bacillus luteus	1237094	S	80	13	93	0.00026
Bacillus onubensis	1571209	S	78	89	167	0.00046
Bacillus smithii	1479	S	70	29	99	0.00027
Bacillus fengqiuensis	1285900	S	55	50	105	0.00029
Bacillus megaterium	1404	S	39	206	245	0.00068
Bacillus nealsonii	115979	S	34	13	47	0.00013
Bacillus andreraoultii	1499685	S	33	1	34	0.00009
Bacillus oleronius	38875	S	32	20	52	0.00014
Bacillus aurantiacus	254410	S	29	0	29	0.00008
Bacillus fordii	254759	S	25	19	44	0.00012
Bacillus coagulans	1398	S	21	19	40	0.00011
Bacillus marinisedimentorum	1821260	S	21	4	25	0.00007
Bacillus bingmayongensis	1150157	S	20	32	52	0.00014
Bacillus oleivorans	1448271	S	19	2	21	0.00006
Bacillus caseinilyticus	1503961	S	19	4	23	0.00006
Bacillus tianmuensis	582418	S	15	7	22	0.00006
Bacillus chagannorensis	427072	S	15	0	15	0.00004
Bacillus aidingensis	384933	S	14	0	14	0.00004
Bacillus lacisalsi	2045244	S	14	8	22	0.00006
Bacillus haikouensis	1510468	S	14	16	30	0.00008
Bacillus cellulosilyticus	1413	S	12	16	28	0.00008
Bacillus aeolius	203540	S	12	1	13	0.00004
Bacillus ectoiniformans	1494429	S	11	6	17	0.00005
Halobacillus karajensis	195088	S	37	41	78	0.00022
Halobacillus sediminis	1517559	S	34	48	82	0.00023
Halobacillus profundi	291742	S	22	45	67	0.00018
Halobacillus kuroshimensis	302481	S	10	0	10	0.00003
Anoxybacillus flavithermus	33934	S	51	83	134	0.00037
Anoxybacillus ayderensis	265546	S	21	12	33	0.00009
Anoxybacillus salavatliensis	771855	S	12	9	21	0.00006
Geobacillus thermoleovorans	33941	S	131	123	254	0.00070
Geobacillus lituanicus	169283	S	19	5	24	0.00007
Geobacillus sp. GHH01	1233873	S	11	55	66	0.00018
Alkalihalobacillus hemicentroti	582442	S	71	8	79	0.00022
Alkalihalobacillus bogoriensis	246272	S	18	1	19	0.00005
Alkalihalobacillus alkalisediminis	935616	S	16	3	19	0.00005
Alkalihalobacillus krulwichiae	199441	S	15	9	24	0.00007
Fictibacillus arsenicus	255247	S	52	13	65	0.00018
Fictibacillus enclensis	1017270	S	48	2	50	0.00014
Salicibibacter kimchii	2099786	S	85	0	85	0.00023
Salicibibacter halophilus	2502791	S	15	0	15	0.00004
Oceanobacillus halophilum	1245524	S	27	37	64	0.00018
Oceanobacillus indicireducens	1004261	S	20	3	23	0.00006
Lysinibacillus sphaericus	1421	S	54	99	153	0.00042
Peribacillus psychrosaccharolyticus	1407	S	24	7	31	0.00009
Peribacillus muralis	264697	S	17	25	42	0.00012
Peribacillus huizhouensis	1501239	S	16	25	41	0.00011
Parageobacillus toebii	153151	S	54	60	114	0.00031
Salimicrobium flavidum	570947	S	34	19	53	0.00015
Gracilibacillus dipsosauri	178340	S	25	20	45	0.00012
Gracilibacillus orientalis	334253	S	11	1	12	0.00003
Anaerobacillus arseniciselenatis	85682	S	45	16	61	0.00017
Paraliobacillus quinghaiensis	470815	S	15	4	19	0.00005
Paraliobacillus ryukyuensis	200904	S	12	8	20	0.00006
Pelagirhabdus alkalitolerans	1612202	S	29	2	31	0.00009
Aquisalibacillus elongatus	485577	S	27	10	37	0.00010
Aquibacillus halophilus	930132	S	23	17	40	0.00011
Amphibacillus tropicus	173040	S	12	2	14	0.00004
Natribacillus halophilus	549003	S	23	0	23	0.00006
Thermolongibacillus altinsuensis	575256	S	19	3	22	0.00006
Microaerobacter geothermalis	674972	S	20	0	20	0.00006
Tepidibacillus fermentans	1281767	S	18	0	18	0.00005
Bacillaceae bacterium TKL69	2594883	S	15	6	21	0.00006
Melghiribacillus thermohalophilus	1324956	S	14	0	14	0.00004
Cytobacillus firmus	1399	S	12	11	23	0.00006
Saccharococcus thermophilus	29396	S	12	0	12	0.00003
Listeria monocytogenes	1639	S	795	30392	31187	0.08608
Listeria ivanovii	1638	S	322	10474	10796	0.02980
Listeria floridensis	1494962	S	154	1349	1503	0.00415
Listeria innocua	1642	S	30	1160	1190	0.00328
Staphylococcus aureus	1280	S	12798	29007	41805	0.11538
Staphylococcus condimenti	70255	S	338	695	1033	0.00285
Staphylococcus auricularis	29379	S	230	16	246	0.00068
Staphylococcus argenteus	985002	S	146	533	679	0.00187
Staphylococcus epidermidis	1282	S	117	378	495	0.00137
Staphylococcus piscifermentans	70258	S	74	327	401	0.00111
Staphylococcus capitis	29388	S	65	169	234	0.00065
Staphylococcus nepalensis	214473	S	56	81	137	0.00038
Staphylococcus pasteuri	45972	S	52	38	90	0.00025
Staphylococcus pseudintermedius	283734	S	50	155	205	0.00057
Staphylococcus lugdunensis	28035	S	45	27	72	0.00020
Staphylococcus haemolyticus	1283	S	40	108	148	0.00041
Staphylococcus devriesei	586733	S	38	45	83	0.00023
Staphylococcus chromogenes	46126	S	33	21	54	0.00015
Staphylococcus simulans	1286	S	22	9	31	0.00009
Staphylococcus hominis	1290	S	21	11	32	0.00009
Staphylococcus schleiferi	1295	S	15	15	30	0.00008
Staphylococcus kloosii	29384	S	14	7	21	0.00006
Staphylococcus saprophyticus	29385	S	13	112	125	0.00035
Staphylococcus sp. AntiMn-1	1715860	S	11	34	45	0.00012
Staphylococcus argensis	1607738	S	10	12	22	0.00006
Salinicoccus iranensis	393538	S	156	0	156	0.00043
Salinicoccus luteus	367840	S	49	18	67	0.00018
Salinicoccus sediminis	1432562	S	18	0	18	0.00005
Aliicoccus persicus	930138	S	29	0	29	0.00008
Auricoccus indicus	1849491	S	14	3	17	0.00005
Paenibacillus brasilensis	128574	S	893	40	933	0.00258
Paenibacillus polymyxa	1406	S	67	18	85	0.00023
Paenibacillus apiarius	46240	S	67	4	71	0.00020
Paenibacillus anaericanus	170367	S	24	1	25	0.00007
Paenibacillus beijingensis	1126833	S	14	0	14	0.00004
Paenibacillus alvei	44250	S	12	1	13	0.00004
Paenibacillus chibensis	59846	S	11	0	11	0.00003
Aneurinibacillus aneurinilyticus	1391	S	10	14	24	0.00007
Cohnella terrae	557556	S	16	0	16	0.00004
Solibacillus silvestris	76853	S	59	92	151	0.00042
Paenisporosarcina antarctica	417367	S	60	11	71	0.00020
Planococcus donghaensis	414778	S	24	21	45	0.00012
Planococcus sp. MB-3u-03	2058136	S	19	1	20	0.00006
Ureibacillus thermosphaericus	51173	S	28	13	41	0.00011
Sporosarcina thermotolerans	633404	S	19	0	19	0.00005
[Bacillus] thermocloacae	33939	S	26	0	26	0.00007
Alicyclobacillus ferrooxydans	471514	S	21	1	22	0.00006
Limosilactobacillus fermentum	1613	S	53026	5622	58648	0.16187
Lactobacillus acidophilus	1579	S	190	80	270	0.00075
Lactobacillus gallinarum	52242	S	100	60	160	0.00044
Lactobacillus delbrueckii	1584	S	84	25	109	0.00030
Lactobacillus reuteri	1598	S	76	23	99	0.00027
Lactobacillus curvatus	28038	S	70	172	242	0.00067
Lactobacillus apis	303541	S	54	1	55	0.00015
Lactobacillus sakei	1599	S	41	33	74	0.00020
Lactobacillus salivarius	1624	S	40	3	43	0.00012
Lactobacillus acetotolerans	1600	S	40	0	40	0.00011
Lactobacillus kefiranofaciens	267818	S	36	3	39	0.00011
Lactobacillus collinoides	33960	S	33	13	46	0.00013
Lactobacillus hamsteri	96565	S	33	3	36	0.00010
Lactobacillus paracollinoides	240427	S	32	38	70	0.00019
Lactobacillus paracasei	1597	S	26	41	67	0.00018
Lactobacillus oryzae	1202668	S	28	10	38	0.00010
Lactobacillus helveticus	1587	S	24	15	39	0.00011
Lactobacillus secaliphilus	396268	S	23	3	26	0.00007
Lactobacillus backii	375175	S	21	12	33	0.00009
Lactobacillus algidus	105612	S	20	1	21	0.00006
Lactobacillus bombicola	1505723	S	19	0	19	0.00005
Lactobacillus paralimentarius	83526	S	18	11	29	0.00008
Lactobacillus mellifer	1218492	S	17	0	17	0.00005
Lactobacillus thailandensis	381741	S	17	1	18	0.00005
Lactobacillus vaginalis	1633	S	16	6	22	0.00006
Lactobacillus songhuajiangensis	1296539	S	15	1	16	0.00004
Lactobacillus rossiae	231049	S	12	3	15	0.00004
Lactobacillus senmaizukei	431273	S	11	13	24	0.00007
Lactobacillus gorillae	1450649	S	11	1	12	0.00003
Lactobacillus curtus	1746200	S	11	1	12	0.00003
Lactobacillus manihotivorans	88233	S	11	1	12	0.00003
Lactiplantibacillus plantarum	1590	S	849	562	1411	0.00389
Pediococcus acidilactici	1254	S	18	72	90	0.00025
Pediococcus siamensis	381829	S	17	1	18	0.00005
Liquorilactobacillus nagelii	82688	S	22	11	33	0.00009
Acetilactobacillus jinshanensis	1720083	S	14	0	14	0.00004
Enterococcus faecalis	1351	S	252	2040	2292	0.00633
Enterococcus faecium	1352	S	242	11442	11684	0.03225
Enterococcus cecorum	44008	S	95	294	389	0.00107
Enterococcus asini	57732	S	76	35	111	0.00031
Enterococcus mundtii	53346	S	64	1266	1330	0.00367
Enterococcus hirae	1354	S	33	2317	2350	0.00649
Enterococcus casseliflavus	37734	S	29	1190	1219	0.00336
Enterococcus durans	53345	S	26	1906	1932	0.00533
Enterococcus haemoperoxidus	155618	S	24	35	59	0.00016
Enterococcus avium	33945	S	21	291	312	0.00086
Enterococcus italicus	246144	S	19	31	50	0.00014
Enterococcus columbae	1355	S	16	35	51	0.00014
Enterococcus canis	214095	S	15	105	120	0.00033
Enterococcus malodoratus	71451	S	12	198	210	0.00058
Tetragenococcus muriaticus	64642	S	51	0	51	0.00014
Tetragenococcus solitarius	71453	S	19	4	23	0.00006
Tetragenococcus osmophilus	526944	S	17	2	19	0.00005
Tetragenococcus halophilus	51669	S	11	1	12	0.00003
Vagococcus teuberi	519472	S	36	17	53	0.00015
Vagococcus sp. CF-49	2562451	S	13	187	200	0.00055
Pilibacter termitis	263852	S	32	0	32	0.00009
Streptococcus thermophilus	1308	S	245	1	246	0.00068
Streptococcus sanguinis	1305	S	150	3	153	0.00042
Streptococcus suis	1307	S	100	0	100	0.00028
Streptococcus pyogenes	1314	S	94	0	94	0.00026
Streptococcus agalactiae	1311	S	82	1	83	0.00023
Streptococcus gallolyticus	315405	S	27	0	27	0.00007
Streptococcus koreensis	2382163	S	19	0	19	0.00005
Streptococcus marmotae	1825069	S	14	0	14	0.00004
Carnobacterium inhibens	147709	S	78	295	373	0.00103
Carnobacterium maltaromaticum	2751	S	18	40	58	0.00016
Carnobacterium gallinarum	2749	S	13	5	18	0.00005
Carnobacterium viridans	174587	S	13	11	24	0.00007
Alloiococcus otitis	1652	S	39	1	40	0.00011
Granulicatella elegans	137732	S	16	5	21	0.00006
Atopostipes suicloacalis	180295	S	15	0	15	0.00004
Weissella hellenica	46256	S	16	48	64	0.00018
Weissella koreensis	165096	S	12	11	23	0.00006
Fructobacillus fructosus	1631	S	10	1	11	0.00003
Aerococcus urinae	1376	S	32	4	36	0.00010
Facklamia tabacinasalis	87458	S	12	0	12	0.00003
Facklamia sourekii	87650	S	11	0	11	0.00003
Crassaminicella profunda	1286698	S	12	7	19	0.00005
Propioniferax innocua	1753	S	93	0	93	0.00026
Thermomonospora curvata	2020	S	27	1	28	0.00008
Mycoplasma capricolum	2095	S	26	23	49	0.00014
Mycoplasmopsis californica	2113	S	23	1	24	0.00007
Salmonella enterica	28901	S	39619	23067	62686	0.17301
Escherichia coli	562	S	3711	3970	7681	0.02120
Klebsiella pneumoniae	573	S	1837	1514	3351	0.00925
Klebsiella aerogenes	548	S	178	255	433	0.00120
Klebsiella oxytoca	571	S	142	142	284	0.00078
Klebsiella quasipneumoniae	1463165	S	71	95	166	0.00046
Klebsiella variicola	244366	S	67	114	181	0.00050
Klebsiella michiganensis	1134687	S	11	18	29	0.00008
Shigella dysenteriae	622	S	1085	2216	3301	0.00911
Shigella flexneri	623	S	175	242	417	0.00115
Shigella boydii	621	S	75	135	210	0.00058
Shigella sonnei	624	S	15	18	33	0.00009
Enterobacter cloacae complex sp.	2027919	S	180	154	334	0.00092
Enterobacter cloacae complex sp. FDA-CDC-AR_0164	2077136	S	10	22	32	0.00009
Enterobacter ludwigii	299767	S	59	208	267	0.00074
Enterobacter hormaechei	158836	S	50	73	123	0.00034
Enterobacter cloacae	550	S	45	187	232	0.00064
Enterobacter kobei	208224	S	19	19	38	0.00010
Enterobacter mori	539813	S	38	3	41	0.00011
Enterobacter sp. EA-1	2057026	S	12	0	12	0.00003
Enterobacter bugandensis	881260	S	10	7	17	0.00005
Candidatus Purcelliella pentastirinorum	472834	S	112	0	112	0.00031
secondary endosymbiont of Ctenarytaina eucalypti	1199245	S	18	22	40	0.00011
Candidatus Gullanella endobia	1070130	S	22	0	22	0.00006
Candidatus Mikella endobia	1778264	S	18	0	18	0.00005
Biostraticola tofi	466109	S	163	1	164	0.00045
Enterobacteriaceae bacterium strain FGI 57	693444	S	106	36	142	0.00039
Plautia stali symbiont	891974	S	45	6	51	0.00014
Atlantibacter hermannii	565	S	56	129	185	0.00051
Cedecea lapagei	158823	S	53	48	101	0.00028
Franconibacter pulveris	435910	S	41	1	42	0.00012
Citrobacter freundii complex sp. CFNIH2	2066049	S	20	11	31	0.00009
Citrobacter rodentium	67825	S	23	4	27	0.00007
Kosakonia arachidis	551989	S	21	2	23	0.00006
Kosakonia cowanii	208223	S	16	2	18	0.00005
Candidatus Riesia sp. GBBU	1719125	S	14	0	14	0.00004
Candidatus Riesia pediculicola	401619	S	10	0	10	0.00003
Kluyvera ascorbata	51288	S	15	14	29	0.00008
Pluralibacter pyrinus	81476	S	13	6	19	0.00005
Pseudescherichia vulneris	566	S	12	3	15	0.00004
Trabulsiella guamensis	158852	S	10	0	10	0.00003
Dickeya chrysanthemi	556	S	428	65	493	0.00136
Dickeya dadantii	204038	S	10	1	11	0.00003
Candidatus Sodalis pierantonius	1486991	S	178	4	182	0.00050
Pectobacterium parmentieri	1905730	S	79	98	177	0.00049
Pectobacterium carotovorum	554	S	33	18	51	0.00014
Pectobacterium cacticida	69221	S	13	1	14	0.00004
Pectobacterium odoriferum	78398	S	13	3	16	0.00004
Brenneria alni	71656	S	66	5	71	0.00020
Yersinia enterocolitica	630	S	365	99	464	0.00128
Yersinia pestis	632	S	126	21	147	0.00041
Yersinia pseudotuberculosis	633	S	28	11	39	0.00011
Yersinia ruckeri	29486	S	59	5	64	0.00018
Yersinia frederiksenii	29484	S	28	8	36	0.00010
Serratia ficaria	61651	S	59	32	91	0.00025
Serratia ureilytica	300181	S	28	1	29	0.00008
Serratia marcescens	615	S	24	41	65	0.00018
Serratia plymuthica	82996	S	24	36	60	0.00017
Serratia oryzae	2034155	S	11	0	11	0.00003
Candidatus Fukatsuia symbiotica	1878942	S	15	0	15	0.00004
Erwinia piriflorinigrans	665097	S	418	31	449	0.00124
Candidatus Erwinia haradaeae	1922217	S	29	0	29	0.00008
Erwinia amylovora	552	S	20	13	33	0.00009
Erwinia mallotivora	69222	S	16	17	33	0.00009
Pantoea stewartii	66269	S	45	4	49	0.00014
Pantoea cypripedii	55209	S	21	2	23	0.00006
Pantoea ananatis	553	S	15	123	138	0.00038
Pantoea sp. At-9b	592316	S	13	3	16	0.00004
Pantoea agglomerans	549	S	13	7	20	0.00006
Candidatus Pantoea carbekii	1235990	S	12	0	12	0.00003
Phaseolibacter flectens	86187	S	77	0	77	0.00021
Tatumella ptyseos	82987	S	11	1	12	0.00003
Xenorhabdus stockiae	351614	S	98	5	103	0.00028
Xenorhabdus poinarii	40577	S	34	11	45	0.00012
Xenorhabdus innexi	290109	S	25	4	29	0.00008
Xenorhabdus griffiniae	351672	S	16	5	21	0.00006
Providencia rettgeri	587	S	63	14	77	0.00021
Providencia stuartii	588	S	40	10	50	0.00014
Providencia alcalifaciens	126385	S	16	6	22	0.00006
Candidatus Arsenophonus lipoptenae	634113	S	47	0	47	0.00013
Arsenophonus endosymbiont of Aleurodicus dispersus	235559	S	25	0	25	0.00007
Morganella morganii	582	S	43	1	44	0.00012
Photorhabdus asymbiotica	291112	S	21	18	39	0.00011
Coetzeea brasiliensis	1812101	S	16	0	16	0.00004
Pragia fontium	82985	S	11	0	11	0.00003
Pseudomonas aeruginosa	287	S	395	3419	3814	0.01053
Pseudomonas alcaligenes	43263	S	59	589	648	0.00179
Pseudomonas resinovorans	53412	S	16	58	74	0.00020
Pseudomonas mendocina	300	S	12	188	200	0.00055
Pseudomonas putida	303	S	192	4056	4248	0.01172
Pseudomonas monteilii	76759	S	10	524	534	0.00147
Pseudomonas stutzeri	316	S	184	4007	4191	0.01157
Pseudomonas tolaasii	29442	S	64	867	931	0.00257
Pseudomonas fluorescens	294	S	18	912	930	0.00257
Pseudomonas veronii	76761	S	12	231	243	0.00067
Pseudomonas duriflava	459528	S	71	133	204	0.00056
Pseudomonas sp. DY-1	1755504	S	43	68	111	0.00031
Pseudomonas zeshuii	1076620	S	42	122	164	0.00045
Pseudomonas saponiphila	556534	S	39	66	105	0.00029
Pseudomonas bauzanensis	653930	S	37	44	81	0.00022
Pseudomonas seleniipraecipitans	640205	S	37	267	304	0.00084
Pseudomonas xinjiangensis	487184	S	37	20	57	0.00016
Pseudomonas brassicacearum	930166	S	23	444	467	0.00129
Pseudomonas guineae	425504	S	15	102	117	0.00032
Pseudomonas sihuiensis	1274359	S	15	37	52	0.00014
Pseudomonas indica	137658	S	15	53	68	0.00019
Pseudomonas panacis	307251	S	12	48	60	0.00017
Gynuella sunshinyii	1445505	S	24	0	24	0.00007
Alishewanella fetalis	111143	S	12	0	12	0.00003
Vibrio vulnificus	672	S	11	4	15	0.00004
Silanimonas lenta	265429	S	10	0	10	0.00003
Aeromonas salmonicida	645	S	13	0	13	0.00004
Eionea nigra	287488	S	12	0	12	0.00003
Nevskia aquatilis	1175514	S	14	0	14	0.00004
Legionella lansingensis	45067	S	13	-9	4	0.00001
Neisseria meningitidis	487	S	45	220	265	0.00073
Neisseria chenwenguii	1853278	S	21	8	29	0.00008
Neisseria sicca	490	S	16	183	199	0.00055
Conchiformibius steedae	153493	S	11	0	11	0.00003
Laribacter hongkongensis	168471	S	16	0	16	0.00004
Polynucleobacter rarus	556055	S	10	0	10	0.00003
Alcaligenes pakistanensis	1482717	S	13	0	13	0.00004
Candidatus Profftella armatura	669502	S	10	0	10	0.00003
Pleomorphomonas diazotrophica	1166257	S	37	5	42	0.00012
Geoalkalibacter subterraneus	483547	S	11	0	11	0.00003
Chitinophaga cymbidii	1096750	S	11	0	11	0.00003
Fusobacterium hwasookii	1583098	S	20	2	22	0.00006
